﻿# Tiled2Unity generated file. Do not modify by hand.
# Wavefront file for 'WorldMap-(2)_mesh_0015.obj'

# Vertices (Count = 4)
v -528 -928 0
v -592 -928 0
v -592 -864 0
v -528 -864 0

# Texture cooridinates (Count = 4)
vt 0 0
vt 1 0
vt 1 1
vt 0 1

# Normal
vn 0 0 -1

# Mesh description
g WorldMap-(2)_mesh_0015

# Faces
f 1/1/1 2/2/1 3/3/1 4/4/1

