﻿# Tiled2Unity generated file. Do not modify by hand.
# Wavefront file for 'LMB_mesh_0014.obj'

# Vertices (Count = 8)
v -41.6 -30.93333 0
v -42.66667 -30.93333 0
v -42.66667 -29.86667 0
v -41.6 -29.86667 0
v -48 -30.93333 0
v -49.06667 -30.93333 0
v -49.06667 -29.86667 0
v -48 -29.86667 0

# Texture cooridinates (Count = 4)
vt 0.2985537 0.743346
vt 0.3150826 0.743346
vt 0.3150826 0.7737643
vt 0.2985537 0.7737643

# Normal
vn 0 0 -1

# Mesh description
g LMB_mesh_0014

# Faces
f 1/1/1 2/2/1 3/3/1 4/4/1
f 5/1/1 6/2/1 7/3/1 8/4/1

