﻿# Tiled2Unity generated file. Do not modify by hand.
# Wavefront file for 'LMB_mesh_0019.obj'

# Vertices (Count = 188)
v -40.53334 -14.93333 0
v -41.6 -14.93333 0
v -41.6 -13.86667 0
v -40.53334 -13.86667 0
v -49.06667 -14.93333 0
v -50.13334 -14.93333 0
v -50.13334 -13.86667 0
v -49.06667 -13.86667 0
v -40.53334 -16 0
v -41.6 -16 0
v -41.6 -14.93333 0
v -40.53334 -14.93333 0
v -49.06667 -16 0
v -50.13334 -16 0
v -50.13334 -14.93333 0
v -49.06667 -14.93333 0
v -40.53334 -17.06667 0
v -41.6 -17.06667 0
v -41.6 -16 0
v -40.53334 -16 0
v -49.06667 -17.06667 0
v -50.13334 -17.06667 0
v -50.13334 -16 0
v -49.06667 -16 0
v -40.53334 -18.13334 0
v -41.6 -18.13334 0
v -41.6 -17.06667 0
v -40.53334 -17.06667 0
v -49.06667 -18.13334 0
v -50.13334 -18.13334 0
v -50.13334 -17.06667 0
v -49.06667 -17.06667 0
v -40.53334 -19.2 0
v -41.6 -19.2 0
v -41.6 -18.13334 0
v -40.53334 -18.13334 0
v -49.06667 -19.2 0
v -50.13334 -19.2 0
v -50.13334 -18.13334 0
v -49.06667 -18.13334 0
v -40.53334 -20.26667 0
v -41.6 -20.26667 0
v -41.6 -19.2 0
v -40.53334 -19.2 0
v -49.06667 -20.26667 0
v -50.13334 -20.26667 0
v -50.13334 -19.2 0
v -49.06667 -19.2 0
v -40.53334 -21.33333 0
v -41.6 -21.33333 0
v -41.6 -20.26667 0
v -40.53334 -20.26667 0
v -49.06667 -21.33333 0
v -50.13334 -21.33333 0
v -50.13334 -20.26667 0
v -49.06667 -20.26667 0
v -40.53334 -22.4 0
v -41.6 -22.4 0
v -41.6 -21.33333 0
v -40.53334 -21.33333 0
v -49.06667 -22.4 0
v -50.13334 -22.4 0
v -50.13334 -21.33333 0
v -49.06667 -21.33333 0
v -40.53334 -23.46667 0
v -41.6 -23.46667 0
v -41.6 -22.4 0
v -40.53334 -22.4 0
v -49.06667 -23.46667 0
v -50.13334 -23.46667 0
v -50.13334 -22.4 0
v -49.06667 -22.4 0
v -40.53334 -24.53333 0
v -41.6 -24.53333 0
v -41.6 -23.46667 0
v -40.53334 -23.46667 0
v -49.06667 -24.53333 0
v -50.13334 -24.53333 0
v -50.13334 -23.46667 0
v -49.06667 -23.46667 0
v -40.53334 -25.6 0
v -41.6 -25.6 0
v -41.6 -24.53333 0
v -40.53334 -24.53333 0
v -49.06667 -25.6 0
v -50.13334 -25.6 0
v -50.13334 -24.53333 0
v -49.06667 -24.53333 0
v -40.53334 -26.66667 0
v -41.6 -26.66667 0
v -41.6 -25.6 0
v -40.53334 -25.6 0
v -49.06667 -26.66667 0
v -50.13334 -26.66667 0
v -50.13334 -25.6 0
v -49.06667 -25.6 0
v -40.53334 -27.73334 0
v -41.6 -27.73334 0
v -41.6 -26.66667 0
v -40.53334 -26.66667 0
v -49.06667 -27.73334 0
v -50.13334 -27.73334 0
v -50.13334 -26.66667 0
v -49.06667 -26.66667 0
v -40.53334 -28.8 0
v -41.6 -28.8 0
v -41.6 -27.73334 0
v -40.53334 -27.73334 0
v -49.06667 -28.8 0
v -50.13334 -28.8 0
v -50.13334 -27.73334 0
v -49.06667 -27.73334 0
v -40.53334 -29.86667 0
v -41.6 -29.86667 0
v -41.6 -28.8 0
v -40.53334 -28.8 0
v -49.06667 -29.86667 0
v -50.13334 -29.86667 0
v -50.13334 -28.8 0
v -49.06667 -28.8 0
v -40.53334 -30.93333 0
v -41.6 -30.93333 0
v -41.6 -29.86667 0
v -40.53334 -29.86667 0
v -41.6 -30.93333 0
v -42.66667 -30.93333 0
v -42.66667 -29.86667 0
v -41.6 -29.86667 0
v -42.66667 -30.93333 0
v -43.73334 -30.93333 0
v -43.73334 -29.86667 0
v -42.66667 -29.86667 0
v -46.93333 -30.93333 0
v -48 -30.93333 0
v -48 -29.86667 0
v -46.93333 -29.86667 0
v -48 -30.93333 0
v -49.06667 -30.93333 0
v -49.06667 -29.86667 0
v -48 -29.86667 0
v -49.06667 -30.93333 0
v -50.13334 -30.93333 0
v -50.13334 -29.86667 0
v -49.06667 -29.86667 0
v -40.53334 -32 0
v -41.6 -32 0
v -41.6 -30.93333 0
v -40.53334 -30.93333 0
v -41.6 -32 0
v -42.66667 -32 0
v -42.66667 -30.93333 0
v -41.6 -30.93333 0
v -42.66667 -32 0
v -43.73334 -32 0
v -43.73334 -30.93333 0
v -42.66667 -30.93333 0
v -46.93333 -32 0
v -48 -32 0
v -48 -30.93333 0
v -46.93333 -30.93333 0
v -48 -32 0
v -49.06667 -32 0
v -49.06667 -30.93333 0
v -48 -30.93333 0
v -49.06667 -32 0
v -50.13334 -32 0
v -50.13334 -30.93333 0
v -49.06667 -30.93333 0
v -52.26667 -45.86667 0
v -53.33334 -45.86667 0
v -53.33334 -44.8 0
v -52.26667 -44.8 0
v -53.33334 -46.93333 0
v -54.4 -46.93333 0
v -54.4 -45.86667 0
v -53.33334 -45.86667 0
v -54.4 -48 0
v -55.46667 -48 0
v -55.46667 -46.93333 0
v -54.4 -46.93333 0
v -55.46667 -49.06667 0
v -56.53334 -49.06667 0
v -56.53334 -48 0
v -55.46667 -48 0
v -56.53334 -50.13334 0
v -57.6 -50.13334 0
v -57.6 -49.06667 0
v -56.53334 -49.06667 0

# Texture cooridinates (Count = 24)
vt 0.6849173 0.4505703
vt 0.6849173 0.4201521
vt 0.7014463 0.4201521
vt 0.7014463 0.4505703
vt 0.4204545 0.5152091
vt 0.4039256 0.5152091
vt 0.4039256 0.4847909
vt 0.4204545 0.4847909
vt 0.3677686 0.5152091
vt 0.3512397 0.5152091
vt 0.3512397 0.4847909
vt 0.3677686 0.4847909
vt 0.3853306 0.5152091
vt 0.3688017 0.5152091
vt 0.3688017 0.4847909
vt 0.3853306 0.4847909
vt 0.3161157 0.8726236
vt 0.3326446 0.8726236
vt 0.3326446 0.9030418
vt 0.3161157 0.9030418
vt 0.3161157 0.904943
vt 0.3326446 0.904943
vt 0.3326446 0.9353612
vt 0.3161157 0.9353612

# Normal
vn 0 0 -1

# Mesh description
g LMB_mesh_0019

# Faces
f 1/1/1 2/2/1 3/3/1 4/4/1
f 5/3/1 6/4/1 7/1/1 8/2/1
f 9/1/1 10/2/1 11/3/1 12/4/1
f 13/3/1 14/4/1 15/1/1 16/2/1
f 17/1/1 18/2/1 19/3/1 20/4/1
f 21/3/1 22/4/1 23/1/1 24/2/1
f 25/1/1 26/2/1 27/3/1 28/4/1
f 29/3/1 30/4/1 31/1/1 32/2/1
f 33/1/1 34/2/1 35/3/1 36/4/1
f 37/3/1 38/4/1 39/1/1 40/2/1
f 41/1/1 42/2/1 43/3/1 44/4/1
f 45/3/1 46/4/1 47/1/1 48/2/1
f 49/1/1 50/2/1 51/3/1 52/4/1
f 53/3/1 54/4/1 55/1/1 56/2/1
f 57/1/1 58/2/1 59/3/1 60/4/1
f 61/3/1 62/4/1 63/1/1 64/2/1
f 65/1/1 66/2/1 67/3/1 68/4/1
f 69/3/1 70/4/1 71/1/1 72/2/1
f 73/1/1 74/2/1 75/3/1 76/4/1
f 77/3/1 78/4/1 79/1/1 80/2/1
f 81/1/1 82/2/1 83/3/1 84/4/1
f 85/3/1 86/4/1 87/1/1 88/2/1
f 89/1/1 90/2/1 91/3/1 92/4/1
f 93/3/1 94/4/1 95/1/1 96/2/1
f 97/1/1 98/2/1 99/3/1 100/4/1
f 101/3/1 102/4/1 103/1/1 104/2/1
f 105/1/1 106/2/1 107/3/1 108/4/1
f 109/3/1 110/4/1 111/1/1 112/2/1
f 113/1/1 114/2/1 115/3/1 116/4/1
f 117/3/1 118/4/1 119/1/1 120/2/1
f 121/5/1 122/6/1 123/7/1 124/8/1
f 125/9/1 126/10/1 127/11/1 128/12/1
f 129/9/1 130/10/1 131/11/1 132/12/1
f 133/9/1 134/10/1 135/11/1 136/12/1
f 137/9/1 138/10/1 139/11/1 140/12/1
f 141/13/1 142/14/1 143/15/1 144/16/1
f 145/15/1 146/16/1 147/13/1 148/14/1
f 149/17/1 150/18/1 151/19/1 152/20/1
f 153/15/1 154/16/1 155/13/1 156/14/1
f 157/7/1 158/8/1 159/5/1 160/6/1
f 161/21/1 162/22/1 163/23/1 164/24/1
f 165/7/1 166/8/1 167/5/1 168/6/1
f 169/2/1 170/3/1 171/4/1 172/1/1
f 173/2/1 174/3/1 175/4/1 176/1/1
f 177/2/1 178/3/1 179/4/1 180/1/1
f 181/2/1 182/3/1 183/4/1 184/1/1
f 185/2/1 186/3/1 187/4/1 188/1/1

