﻿# Tiled2Unity generated file. Do not modify by hand.
# Wavefront file for 'LMB_mesh_0016.obj'

# Vertices (Count = 156)
v -40.53334 -34.13334 0
v -41.6 -34.13334 0
v -41.6 -33.06667 0
v -40.53334 -33.06667 0
v -40.53334 -35.2 0
v -41.6 -35.2 0
v -41.6 -34.13334 0
v -40.53334 -34.13334 0
v -41.6 -35.2 0
v -42.66667 -35.2 0
v -42.66667 -34.13334 0
v -41.6 -34.13334 0
v -40.53334 -36.26667 0
v -41.6 -36.26667 0
v -41.6 -35.2 0
v -40.53334 -35.2 0
v -41.6 -36.26667 0
v -42.66667 -36.26667 0
v -42.66667 -35.2 0
v -41.6 -35.2 0
v -42.66667 -36.26667 0
v -43.73334 -36.26667 0
v -43.73334 -35.2 0
v -42.66667 -35.2 0
v -44.8 -36.26667 0
v -45.86667 -36.26667 0
v -45.86667 -35.2 0
v -44.8 -35.2 0
v -45.86667 -36.26667 0
v -46.93333 -36.26667 0
v -46.93333 -35.2 0
v -45.86667 -35.2 0
v -46.93333 -36.26667 0
v -48 -36.26667 0
v -48 -35.2 0
v -46.93333 -35.2 0
v -41.6 -37.33334 0
v -42.66667 -37.33334 0
v -42.66667 -36.26667 0
v -41.6 -36.26667 0
v -42.66667 -37.33334 0
v -43.73334 -37.33334 0
v -43.73334 -36.26667 0
v -42.66667 -36.26667 0
v -43.73334 -37.33334 0
v -44.8 -37.33334 0
v -44.8 -36.26667 0
v -43.73334 -36.26667 0
v -45.86667 -37.33334 0
v -46.93333 -37.33334 0
v -46.93333 -36.26667 0
v -45.86667 -36.26667 0
v -46.93333 -37.33334 0
v -48 -37.33334 0
v -48 -36.26667 0
v -46.93333 -36.26667 0
v -48 -37.33334 0
v -49.06667 -37.33334 0
v -49.06667 -36.26667 0
v -48 -36.26667 0
v -49.06667 -37.33334 0
v -50.13334 -37.33334 0
v -50.13334 -36.26667 0
v -49.06667 -36.26667 0
v -46.93333 -38.4 0
v -48 -38.4 0
v -48 -37.33334 0
v -46.93333 -37.33334 0
v -48 -42.66667 0
v -49.06667 -42.66667 0
v -49.06667 -41.6 0
v -48 -41.6 0
v -49.06667 -42.66667 0
v -50.13334 -42.66667 0
v -50.13334 -41.6 0
v -49.06667 -41.6 0
v -50.13334 -42.66667 0
v -51.2 -42.66667 0
v -51.2 -41.6 0
v -50.13334 -41.6 0
v -38.4 -43.73334 0
v -39.46667 -43.73334 0
v -39.46667 -42.66667 0
v -38.4 -42.66667 0
v -48 -43.73334 0
v -49.06667 -43.73334 0
v -49.06667 -42.66667 0
v -48 -42.66667 0
v -49.06667 -43.73334 0
v -50.13334 -43.73334 0
v -50.13334 -42.66667 0
v -49.06667 -42.66667 0
v -50.13334 -43.73334 0
v -51.2 -43.73334 0
v -51.2 -42.66667 0
v -50.13334 -42.66667 0
v -38.4 -44.8 0
v -39.46667 -44.8 0
v -39.46667 -43.73334 0
v -38.4 -43.73334 0
v -39.46667 -44.8 0
v -40.53334 -44.8 0
v -40.53334 -43.73334 0
v -39.46667 -43.73334 0
v -48 -44.8 0
v -49.06667 -44.8 0
v -49.06667 -43.73334 0
v -48 -43.73334 0
v -49.06667 -44.8 0
v -50.13334 -44.8 0
v -50.13334 -43.73334 0
v -49.06667 -43.73334 0
v -50.13334 -44.8 0
v -51.2 -44.8 0
v -51.2 -43.73334 0
v -50.13334 -43.73334 0
v -51.2 -44.8 0
v -52.26667 -44.8 0
v -52.26667 -43.73334 0
v -51.2 -43.73334 0
v -38.4 -45.86667 0
v -39.46667 -45.86667 0
v -39.46667 -44.8 0
v -38.4 -44.8 0
v -39.46667 -45.86667 0
v -40.53334 -45.86667 0
v -40.53334 -44.8 0
v -39.46667 -44.8 0
v -40.53334 -45.86667 0
v -41.6 -45.86667 0
v -41.6 -44.8 0
v -40.53334 -44.8 0
v -48 -45.86667 0
v -49.06667 -45.86667 0
v -49.06667 -44.8 0
v -48 -44.8 0
v -51.2 -45.86667 0
v -52.26667 -45.86667 0
v -52.26667 -44.8 0
v -51.2 -44.8 0
v -38.4 -46.93333 0
v -39.46667 -46.93333 0
v -39.46667 -45.86667 0
v -38.4 -45.86667 0
v -48 -46.93333 0
v -49.06667 -46.93333 0
v -49.06667 -45.86667 0
v -48 -45.86667 0
v -49.06667 -46.93333 0
v -50.13334 -46.93333 0
v -50.13334 -45.86667 0
v -49.06667 -45.86667 0
v -38.4 -48 0
v -39.46667 -48 0
v -39.46667 -46.93333 0
v -38.4 -46.93333 0

# Texture cooridinates (Count = 28)
vt 0.7200413 0.4847909
vt 0.7365702 0.4847909
vt 0.7365702 0.5152091
vt 0.7200413 0.5152091
vt 0.8770661 0.4847909
vt 0.8770661 0.5152091
vt 0.8605372 0.5152091
vt 0.8605372 0.4847909
vt 0.8243802 0.4847909
vt 0.8243802 0.5152091
vt 0.8078513 0.5152091
vt 0.8078513 0.4847909
vt 0.8956612 0.4847909
vt 0.9121901 0.4847909
vt 0.9121901 0.5152091
vt 0.8956612 0.5152091
vt 0.8946281 0.4847909
vt 0.8946281 0.5152091
vt 0.8780992 0.5152091
vt 0.8780992 0.4847909
vt 0.9132231 0.4847909
vt 0.9297521 0.4847909
vt 0.9297521 0.5152091
vt 0.9132231 0.5152091
vt 0.8595041 0.4847909
vt 0.8595041 0.5152091
vt 0.8429752 0.5152091
vt 0.8429752 0.4847909

# Normal
vn 0 0 -1

# Mesh description
g LMB_mesh_0016

# Faces
f 1/1/1 2/2/1 3/3/1 4/4/1
f 5/1/1 6/2/1 7/3/1 8/4/1
f 9/1/1 10/2/1 11/3/1 12/4/1
f 13/1/1 14/2/1 15/3/1 16/4/1
f 17/5/1 18/6/1 19/7/1 20/8/1
f 21/9/1 22/10/1 23/11/1 24/12/1
f 25/1/1 26/2/1 27/3/1 28/4/1
f 29/1/1 30/2/1 31/3/1 32/4/1
f 33/13/1 34/14/1 35/15/1 36/16/1
f 37/1/1 38/2/1 39/3/1 40/4/1
f 41/17/1 42/18/1 43/19/1 44/20/1
f 45/1/1 46/2/1 47/3/1 48/4/1
f 49/13/1 50/14/1 51/15/1 52/16/1
f 53/1/1 54/2/1 55/3/1 56/4/1
f 57/21/1 58/22/1 59/23/1 60/24/1
f 61/13/1 62/14/1 63/15/1 64/16/1
f 65/21/1 66/22/1 67/23/1 68/24/1
f 69/21/1 70/22/1 71/23/1 72/24/1
f 73/1/1 74/2/1 75/3/1 76/4/1
f 77/25/1 78/26/1 79/27/1 80/28/1
f 81/21/1 82/22/1 83/23/1 84/24/1
f 85/8/1 86/5/1 87/6/1 88/7/1
f 89/21/1 90/22/1 91/23/1 92/24/1
f 93/1/1 94/2/1 95/3/1 96/4/1
f 97/1/1 98/2/1 99/3/1 100/4/1
f 101/20/1 102/17/1 103/18/1 104/19/1
f 105/1/1 106/2/1 107/3/1 108/4/1
f 109/9/1 110/10/1 111/11/1 112/12/1
f 113/13/1 114/14/1 115/15/1 116/16/1
f 117/1/1 118/2/1 119/3/1 120/4/1
f 121/26/1 122/27/1 123/28/1 124/25/1
f 125/7/1 126/8/1 127/5/1 128/6/1
f 129/28/1 130/25/1 131/26/1 132/27/1
f 133/12/1 134/9/1 135/10/1 136/11/1
f 137/1/1 138/2/1 139/3/1 140/4/1
f 141/1/1 142/2/1 143/3/1 144/4/1
f 145/1/1 146/2/1 147/3/1 148/4/1
f 149/1/1 150/2/1 151/3/1 152/4/1
f 153/1/1 154/2/1 155/3/1 156/4/1

