﻿# Tiled2Unity generated file. Do not modify by hand.
# Wavefront file for 'HesHall_mesh_0006.obj'

# Vertices (Count = 52)
v -22.4 -39.46667 0
v -23.46667 -39.46667 0
v -23.46667 -38.4 0
v -22.4 -38.4 0
v -38.4 -39.46667 0
v -39.46667 -39.46667 0
v -39.46667 -38.4 0
v -38.4 -38.4 0
v -30.93333 -41.6 0
v -32 -41.6 0
v -32 -40.53334 0
v -30.93333 -40.53334 0
v -23.46667 -42.66667 0
v -24.53333 -42.66667 0
v -24.53333 -41.6 0
v -23.46667 -41.6 0
v -38.4 -45.86667 0
v -39.46667 -45.86667 0
v -39.46667 -44.8 0
v -38.4 -44.8 0
v -21.33333 -52.26667 0
v -22.4 -52.26667 0
v -22.4 -51.2 0
v -21.33333 -51.2 0
v -38.4 -58.66667 0
v -39.46667 -58.66667 0
v -39.46667 -57.6 0
v -38.4 -57.6 0
v -21.33333 -59.73334 0
v -22.4 -59.73334 0
v -22.4 -58.66667 0
v -21.33333 -58.66667 0
v -23.46667 -62.93334 0
v -24.53333 -62.93334 0
v -24.53333 -61.86667 0
v -23.46667 -61.86667 0
v -35.2 -64 0
v -36.26667 -64 0
v -36.26667 -62.93334 0
v -35.2 -62.93334 0
v -38.4 -66.13334 0
v -39.46667 -66.13334 0
v -39.46667 -65.06667 0
v -38.4 -65.06667 0
v -26.66667 -68.26667 0
v -27.73334 -68.26667 0
v -27.73334 -67.2 0
v -26.66667 -67.2 0
v -33.06667 -71.46667 0
v -34.13334 -71.46667 0
v -34.13334 -70.4 0
v -33.06667 -70.4 0

# Texture cooridinates (Count = 8)
vt 0.2418699 0.947541
vt 0.2743903 0.947541
vt 0.2743903 1
vt 0.2418699 1
vt 0.2418699 0.8918033
vt 0.2743903 0.8918033
vt 0.2743903 0.9442623
vt 0.2418699 0.9442623

# Normal
vn 0 0 -1

# Mesh description
g HesHall_mesh_0006

# Faces
f 1/1/1 2/2/1 3/3/1 4/4/1
f 5/1/1 6/2/1 7/3/1 8/4/1
f 9/5/1 10/6/1 11/7/1 12/8/1
f 13/1/1 14/2/1 15/3/1 16/4/1
f 17/5/1 18/6/1 19/7/1 20/8/1
f 21/1/1 22/2/1 23/3/1 24/4/1
f 25/5/1 26/6/1 27/7/1 28/8/1
f 29/5/1 30/6/1 31/7/1 32/8/1
f 33/5/1 34/6/1 35/7/1 36/8/1
f 37/1/1 38/2/1 39/3/1 40/4/1
f 41/5/1 42/6/1 43/7/1 44/8/1
f 45/1/1 46/2/1 47/3/1 48/4/1
f 49/5/1 50/6/1 51/7/1 52/8/1

