﻿# Tiled2Unity generated file. Do not modify by hand.
# Wavefront file for 'HesHall_mesh_0012.obj'

# Vertices (Count = 192)
v -21.33333 -33.06667 0
v -22.4 -33.06667 0
v -22.4 -32 0
v -21.33333 -32 0
v -23.46667 -33.06667 0
v -24.53333 -33.06667 0
v -24.53333 -32 0
v -23.46667 -32 0
v -24.53333 -33.06667 0
v -25.6 -33.06667 0
v -25.6 -32 0
v -24.53333 -32 0
v -26.66667 -33.06667 0
v -27.73334 -33.06667 0
v -27.73334 -32 0
v -26.66667 -32 0
v -33.06667 -33.06667 0
v -34.13334 -33.06667 0
v -34.13334 -32 0
v -33.06667 -32 0
v -35.2 -33.06667 0
v -36.26667 -33.06667 0
v -36.26667 -32 0
v -35.2 -32 0
v -36.26667 -33.06667 0
v -37.33334 -33.06667 0
v -37.33334 -32 0
v -36.26667 -32 0
v -38.4 -33.06667 0
v -39.46667 -33.06667 0
v -39.46667 -32 0
v -38.4 -32 0
v -21.33333 -34.13334 0
v -22.4 -34.13334 0
v -22.4 -33.06667 0
v -21.33333 -33.06667 0
v -23.46667 -34.13334 0
v -24.53333 -34.13334 0
v -24.53333 -33.06667 0
v -23.46667 -33.06667 0
v -24.53333 -34.13334 0
v -25.6 -34.13334 0
v -25.6 -33.06667 0
v -24.53333 -33.06667 0
v -26.66667 -34.13334 0
v -27.73334 -34.13334 0
v -27.73334 -33.06667 0
v -26.66667 -33.06667 0
v -33.06667 -34.13334 0
v -34.13334 -34.13334 0
v -34.13334 -33.06667 0
v -33.06667 -33.06667 0
v -35.2 -34.13334 0
v -36.26667 -34.13334 0
v -36.26667 -33.06667 0
v -35.2 -33.06667 0
v -36.26667 -34.13334 0
v -37.33334 -34.13334 0
v -37.33334 -33.06667 0
v -36.26667 -33.06667 0
v -38.4 -34.13334 0
v -39.46667 -34.13334 0
v -39.46667 -33.06667 0
v -38.4 -33.06667 0
v -21.33333 -36.26667 0
v -22.4 -36.26667 0
v -22.4 -35.2 0
v -21.33333 -35.2 0
v -23.46667 -36.26667 0
v -24.53333 -36.26667 0
v -24.53333 -35.2 0
v -23.46667 -35.2 0
v -24.53333 -36.26667 0
v -25.6 -36.26667 0
v -25.6 -35.2 0
v -24.53333 -35.2 0
v -26.66667 -36.26667 0
v -27.73334 -36.26667 0
v -27.73334 -35.2 0
v -26.66667 -35.2 0
v -33.06667 -36.26667 0
v -34.13334 -36.26667 0
v -34.13334 -35.2 0
v -33.06667 -35.2 0
v -35.2 -36.26667 0
v -36.26667 -36.26667 0
v -36.26667 -35.2 0
v -35.2 -35.2 0
v -36.26667 -36.26667 0
v -37.33334 -36.26667 0
v -37.33334 -35.2 0
v -36.26667 -35.2 0
v -38.4 -36.26667 0
v -39.46667 -36.26667 0
v -39.46667 -35.2 0
v -38.4 -35.2 0
v -21.33333 -37.33334 0
v -22.4 -37.33334 0
v -22.4 -36.26667 0
v -21.33333 -36.26667 0
v -23.46667 -37.33334 0
v -24.53333 -37.33334 0
v -24.53333 -36.26667 0
v -23.46667 -36.26667 0
v -24.53333 -37.33334 0
v -25.6 -37.33334 0
v -25.6 -36.26667 0
v -24.53333 -36.26667 0
v -26.66667 -37.33334 0
v -27.73334 -37.33334 0
v -27.73334 -36.26667 0
v -26.66667 -36.26667 0
v -33.06667 -37.33334 0
v -34.13334 -37.33334 0
v -34.13334 -36.26667 0
v -33.06667 -36.26667 0
v -35.2 -37.33334 0
v -36.26667 -37.33334 0
v -36.26667 -36.26667 0
v -35.2 -36.26667 0
v -36.26667 -37.33334 0
v -37.33334 -37.33334 0
v -37.33334 -36.26667 0
v -36.26667 -36.26667 0
v -38.4 -37.33334 0
v -39.46667 -37.33334 0
v -39.46667 -36.26667 0
v -38.4 -36.26667 0
v -14.93333 -52.26667 0
v -16 -52.26667 0
v -16 -51.2 0
v -14.93333 -51.2 0
v -18.13334 -52.26667 0
v -19.2 -52.26667 0
v -19.2 -51.2 0
v -18.13334 -51.2 0
v -41.6 -52.26667 0
v -42.66667 -52.26667 0
v -42.66667 -51.2 0
v -41.6 -51.2 0
v -44.8 -52.26667 0
v -45.86667 -52.26667 0
v -45.86667 -51.2 0
v -44.8 -51.2 0
v -14.93333 -53.33334 0
v -16 -53.33334 0
v -16 -52.26667 0
v -14.93333 -52.26667 0
v -18.13334 -53.33334 0
v -19.2 -53.33334 0
v -19.2 -52.26667 0
v -18.13334 -52.26667 0
v -41.6 -53.33334 0
v -42.66667 -53.33334 0
v -42.66667 -52.26667 0
v -41.6 -52.26667 0
v -44.8 -53.33334 0
v -45.86667 -53.33334 0
v -45.86667 -52.26667 0
v -44.8 -52.26667 0
v -14.93333 -55.46667 0
v -16 -55.46667 0
v -16 -54.4 0
v -14.93333 -54.4 0
v -18.13334 -55.46667 0
v -19.2 -55.46667 0
v -19.2 -54.4 0
v -18.13334 -54.4 0
v -41.6 -55.46667 0
v -42.66667 -55.46667 0
v -42.66667 -54.4 0
v -41.6 -54.4 0
v -44.8 -55.46667 0
v -45.86667 -55.46667 0
v -45.86667 -54.4 0
v -44.8 -54.4 0
v -14.93333 -56.53334 0
v -16 -56.53334 0
v -16 -55.46667 0
v -14.93333 -55.46667 0
v -18.13334 -56.53334 0
v -19.2 -56.53334 0
v -19.2 -55.46667 0
v -18.13334 -55.46667 0
v -41.6 -56.53334 0
v -42.66667 -56.53334 0
v -42.66667 -55.46667 0
v -41.6 -55.46667 0
v -44.8 -56.53334 0
v -45.86667 -56.53334 0
v -45.86667 -55.46667 0
v -44.8 -55.46667 0

# Texture cooridinates (Count = 28)
vt 0.7902893 0.904943
vt 0.8068182 0.904943
vt 0.8068182 0.9353612
vt 0.7902893 0.9353612
vt 0.7727273 0.904943
vt 0.7892562 0.904943
vt 0.7892562 0.9353612
vt 0.7727273 0.9353612
vt 0.8254132 0.904943
vt 0.8419421 0.904943
vt 0.8419421 0.9353612
vt 0.8254132 0.9353612
vt 0.7727273 0.8726236
vt 0.7892562 0.8726236
vt 0.7892562 0.9030418
vt 0.7727273 0.9030418
vt 0.8254132 0.8726236
vt 0.8419421 0.8726236
vt 0.8419421 0.9030418
vt 0.8254132 0.9030418
vt 0.8078513 0.904943
vt 0.8243802 0.904943
vt 0.8243802 0.9353612
vt 0.8078513 0.9353612
vt 0.7902893 0.8726236
vt 0.8068182 0.8726236
vt 0.8068182 0.9030418
vt 0.7902893 0.9030418

# Normal
vn 0 0 -1

# Mesh description
g HesHall_mesh_0012

# Faces
f 1/1/1 2/2/1 3/3/1 4/4/1
f 5/5/1 6/6/1 7/7/1 8/8/1
f 9/5/1 10/6/1 11/7/1 12/8/1
f 13/5/1 14/6/1 15/7/1 16/8/1
f 17/5/1 18/6/1 19/7/1 20/8/1
f 21/9/1 22/10/1 23/11/1 24/12/1
f 25/5/1 26/6/1 27/7/1 28/8/1
f 29/5/1 30/6/1 31/7/1 32/8/1
f 33/13/1 34/14/1 35/15/1 36/16/1
f 37/13/1 38/14/1 39/15/1 40/16/1
f 41/13/1 42/14/1 43/15/1 44/16/1
f 45/13/1 46/14/1 47/15/1 48/16/1
f 49/13/1 50/14/1 51/15/1 52/16/1
f 53/17/1 54/18/1 55/19/1 56/20/1
f 57/13/1 58/14/1 59/15/1 60/16/1
f 61/13/1 62/14/1 63/15/1 64/16/1
f 65/5/1 66/6/1 67/7/1 68/8/1
f 69/5/1 70/6/1 71/7/1 72/8/1
f 73/9/1 74/10/1 75/11/1 76/12/1
f 77/5/1 78/6/1 79/7/1 80/8/1
f 81/5/1 82/6/1 83/7/1 84/8/1
f 85/5/1 86/6/1 87/7/1 88/8/1
f 89/5/1 90/6/1 91/7/1 92/8/1
f 93/21/1 94/22/1 95/23/1 96/24/1
f 97/13/1 98/14/1 99/15/1 100/16/1
f 101/13/1 102/14/1 103/15/1 104/16/1
f 105/13/1 106/14/1 107/15/1 108/16/1
f 109/13/1 110/14/1 111/15/1 112/16/1
f 113/13/1 114/14/1 115/15/1 116/16/1
f 117/13/1 118/14/1 119/15/1 120/16/1
f 121/13/1 122/14/1 123/15/1 124/16/1
f 125/13/1 126/14/1 127/15/1 128/16/1
f 129/5/1 130/6/1 131/7/1 132/8/1
f 133/21/1 134/22/1 135/23/1 136/24/1
f 137/9/1 138/10/1 139/11/1 140/12/1
f 141/21/1 142/22/1 143/23/1 144/24/1
f 145/13/1 146/14/1 147/15/1 148/16/1
f 149/13/1 150/14/1 151/15/1 152/16/1
f 153/17/1 154/18/1 155/19/1 156/20/1
f 157/13/1 158/14/1 159/15/1 160/16/1
f 161/1/1 162/2/1 163/3/1 164/4/1
f 165/5/1 166/6/1 167/7/1 168/8/1
f 169/5/1 170/6/1 171/7/1 172/8/1
f 173/5/1 174/6/1 175/7/1 176/8/1
f 177/25/1 178/26/1 179/27/1 180/28/1
f 181/13/1 182/14/1 183/15/1 184/16/1
f 185/13/1 186/14/1 187/15/1 188/16/1
f 189/13/1 190/14/1 191/15/1 192/16/1

