﻿# Tiled2Unity generated file. Do not modify by hand.
# Wavefront file for 'HesHall_mesh_0010.obj'

# Vertices (Count = 288)
v -13.86667 -52.26667 0
v -14.93333 -52.26667 0
v -14.93333 -51.2 0
v -13.86667 -51.2 0
v -14.93333 -52.26667 0
v -16 -52.26667 0
v -16 -51.2 0
v -14.93333 -51.2 0
v -16 -52.26667 0
v -17.06667 -52.26667 0
v -17.06667 -51.2 0
v -16 -51.2 0
v -17.06667 -52.26667 0
v -18.13334 -52.26667 0
v -18.13334 -51.2 0
v -17.06667 -51.2 0
v -18.13334 -52.26667 0
v -19.2 -52.26667 0
v -19.2 -51.2 0
v -18.13334 -51.2 0
v -19.2 -52.26667 0
v -20.26667 -52.26667 0
v -20.26667 -51.2 0
v -19.2 -51.2 0
v -40.53334 -52.26667 0
v -41.6 -52.26667 0
v -41.6 -51.2 0
v -40.53334 -51.2 0
v -41.6 -52.26667 0
v -42.66667 -52.26667 0
v -42.66667 -51.2 0
v -41.6 -51.2 0
v -42.66667 -52.26667 0
v -43.73334 -52.26667 0
v -43.73334 -51.2 0
v -42.66667 -51.2 0
v -43.73334 -52.26667 0
v -44.8 -52.26667 0
v -44.8 -51.2 0
v -43.73334 -51.2 0
v -44.8 -52.26667 0
v -45.86667 -52.26667 0
v -45.86667 -51.2 0
v -44.8 -51.2 0
v -45.86667 -52.26667 0
v -46.93333 -52.26667 0
v -46.93333 -51.2 0
v -45.86667 -51.2 0
v -13.86667 -53.33334 0
v -14.93333 -53.33334 0
v -14.93333 -52.26667 0
v -13.86667 -52.26667 0
v -14.93333 -53.33334 0
v -16 -53.33334 0
v -16 -52.26667 0
v -14.93333 -52.26667 0
v -16 -53.33334 0
v -17.06667 -53.33334 0
v -17.06667 -52.26667 0
v -16 -52.26667 0
v -17.06667 -53.33334 0
v -18.13334 -53.33334 0
v -18.13334 -52.26667 0
v -17.06667 -52.26667 0
v -18.13334 -53.33334 0
v -19.2 -53.33334 0
v -19.2 -52.26667 0
v -18.13334 -52.26667 0
v -19.2 -53.33334 0
v -20.26667 -53.33334 0
v -20.26667 -52.26667 0
v -19.2 -52.26667 0
v -40.53334 -53.33334 0
v -41.6 -53.33334 0
v -41.6 -52.26667 0
v -40.53334 -52.26667 0
v -41.6 -53.33334 0
v -42.66667 -53.33334 0
v -42.66667 -52.26667 0
v -41.6 -52.26667 0
v -42.66667 -53.33334 0
v -43.73334 -53.33334 0
v -43.73334 -52.26667 0
v -42.66667 -52.26667 0
v -43.73334 -53.33334 0
v -44.8 -53.33334 0
v -44.8 -52.26667 0
v -43.73334 -52.26667 0
v -44.8 -53.33334 0
v -45.86667 -53.33334 0
v -45.86667 -52.26667 0
v -44.8 -52.26667 0
v -45.86667 -53.33334 0
v -46.93333 -53.33334 0
v -46.93333 -52.26667 0
v -45.86667 -52.26667 0
v -13.86667 -54.4 0
v -14.93333 -54.4 0
v -14.93333 -53.33334 0
v -13.86667 -53.33334 0
v -14.93333 -54.4 0
v -16 -54.4 0
v -16 -53.33334 0
v -14.93333 -53.33334 0
v -16 -54.4 0
v -17.06667 -54.4 0
v -17.06667 -53.33334 0
v -16 -53.33334 0
v -17.06667 -54.4 0
v -18.13334 -54.4 0
v -18.13334 -53.33334 0
v -17.06667 -53.33334 0
v -18.13334 -54.4 0
v -19.2 -54.4 0
v -19.2 -53.33334 0
v -18.13334 -53.33334 0
v -19.2 -54.4 0
v -20.26667 -54.4 0
v -20.26667 -53.33334 0
v -19.2 -53.33334 0
v -40.53334 -54.4 0
v -41.6 -54.4 0
v -41.6 -53.33334 0
v -40.53334 -53.33334 0
v -41.6 -54.4 0
v -42.66667 -54.4 0
v -42.66667 -53.33334 0
v -41.6 -53.33334 0
v -42.66667 -54.4 0
v -43.73334 -54.4 0
v -43.73334 -53.33334 0
v -42.66667 -53.33334 0
v -43.73334 -54.4 0
v -44.8 -54.4 0
v -44.8 -53.33334 0
v -43.73334 -53.33334 0
v -44.8 -54.4 0
v -45.86667 -54.4 0
v -45.86667 -53.33334 0
v -44.8 -53.33334 0
v -45.86667 -54.4 0
v -46.93333 -54.4 0
v -46.93333 -53.33334 0
v -45.86667 -53.33334 0
v -13.86667 -55.46667 0
v -14.93333 -55.46667 0
v -14.93333 -54.4 0
v -13.86667 -54.4 0
v -14.93333 -55.46667 0
v -16 -55.46667 0
v -16 -54.4 0
v -14.93333 -54.4 0
v -16 -55.46667 0
v -17.06667 -55.46667 0
v -17.06667 -54.4 0
v -16 -54.4 0
v -17.06667 -55.46667 0
v -18.13334 -55.46667 0
v -18.13334 -54.4 0
v -17.06667 -54.4 0
v -18.13334 -55.46667 0
v -19.2 -55.46667 0
v -19.2 -54.4 0
v -18.13334 -54.4 0
v -19.2 -55.46667 0
v -20.26667 -55.46667 0
v -20.26667 -54.4 0
v -19.2 -54.4 0
v -40.53334 -55.46667 0
v -41.6 -55.46667 0
v -41.6 -54.4 0
v -40.53334 -54.4 0
v -41.6 -55.46667 0
v -42.66667 -55.46667 0
v -42.66667 -54.4 0
v -41.6 -54.4 0
v -42.66667 -55.46667 0
v -43.73334 -55.46667 0
v -43.73334 -54.4 0
v -42.66667 -54.4 0
v -43.73334 -55.46667 0
v -44.8 -55.46667 0
v -44.8 -54.4 0
v -43.73334 -54.4 0
v -44.8 -55.46667 0
v -45.86667 -55.46667 0
v -45.86667 -54.4 0
v -44.8 -54.4 0
v -45.86667 -55.46667 0
v -46.93333 -55.46667 0
v -46.93333 -54.4 0
v -45.86667 -54.4 0
v -13.86667 -56.53334 0
v -14.93333 -56.53334 0
v -14.93333 -55.46667 0
v -13.86667 -55.46667 0
v -14.93333 -56.53334 0
v -16 -56.53334 0
v -16 -55.46667 0
v -14.93333 -55.46667 0
v -16 -56.53334 0
v -17.06667 -56.53334 0
v -17.06667 -55.46667 0
v -16 -55.46667 0
v -17.06667 -56.53334 0
v -18.13334 -56.53334 0
v -18.13334 -55.46667 0
v -17.06667 -55.46667 0
v -18.13334 -56.53334 0
v -19.2 -56.53334 0
v -19.2 -55.46667 0
v -18.13334 -55.46667 0
v -19.2 -56.53334 0
v -20.26667 -56.53334 0
v -20.26667 -55.46667 0
v -19.2 -55.46667 0
v -40.53334 -56.53334 0
v -41.6 -56.53334 0
v -41.6 -55.46667 0
v -40.53334 -55.46667 0
v -41.6 -56.53334 0
v -42.66667 -56.53334 0
v -42.66667 -55.46667 0
v -41.6 -55.46667 0
v -42.66667 -56.53334 0
v -43.73334 -56.53334 0
v -43.73334 -55.46667 0
v -42.66667 -55.46667 0
v -43.73334 -56.53334 0
v -44.8 -56.53334 0
v -44.8 -55.46667 0
v -43.73334 -55.46667 0
v -44.8 -56.53334 0
v -45.86667 -56.53334 0
v -45.86667 -55.46667 0
v -44.8 -55.46667 0
v -45.86667 -56.53334 0
v -46.93333 -56.53334 0
v -46.93333 -55.46667 0
v -45.86667 -55.46667 0
v -13.86667 -57.6 0
v -14.93333 -57.6 0
v -14.93333 -56.53334 0
v -13.86667 -56.53334 0
v -14.93333 -57.6 0
v -16 -57.6 0
v -16 -56.53334 0
v -14.93333 -56.53334 0
v -16 -57.6 0
v -17.06667 -57.6 0
v -17.06667 -56.53334 0
v -16 -56.53334 0
v -17.06667 -57.6 0
v -18.13334 -57.6 0
v -18.13334 -56.53334 0
v -17.06667 -56.53334 0
v -18.13334 -57.6 0
v -19.2 -57.6 0
v -19.2 -56.53334 0
v -18.13334 -56.53334 0
v -19.2 -57.6 0
v -20.26667 -57.6 0
v -20.26667 -56.53334 0
v -19.2 -56.53334 0
v -40.53334 -57.6 0
v -41.6 -57.6 0
v -41.6 -56.53334 0
v -40.53334 -56.53334 0
v -41.6 -57.6 0
v -42.66667 -57.6 0
v -42.66667 -56.53334 0
v -41.6 -56.53334 0
v -42.66667 -57.6 0
v -43.73334 -57.6 0
v -43.73334 -56.53334 0
v -42.66667 -56.53334 0
v -43.73334 -57.6 0
v -44.8 -57.6 0
v -44.8 -56.53334 0
v -43.73334 -56.53334 0
v -44.8 -57.6 0
v -45.86667 -57.6 0
v -45.86667 -56.53334 0
v -44.8 -56.53334 0
v -45.86667 -57.6 0
v -46.93333 -57.6 0
v -46.93333 -56.53334 0
v -45.86667 -56.53334 0

# Texture cooridinates (Count = 36)
vt 0.02707006 0.7873684
vt 0.05254777 0.7873684
vt 0.05254777 0.8210526
vt 0.02707006 0.8210526
vt 0.05414013 0.7873684
vt 0.07961784 0.7873684
vt 0.07961784 0.8210526
vt 0.05414013 0.8210526
vt 0.08121019 0.7873684
vt 0.1066879 0.7873684
vt 0.1066879 0.8210526
vt 0.08121019 0.8210526
vt 0.02707006 0.7157894
vt 0.05254777 0.7157894
vt 0.05254777 0.7494737
vt 0.02707006 0.7494737
vt 0.05414013 0.7157894
vt 0.07961784 0.7157894
vt 0.07961784 0.7494737
vt 0.05414013 0.7494737
vt 0.08121019 0.7157894
vt 0.1066879 0.7157894
vt 0.1066879 0.7494737
vt 0.08121019 0.7494737
vt 0.02707006 0.6084211
vt 0.05254777 0.6084211
vt 0.05254777 0.6421052
vt 0.02707006 0.6421052
vt 0.05414013 0.6084211
vt 0.07961784 0.6084211
vt 0.07961784 0.6421052
vt 0.05414013 0.6421052
vt 0.08121019 0.6084211
vt 0.1066879 0.6084211
vt 0.1066879 0.6421052
vt 0.08121019 0.6421052

# Normal
vn 0 0 -1

# Mesh description
g HesHall_mesh_0010

# Faces
f 1/1/1 2/2/1 3/3/1 4/4/1
f 5/5/1 6/6/1 7/7/1 8/8/1
f 9/5/1 10/6/1 11/7/1 12/8/1
f 13/5/1 14/6/1 15/7/1 16/8/1
f 17/5/1 18/6/1 19/7/1 20/8/1
f 21/9/1 22/10/1 23/11/1 24/12/1
f 25/1/1 26/2/1 27/3/1 28/4/1
f 29/5/1 30/6/1 31/7/1 32/8/1
f 33/5/1 34/6/1 35/7/1 36/8/1
f 37/5/1 38/6/1 39/7/1 40/8/1
f 41/5/1 42/6/1 43/7/1 44/8/1
f 45/9/1 46/10/1 47/11/1 48/12/1
f 49/1/1 50/2/1 51/3/1 52/4/1
f 53/5/1 54/6/1 55/7/1 56/8/1
f 57/5/1 58/6/1 59/7/1 60/8/1
f 61/5/1 62/6/1 63/7/1 64/8/1
f 65/5/1 66/6/1 67/7/1 68/8/1
f 69/9/1 70/10/1 71/11/1 72/12/1
f 73/1/1 74/2/1 75/3/1 76/4/1
f 77/5/1 78/6/1 79/7/1 80/8/1
f 81/5/1 82/6/1 83/7/1 84/8/1
f 85/5/1 86/6/1 87/7/1 88/8/1
f 89/5/1 90/6/1 91/7/1 92/8/1
f 93/9/1 94/10/1 95/11/1 96/12/1
f 97/13/1 98/14/1 99/15/1 100/16/1
f 101/17/1 102/18/1 103/19/1 104/20/1
f 105/17/1 106/18/1 107/19/1 108/20/1
f 109/17/1 110/18/1 111/19/1 112/20/1
f 113/17/1 114/18/1 115/19/1 116/20/1
f 117/21/1 118/22/1 119/23/1 120/24/1
f 121/13/1 122/14/1 123/15/1 124/16/1
f 125/17/1 126/18/1 127/19/1 128/20/1
f 129/17/1 130/18/1 131/19/1 132/20/1
f 133/17/1 134/18/1 135/19/1 136/20/1
f 137/17/1 138/18/1 139/19/1 140/20/1
f 141/21/1 142/22/1 143/23/1 144/24/1
f 145/1/1 146/2/1 147/3/1 148/4/1
f 149/5/1 150/6/1 151/7/1 152/8/1
f 153/5/1 154/6/1 155/7/1 156/8/1
f 157/5/1 158/6/1 159/7/1 160/8/1
f 161/5/1 162/6/1 163/7/1 164/8/1
f 165/9/1 166/10/1 167/11/1 168/12/1
f 169/1/1 170/2/1 171/3/1 172/4/1
f 173/5/1 174/6/1 175/7/1 176/8/1
f 177/5/1 178/6/1 179/7/1 180/8/1
f 181/5/1 182/6/1 183/7/1 184/8/1
f 185/5/1 186/6/1 187/7/1 188/8/1
f 189/9/1 190/10/1 191/11/1 192/12/1
f 193/1/1 194/2/1 195/3/1 196/4/1
f 197/5/1 198/6/1 199/7/1 200/8/1
f 201/5/1 202/6/1 203/7/1 204/8/1
f 205/5/1 206/6/1 207/7/1 208/8/1
f 209/5/1 210/6/1 211/7/1 212/8/1
f 213/9/1 214/10/1 215/11/1 216/12/1
f 217/1/1 218/2/1 219/3/1 220/4/1
f 221/5/1 222/6/1 223/7/1 224/8/1
f 225/5/1 226/6/1 227/7/1 228/8/1
f 229/5/1 230/6/1 231/7/1 232/8/1
f 233/5/1 234/6/1 235/7/1 236/8/1
f 237/9/1 238/10/1 239/11/1 240/12/1
f 241/25/1 242/26/1 243/27/1 244/28/1
f 245/29/1 246/30/1 247/31/1 248/32/1
f 249/29/1 250/30/1 251/31/1 252/32/1
f 253/29/1 254/30/1 255/31/1 256/32/1
f 257/29/1 258/30/1 259/31/1 260/32/1
f 261/33/1 262/34/1 263/35/1 264/36/1
f 265/25/1 266/26/1 267/27/1 268/28/1
f 269/29/1 270/30/1 271/31/1 272/32/1
f 273/29/1 274/30/1 275/31/1 276/32/1
f 277/29/1 278/30/1 279/31/1 280/32/1
f 281/29/1 282/30/1 283/31/1 284/32/1
f 285/33/1 286/34/1 287/35/1 288/36/1

