﻿# Tiled2Unity generated file. Do not modify by hand.
# Wavefront file for 'HesHall_mesh_0014.obj'

# Vertices (Count = 24)
v -28.8 -38.4 0
v -29.86667 -38.4 0
v -29.86667 -37.33334 0
v -28.8 -37.33334 0
v -29.86667 -38.4 0
v -30.93333 -38.4 0
v -30.93333 -37.33334 0
v -29.86667 -37.33334 0
v -30.93333 -38.4 0
v -32 -38.4 0
v -32 -37.33334 0
v -30.93333 -37.33334 0
v -28.8 -39.46667 0
v -29.86667 -39.46667 0
v -29.86667 -38.4 0
v -28.8 -38.4 0
v -29.86667 -39.46667 0
v -30.93333 -39.46667 0
v -30.93333 -38.4 0
v -29.86667 -38.4 0
v -30.93333 -39.46667 0
v -32 -39.46667 0
v -32 -38.4 0
v -30.93333 -38.4 0

# Texture cooridinates (Count = 12)
vt 0.4741735 0.4201521
vt 0.4907025 0.4201521
vt 0.4907025 0.4505703
vt 0.4741735 0.4505703
vt 0.4917355 0.4201521
vt 0.5082645 0.4201521
vt 0.5082645 0.4505703
vt 0.4917355 0.4505703
vt 0.5092975 0.4201521
vt 0.5258265 0.4201521
vt 0.5258265 0.4505703
vt 0.5092975 0.4505703

# Normal
vn 0 0 -1

# Mesh description
g HesHall_mesh_0014

# Faces
f 1/1/1 2/2/1 3/3/1 4/4/1
f 5/5/1 6/6/1 7/7/1 8/8/1
f 9/9/1 10/10/1 11/11/1 12/12/1
f 13/1/1 14/2/1 15/3/1 16/4/1
f 17/5/1 18/6/1 19/7/1 20/8/1
f 21/9/1 22/10/1 23/11/1 24/12/1

