﻿# Tiled2Unity generated file. Do not modify by hand.
# Wavefront file for 'HesHall_mesh_0011.obj'

# Vertices (Count = 460)
v -20.26667 -33.06667 0
v -21.33333 -33.06667 0
v -21.33333 -32 0
v -20.26667 -32 0
v -21.33333 -33.06667 0
v -22.4 -33.06667 0
v -22.4 -32 0
v -21.33333 -32 0
v -22.4 -33.06667 0
v -23.46667 -33.06667 0
v -23.46667 -32 0
v -22.4 -32 0
v -23.46667 -33.06667 0
v -24.53333 -33.06667 0
v -24.53333 -32 0
v -23.46667 -32 0
v -24.53333 -33.06667 0
v -25.6 -33.06667 0
v -25.6 -32 0
v -24.53333 -32 0
v -25.6 -33.06667 0
v -26.66667 -33.06667 0
v -26.66667 -32 0
v -25.6 -32 0
v -26.66667 -33.06667 0
v -27.73334 -33.06667 0
v -27.73334 -32 0
v -26.66667 -32 0
v -27.73334 -33.06667 0
v -28.8 -33.06667 0
v -28.8 -32 0
v -27.73334 -32 0
v -28.8 -33.06667 0
v -29.86667 -33.06667 0
v -29.86667 -32 0
v -28.8 -32 0
v -29.86667 -33.06667 0
v -30.93333 -33.06667 0
v -30.93333 -32 0
v -29.86667 -32 0
v -30.93333 -33.06667 0
v -32 -33.06667 0
v -32 -32 0
v -30.93333 -32 0
v -32 -33.06667 0
v -33.06667 -33.06667 0
v -33.06667 -32 0
v -32 -32 0
v -33.06667 -33.06667 0
v -34.13334 -33.06667 0
v -34.13334 -32 0
v -33.06667 -32 0
v -34.13334 -33.06667 0
v -35.2 -33.06667 0
v -35.2 -32 0
v -34.13334 -32 0
v -35.2 -33.06667 0
v -36.26667 -33.06667 0
v -36.26667 -32 0
v -35.2 -32 0
v -36.26667 -33.06667 0
v -37.33334 -33.06667 0
v -37.33334 -32 0
v -36.26667 -32 0
v -37.33334 -33.06667 0
v -38.4 -33.06667 0
v -38.4 -32 0
v -37.33334 -32 0
v -38.4 -33.06667 0
v -39.46667 -33.06667 0
v -39.46667 -32 0
v -38.4 -32 0
v -39.46667 -33.06667 0
v -40.53334 -33.06667 0
v -40.53334 -32 0
v -39.46667 -32 0
v -20.26667 -34.13334 0
v -21.33333 -34.13334 0
v -21.33333 -33.06667 0
v -20.26667 -33.06667 0
v -21.33333 -34.13334 0
v -22.4 -34.13334 0
v -22.4 -33.06667 0
v -21.33333 -33.06667 0
v -22.4 -34.13334 0
v -23.46667 -34.13334 0
v -23.46667 -33.06667 0
v -22.4 -33.06667 0
v -23.46667 -34.13334 0
v -24.53333 -34.13334 0
v -24.53333 -33.06667 0
v -23.46667 -33.06667 0
v -24.53333 -34.13334 0
v -25.6 -34.13334 0
v -25.6 -33.06667 0
v -24.53333 -33.06667 0
v -25.6 -34.13334 0
v -26.66667 -34.13334 0
v -26.66667 -33.06667 0
v -25.6 -33.06667 0
v -26.66667 -34.13334 0
v -27.73334 -34.13334 0
v -27.73334 -33.06667 0
v -26.66667 -33.06667 0
v -27.73334 -34.13334 0
v -28.8 -34.13334 0
v -28.8 -33.06667 0
v -27.73334 -33.06667 0
v -28.8 -34.13334 0
v -29.86667 -34.13334 0
v -29.86667 -33.06667 0
v -28.8 -33.06667 0
v -29.86667 -34.13334 0
v -30.93333 -34.13334 0
v -30.93333 -33.06667 0
v -29.86667 -33.06667 0
v -30.93333 -34.13334 0
v -32 -34.13334 0
v -32 -33.06667 0
v -30.93333 -33.06667 0
v -32 -34.13334 0
v -33.06667 -34.13334 0
v -33.06667 -33.06667 0
v -32 -33.06667 0
v -33.06667 -34.13334 0
v -34.13334 -34.13334 0
v -34.13334 -33.06667 0
v -33.06667 -33.06667 0
v -34.13334 -34.13334 0
v -35.2 -34.13334 0
v -35.2 -33.06667 0
v -34.13334 -33.06667 0
v -35.2 -34.13334 0
v -36.26667 -34.13334 0
v -36.26667 -33.06667 0
v -35.2 -33.06667 0
v -36.26667 -34.13334 0
v -37.33334 -34.13334 0
v -37.33334 -33.06667 0
v -36.26667 -33.06667 0
v -37.33334 -34.13334 0
v -38.4 -34.13334 0
v -38.4 -33.06667 0
v -37.33334 -33.06667 0
v -38.4 -34.13334 0
v -39.46667 -34.13334 0
v -39.46667 -33.06667 0
v -38.4 -33.06667 0
v -39.46667 -34.13334 0
v -40.53334 -34.13334 0
v -40.53334 -33.06667 0
v -39.46667 -33.06667 0
v -20.26667 -35.2 0
v -21.33333 -35.2 0
v -21.33333 -34.13334 0
v -20.26667 -34.13334 0
v -21.33333 -35.2 0
v -22.4 -35.2 0
v -22.4 -34.13334 0
v -21.33333 -34.13334 0
v -22.4 -35.2 0
v -23.46667 -35.2 0
v -23.46667 -34.13334 0
v -22.4 -34.13334 0
v -23.46667 -35.2 0
v -24.53333 -35.2 0
v -24.53333 -34.13334 0
v -23.46667 -34.13334 0
v -24.53333 -35.2 0
v -25.6 -35.2 0
v -25.6 -34.13334 0
v -24.53333 -34.13334 0
v -25.6 -35.2 0
v -26.66667 -35.2 0
v -26.66667 -34.13334 0
v -25.6 -34.13334 0
v -26.66667 -35.2 0
v -27.73334 -35.2 0
v -27.73334 -34.13334 0
v -26.66667 -34.13334 0
v -27.73334 -35.2 0
v -28.8 -35.2 0
v -28.8 -34.13334 0
v -27.73334 -34.13334 0
v -28.8 -35.2 0
v -29.86667 -35.2 0
v -29.86667 -34.13334 0
v -28.8 -34.13334 0
v -29.86667 -35.2 0
v -30.93333 -35.2 0
v -30.93333 -34.13334 0
v -29.86667 -34.13334 0
v -30.93333 -35.2 0
v -32 -35.2 0
v -32 -34.13334 0
v -30.93333 -34.13334 0
v -32 -35.2 0
v -33.06667 -35.2 0
v -33.06667 -34.13334 0
v -32 -34.13334 0
v -33.06667 -35.2 0
v -34.13334 -35.2 0
v -34.13334 -34.13334 0
v -33.06667 -34.13334 0
v -34.13334 -35.2 0
v -35.2 -35.2 0
v -35.2 -34.13334 0
v -34.13334 -34.13334 0
v -35.2 -35.2 0
v -36.26667 -35.2 0
v -36.26667 -34.13334 0
v -35.2 -34.13334 0
v -36.26667 -35.2 0
v -37.33334 -35.2 0
v -37.33334 -34.13334 0
v -36.26667 -34.13334 0
v -37.33334 -35.2 0
v -38.4 -35.2 0
v -38.4 -34.13334 0
v -37.33334 -34.13334 0
v -38.4 -35.2 0
v -39.46667 -35.2 0
v -39.46667 -34.13334 0
v -38.4 -34.13334 0
v -39.46667 -35.2 0
v -40.53334 -35.2 0
v -40.53334 -34.13334 0
v -39.46667 -34.13334 0
v -20.26667 -36.26667 0
v -21.33333 -36.26667 0
v -21.33333 -35.2 0
v -20.26667 -35.2 0
v -21.33333 -36.26667 0
v -22.4 -36.26667 0
v -22.4 -35.2 0
v -21.33333 -35.2 0
v -22.4 -36.26667 0
v -23.46667 -36.26667 0
v -23.46667 -35.2 0
v -22.4 -35.2 0
v -23.46667 -36.26667 0
v -24.53333 -36.26667 0
v -24.53333 -35.2 0
v -23.46667 -35.2 0
v -24.53333 -36.26667 0
v -25.6 -36.26667 0
v -25.6 -35.2 0
v -24.53333 -35.2 0
v -25.6 -36.26667 0
v -26.66667 -36.26667 0
v -26.66667 -35.2 0
v -25.6 -35.2 0
v -26.66667 -36.26667 0
v -27.73334 -36.26667 0
v -27.73334 -35.2 0
v -26.66667 -35.2 0
v -27.73334 -36.26667 0
v -28.8 -36.26667 0
v -28.8 -35.2 0
v -27.73334 -35.2 0
v -28.8 -36.26667 0
v -29.86667 -36.26667 0
v -29.86667 -35.2 0
v -28.8 -35.2 0
v -29.86667 -36.26667 0
v -30.93333 -36.26667 0
v -30.93333 -35.2 0
v -29.86667 -35.2 0
v -30.93333 -36.26667 0
v -32 -36.26667 0
v -32 -35.2 0
v -30.93333 -35.2 0
v -32 -36.26667 0
v -33.06667 -36.26667 0
v -33.06667 -35.2 0
v -32 -35.2 0
v -33.06667 -36.26667 0
v -34.13334 -36.26667 0
v -34.13334 -35.2 0
v -33.06667 -35.2 0
v -34.13334 -36.26667 0
v -35.2 -36.26667 0
v -35.2 -35.2 0
v -34.13334 -35.2 0
v -35.2 -36.26667 0
v -36.26667 -36.26667 0
v -36.26667 -35.2 0
v -35.2 -35.2 0
v -36.26667 -36.26667 0
v -37.33334 -36.26667 0
v -37.33334 -35.2 0
v -36.26667 -35.2 0
v -37.33334 -36.26667 0
v -38.4 -36.26667 0
v -38.4 -35.2 0
v -37.33334 -35.2 0
v -38.4 -36.26667 0
v -39.46667 -36.26667 0
v -39.46667 -35.2 0
v -38.4 -35.2 0
v -39.46667 -36.26667 0
v -40.53334 -36.26667 0
v -40.53334 -35.2 0
v -39.46667 -35.2 0
v -20.26667 -37.33334 0
v -21.33333 -37.33334 0
v -21.33333 -36.26667 0
v -20.26667 -36.26667 0
v -21.33333 -37.33334 0
v -22.4 -37.33334 0
v -22.4 -36.26667 0
v -21.33333 -36.26667 0
v -22.4 -37.33334 0
v -23.46667 -37.33334 0
v -23.46667 -36.26667 0
v -22.4 -36.26667 0
v -23.46667 -37.33334 0
v -24.53333 -37.33334 0
v -24.53333 -36.26667 0
v -23.46667 -36.26667 0
v -24.53333 -37.33334 0
v -25.6 -37.33334 0
v -25.6 -36.26667 0
v -24.53333 -36.26667 0
v -25.6 -37.33334 0
v -26.66667 -37.33334 0
v -26.66667 -36.26667 0
v -25.6 -36.26667 0
v -26.66667 -37.33334 0
v -27.73334 -37.33334 0
v -27.73334 -36.26667 0
v -26.66667 -36.26667 0
v -27.73334 -37.33334 0
v -28.8 -37.33334 0
v -28.8 -36.26667 0
v -27.73334 -36.26667 0
v -28.8 -37.33334 0
v -29.86667 -37.33334 0
v -29.86667 -36.26667 0
v -28.8 -36.26667 0
v -29.86667 -37.33334 0
v -30.93333 -37.33334 0
v -30.93333 -36.26667 0
v -29.86667 -36.26667 0
v -30.93333 -37.33334 0
v -32 -37.33334 0
v -32 -36.26667 0
v -30.93333 -36.26667 0
v -32 -37.33334 0
v -33.06667 -37.33334 0
v -33.06667 -36.26667 0
v -32 -36.26667 0
v -33.06667 -37.33334 0
v -34.13334 -37.33334 0
v -34.13334 -36.26667 0
v -33.06667 -36.26667 0
v -34.13334 -37.33334 0
v -35.2 -37.33334 0
v -35.2 -36.26667 0
v -34.13334 -36.26667 0
v -35.2 -37.33334 0
v -36.26667 -37.33334 0
v -36.26667 -36.26667 0
v -35.2 -36.26667 0
v -36.26667 -37.33334 0
v -37.33334 -37.33334 0
v -37.33334 -36.26667 0
v -36.26667 -36.26667 0
v -37.33334 -37.33334 0
v -38.4 -37.33334 0
v -38.4 -36.26667 0
v -37.33334 -36.26667 0
v -38.4 -37.33334 0
v -39.46667 -37.33334 0
v -39.46667 -36.26667 0
v -38.4 -36.26667 0
v -39.46667 -37.33334 0
v -40.53334 -37.33334 0
v -40.53334 -36.26667 0
v -39.46667 -36.26667 0
v -20.26667 -38.4 0
v -21.33333 -38.4 0
v -21.33333 -37.33334 0
v -20.26667 -37.33334 0
v -21.33333 -38.4 0
v -22.4 -38.4 0
v -22.4 -37.33334 0
v -21.33333 -37.33334 0
v -22.4 -38.4 0
v -23.46667 -38.4 0
v -23.46667 -37.33334 0
v -22.4 -37.33334 0
v -23.46667 -38.4 0
v -24.53333 -38.4 0
v -24.53333 -37.33334 0
v -23.46667 -37.33334 0
v -24.53333 -38.4 0
v -25.6 -38.4 0
v -25.6 -37.33334 0
v -24.53333 -37.33334 0
v -25.6 -38.4 0
v -26.66667 -38.4 0
v -26.66667 -37.33334 0
v -25.6 -37.33334 0
v -26.66667 -38.4 0
v -27.73334 -38.4 0
v -27.73334 -37.33334 0
v -26.66667 -37.33334 0
v -27.73334 -38.4 0
v -28.8 -38.4 0
v -28.8 -37.33334 0
v -27.73334 -37.33334 0
v -28.8 -38.4 0
v -29.86667 -38.4 0
v -29.86667 -37.33334 0
v -28.8 -37.33334 0
v -29.86667 -38.4 0
v -30.93333 -38.4 0
v -30.93333 -37.33334 0
v -29.86667 -37.33334 0
v -30.93333 -38.4 0
v -32 -38.4 0
v -32 -37.33334 0
v -30.93333 -37.33334 0
v -32 -38.4 0
v -33.06667 -38.4 0
v -33.06667 -37.33334 0
v -32 -37.33334 0
v -33.06667 -38.4 0
v -34.13334 -38.4 0
v -34.13334 -37.33334 0
v -33.06667 -37.33334 0
v -34.13334 -38.4 0
v -35.2 -38.4 0
v -35.2 -37.33334 0
v -34.13334 -37.33334 0
v -35.2 -38.4 0
v -36.26667 -38.4 0
v -36.26667 -37.33334 0
v -35.2 -37.33334 0
v -36.26667 -38.4 0
v -37.33334 -38.4 0
v -37.33334 -37.33334 0
v -36.26667 -37.33334 0
v -37.33334 -38.4 0
v -38.4 -38.4 0
v -38.4 -37.33334 0
v -37.33334 -37.33334 0
v -38.4 -38.4 0
v -39.46667 -38.4 0
v -39.46667 -37.33334 0
v -38.4 -37.33334 0
v -39.46667 -38.4 0
v -40.53334 -38.4 0
v -40.53334 -37.33334 0
v -39.46667 -37.33334 0
v -44.8 -52.26667 0
v -45.86667 -52.26667 0
v -45.86667 -51.2 0
v -44.8 -51.2 0

# Texture cooridinates (Count = 8)
vt 0.05414013 0.7873684
vt 0.07961784 0.7873684
vt 0.07961784 0.8210526
vt 0.05414013 0.8210526
vt 0.05414013 0.6084211
vt 0.07961784 0.6084211
vt 0.07961784 0.6421052
vt 0.05414013 0.6421052

# Normal
vn 0 0 -1

# Mesh description
g HesHall_mesh_0011

# Faces
f 1/1/1 2/2/1 3/3/1 4/4/1
f 5/1/1 6/2/1 7/3/1 8/4/1
f 9/1/1 10/2/1 11/3/1 12/4/1
f 13/1/1 14/2/1 15/3/1 16/4/1
f 17/1/1 18/2/1 19/3/1 20/4/1
f 21/1/1 22/2/1 23/3/1 24/4/1
f 25/1/1 26/2/1 27/3/1 28/4/1
f 29/1/1 30/2/1 31/3/1 32/4/1
f 33/1/1 34/2/1 35/3/1 36/4/1
f 37/1/1 38/2/1 39/3/1 40/4/1
f 41/1/1 42/2/1 43/3/1 44/4/1
f 45/1/1 46/2/1 47/3/1 48/4/1
f 49/1/1 50/2/1 51/3/1 52/4/1
f 53/1/1 54/2/1 55/3/1 56/4/1
f 57/1/1 58/2/1 59/3/1 60/4/1
f 61/1/1 62/2/1 63/3/1 64/4/1
f 65/1/1 66/2/1 67/3/1 68/4/1
f 69/1/1 70/2/1 71/3/1 72/4/1
f 73/1/1 74/2/1 75/3/1 76/4/1
f 77/1/1 78/2/1 79/3/1 80/4/1
f 81/1/1 82/2/1 83/3/1 84/4/1
f 85/1/1 86/2/1 87/3/1 88/4/1
f 89/1/1 90/2/1 91/3/1 92/4/1
f 93/1/1 94/2/1 95/3/1 96/4/1
f 97/1/1 98/2/1 99/3/1 100/4/1
f 101/1/1 102/2/1 103/3/1 104/4/1
f 105/1/1 106/2/1 107/3/1 108/4/1
f 109/1/1 110/2/1 111/3/1 112/4/1
f 113/1/1 114/2/1 115/3/1 116/4/1
f 117/1/1 118/2/1 119/3/1 120/4/1
f 121/1/1 122/2/1 123/3/1 124/4/1
f 125/1/1 126/2/1 127/3/1 128/4/1
f 129/1/1 130/2/1 131/3/1 132/4/1
f 133/1/1 134/2/1 135/3/1 136/4/1
f 137/1/1 138/2/1 139/3/1 140/4/1
f 141/1/1 142/2/1 143/3/1 144/4/1
f 145/1/1 146/2/1 147/3/1 148/4/1
f 149/1/1 150/2/1 151/3/1 152/4/1
f 153/1/1 154/2/1 155/3/1 156/4/1
f 157/1/1 158/2/1 159/3/1 160/4/1
f 161/1/1 162/2/1 163/3/1 164/4/1
f 165/1/1 166/2/1 167/3/1 168/4/1
f 169/1/1 170/2/1 171/3/1 172/4/1
f 173/1/1 174/2/1 175/3/1 176/4/1
f 177/1/1 178/2/1 179/3/1 180/4/1
f 181/1/1 182/2/1 183/3/1 184/4/1
f 185/1/1 186/2/1 187/3/1 188/4/1
f 189/1/1 190/2/1 191/3/1 192/4/1
f 193/1/1 194/2/1 195/3/1 196/4/1
f 197/1/1 198/2/1 199/3/1 200/4/1
f 201/1/1 202/2/1 203/3/1 204/4/1
f 205/1/1 206/2/1 207/3/1 208/4/1
f 209/1/1 210/2/1 211/3/1 212/4/1
f 213/1/1 214/2/1 215/3/1 216/4/1
f 217/1/1 218/2/1 219/3/1 220/4/1
f 221/1/1 222/2/1 223/3/1 224/4/1
f 225/1/1 226/2/1 227/3/1 228/4/1
f 229/1/1 230/2/1 231/3/1 232/4/1
f 233/1/1 234/2/1 235/3/1 236/4/1
f 237/1/1 238/2/1 239/3/1 240/4/1
f 241/1/1 242/2/1 243/3/1 244/4/1
f 245/1/1 246/2/1 247/3/1 248/4/1
f 249/1/1 250/2/1 251/3/1 252/4/1
f 253/1/1 254/2/1 255/3/1 256/4/1
f 257/1/1 258/2/1 259/3/1 260/4/1
f 261/1/1 262/2/1 263/3/1 264/4/1
f 265/1/1 266/2/1 267/3/1 268/4/1
f 269/1/1 270/2/1 271/3/1 272/4/1
f 273/1/1 274/2/1 275/3/1 276/4/1
f 277/1/1 278/2/1 279/3/1 280/4/1
f 281/1/1 282/2/1 283/3/1 284/4/1
f 285/1/1 286/2/1 287/3/1 288/4/1
f 289/1/1 290/2/1 291/3/1 292/4/1
f 293/1/1 294/2/1 295/3/1 296/4/1
f 297/1/1 298/2/1 299/3/1 300/4/1
f 301/1/1 302/2/1 303/3/1 304/4/1
f 305/1/1 306/2/1 307/3/1 308/4/1
f 309/1/1 310/2/1 311/3/1 312/4/1
f 313/1/1 314/2/1 315/3/1 316/4/1
f 317/1/1 318/2/1 319/3/1 320/4/1
f 321/1/1 322/2/1 323/3/1 324/4/1
f 325/1/1 326/2/1 327/3/1 328/4/1
f 329/1/1 330/2/1 331/3/1 332/4/1
f 333/1/1 334/2/1 335/3/1 336/4/1
f 337/1/1 338/2/1 339/3/1 340/4/1
f 341/1/1 342/2/1 343/3/1 344/4/1
f 345/1/1 346/2/1 347/3/1 348/4/1
f 349/1/1 350/2/1 351/3/1 352/4/1
f 353/1/1 354/2/1 355/3/1 356/4/1
f 357/1/1 358/2/1 359/3/1 360/4/1
f 361/1/1 362/2/1 363/3/1 364/4/1
f 365/1/1 366/2/1 367/3/1 368/4/1
f 369/1/1 370/2/1 371/3/1 372/4/1
f 373/1/1 374/2/1 375/3/1 376/4/1
f 377/1/1 378/2/1 379/3/1 380/4/1
f 381/5/1 382/6/1 383/7/1 384/8/1
f 385/5/1 386/6/1 387/7/1 388/8/1
f 389/5/1 390/6/1 391/7/1 392/8/1
f 393/5/1 394/6/1 395/7/1 396/8/1
f 397/5/1 398/6/1 399/7/1 400/8/1
f 401/5/1 402/6/1 403/7/1 404/8/1
f 405/5/1 406/6/1 407/7/1 408/8/1
f 409/5/1 410/6/1 411/7/1 412/8/1
f 413/5/1 414/6/1 415/7/1 416/8/1
f 417/5/1 418/6/1 419/7/1 420/8/1
f 421/5/1 422/6/1 423/7/1 424/8/1
f 425/5/1 426/6/1 427/7/1 428/8/1
f 429/5/1 430/6/1 431/7/1 432/8/1
f 433/5/1 434/6/1 435/7/1 436/8/1
f 437/5/1 438/6/1 439/7/1 440/8/1
f 441/5/1 442/6/1 443/7/1 444/8/1
f 445/5/1 446/6/1 447/7/1 448/8/1
f 449/5/1 450/6/1 451/7/1 452/8/1
f 453/5/1 454/6/1 455/7/1 456/8/1
f 457/1/1 458/2/1 459/3/1 460/4/1

