﻿# Tiled2Unity generated file. Do not modify by hand.
# Wavefront file for 'Derwent_mesh_0012.obj'

# Vertices (Count = 168)
v -36.26667 -22.4 0
v -37.33334 -22.4 0
v -37.33334 -21.33333 0
v -36.26667 -21.33333 0
v -38.4 -23.46667 0
v -39.46667 -23.46667 0
v -39.46667 -22.4 0
v -38.4 -22.4 0
v -48 -23.46667 0
v -49.06667 -23.46667 0
v -49.06667 -22.4 0
v -48 -22.4 0
v -34.13334 -24.53333 0
v -35.2 -24.53333 0
v -35.2 -23.46667 0
v -34.13334 -23.46667 0
v -42.66667 -24.53333 0
v -43.73334 -24.53333 0
v -43.73334 -23.46667 0
v -42.66667 -23.46667 0
v -61.86667 -25.6 0
v -62.93334 -25.6 0
v -62.93334 -24.53333 0
v -61.86667 -24.53333 0
v -49.06667 -26.66667 0
v -50.13334 -26.66667 0
v -50.13334 -25.6 0
v -49.06667 -25.6 0
v -54.4 -26.66667 0
v -55.46667 -26.66667 0
v -55.46667 -25.6 0
v -54.4 -25.6 0
v -48 -27.73334 0
v -49.06667 -27.73334 0
v -49.06667 -26.66667 0
v -48 -26.66667 0
v -34.13334 -28.8 0
v -35.2 -28.8 0
v -35.2 -27.73334 0
v -34.13334 -27.73334 0
v -58.66667 -28.8 0
v -59.73334 -28.8 0
v -59.73334 -27.73334 0
v -58.66667 -27.73334 0
v -35.2 -29.86667 0
v -36.26667 -29.86667 0
v -36.26667 -28.8 0
v -35.2 -28.8 0
v -37.33334 -30.93333 0
v -38.4 -30.93333 0
v -38.4 -29.86667 0
v -37.33334 -29.86667 0
v -39.46667 -32 0
v -40.53334 -32 0
v -40.53334 -30.93333 0
v -39.46667 -30.93333 0
v -49.06667 -32 0
v -50.13334 -32 0
v -50.13334 -30.93333 0
v -49.06667 -30.93333 0
v -39.46667 -33.06667 0
v -40.53334 -33.06667 0
v -40.53334 -32 0
v -39.46667 -32 0
v -54.4 -33.06667 0
v -55.46667 -33.06667 0
v -55.46667 -32 0
v -54.4 -32 0
v -42.66667 -34.13334 0
v -43.73334 -34.13334 0
v -43.73334 -33.06667 0
v -42.66667 -33.06667 0
v -41.6 -35.2 0
v -42.66667 -35.2 0
v -42.66667 -34.13334 0
v -41.6 -34.13334 0
v -46.93333 -35.2 0
v -48 -35.2 0
v -48 -34.13334 0
v -46.93333 -34.13334 0
v -58.66667 -36.26667 0
v -59.73334 -36.26667 0
v -59.73334 -35.2 0
v -58.66667 -35.2 0
v -48 -37.33334 0
v -49.06667 -37.33334 0
v -49.06667 -36.26667 0
v -48 -36.26667 0
v -54.4 -38.4 0
v -55.46667 -38.4 0
v -55.46667 -37.33334 0
v -54.4 -37.33334 0
v -58.66667 -39.46667 0
v -59.73334 -39.46667 0
v -59.73334 -38.4 0
v -58.66667 -38.4 0
v -62.93334 -39.46667 0
v -64 -39.46667 0
v -64 -38.4 0
v -62.93334 -38.4 0
v -39.46667 -40.53334 0
v -40.53334 -40.53334 0
v -40.53334 -39.46667 0
v -39.46667 -39.46667 0
v -33.06667 -41.6 0
v -34.13334 -41.6 0
v -34.13334 -40.53334 0
v -33.06667 -40.53334 0
v -34.13334 -41.6 0
v -35.2 -41.6 0
v -35.2 -40.53334 0
v -34.13334 -40.53334 0
v -49.06667 -41.6 0
v -50.13334 -41.6 0
v -50.13334 -40.53334 0
v -49.06667 -40.53334 0
v -39.46667 -43.73334 0
v -40.53334 -43.73334 0
v -40.53334 -42.66667 0
v -39.46667 -42.66667 0
v -36.26667 -44.8 0
v -37.33334 -44.8 0
v -37.33334 -43.73334 0
v -36.26667 -43.73334 0
v -48 -45.86667 0
v -49.06667 -45.86667 0
v -49.06667 -44.8 0
v -48 -44.8 0
v -33.06667 -46.93333 0
v -34.13334 -46.93333 0
v -34.13334 -45.86667 0
v -33.06667 -45.86667 0
v -49.06667 -46.93333 0
v -50.13334 -46.93333 0
v -50.13334 -45.86667 0
v -49.06667 -45.86667 0
v -37.33334 -49.06667 0
v -38.4 -49.06667 0
v -38.4 -48 0
v -37.33334 -48 0
v -39.46667 -51.2 0
v -40.53334 -51.2 0
v -40.53334 -50.13334 0
v -39.46667 -50.13334 0
v -49.06667 -51.2 0
v -50.13334 -51.2 0
v -50.13334 -50.13334 0
v -49.06667 -50.13334 0
v -33.06667 -52.26667 0
v -34.13334 -52.26667 0
v -34.13334 -51.2 0
v -33.06667 -51.2 0
v -35.2 -53.33334 0
v -36.26667 -53.33334 0
v -36.26667 -52.26667 0
v -35.2 -52.26667 0
v -38.4 -53.33334 0
v -39.46667 -53.33334 0
v -39.46667 -52.26667 0
v -38.4 -52.26667 0
v -54.4 -53.33334 0
v -55.46667 -53.33334 0
v -55.46667 -52.26667 0
v -54.4 -52.26667 0
v -45.86667 -54.4 0
v -46.93333 -54.4 0
v -46.93333 -53.33334 0
v -45.86667 -53.33334 0

# Texture cooridinates (Count = 16)
vt 0.2418699 0.8918033
vt 0.2743903 0.8918033
vt 0.2743903 0.9442623
vt 0.2418699 0.9442623
vt 0.2418699 0.947541
vt 0.2743903 0.947541
vt 0.2743903 1
vt 0.2418699 1
vt 0.2073171 0.8360656
vt 0.2398374 0.8360656
vt 0.2398374 0.8885246
vt 0.2073171 0.8885246
vt 0.2418699 0.8360656
vt 0.2743903 0.8360656
vt 0.2743903 0.8885246
vt 0.2418699 0.8885246

# Normal
vn 0 0 -1

# Mesh description
g Derwent_mesh_0012

# Faces
f 1/1/1 2/2/1 3/3/1 4/4/1
f 5/1/1 6/2/1 7/3/1 8/4/1
f 9/5/1 10/6/1 11/7/1 12/8/1
f 13/1/1 14/2/1 15/3/1 16/4/1
f 17/5/1 18/6/1 19/7/1 20/8/1
f 21/5/1 22/6/1 23/7/1 24/8/1
f 25/9/1 26/10/1 27/11/1 28/12/1
f 29/5/1 30/6/1 31/7/1 32/8/1
f 33/5/1 34/6/1 35/7/1 36/8/1
f 37/1/1 38/2/1 39/3/1 40/4/1
f 41/1/1 42/2/1 43/3/1 44/4/1
f 45/9/1 46/10/1 47/11/1 48/12/1
f 49/1/1 50/2/1 51/3/1 52/4/1
f 53/9/1 54/10/1 55/11/1 56/12/1
f 57/5/1 58/6/1 59/7/1 60/8/1
f 61/5/1 62/6/1 63/7/1 64/8/1
f 65/1/1 66/2/1 67/3/1 68/4/1
f 69/9/1 70/10/1 71/11/1 72/12/1
f 73/5/1 74/6/1 75/7/1 76/8/1
f 77/1/1 78/2/1 79/3/1 80/4/1
f 81/1/1 82/2/1 83/3/1 84/4/1
f 85/9/1 86/10/1 87/11/1 88/12/1
f 89/5/1 90/6/1 91/7/1 92/8/1
f 93/1/1 94/2/1 95/3/1 96/4/1
f 97/5/1 98/6/1 99/7/1 100/8/1
f 101/13/1 102/14/1 103/15/1 104/16/1
f 105/5/1 106/6/1 107/7/1 108/8/1
f 109/9/1 110/10/1 111/11/1 112/12/1
f 113/5/1 114/6/1 115/7/1 116/8/1
f 117/5/1 118/6/1 119/7/1 120/8/1
f 121/1/1 122/2/1 123/3/1 124/4/1
f 125/1/1 126/2/1 127/3/1 128/4/1
f 129/9/1 130/10/1 131/11/1 132/12/1
f 133/13/1 134/14/1 135/15/1 136/16/1
f 137/9/1 138/10/1 139/11/1 140/12/1
f 141/5/1 142/6/1 143/7/1 144/8/1
f 145/5/1 146/6/1 147/7/1 148/8/1
f 149/5/1 150/6/1 151/7/1 152/8/1
f 153/9/1 154/10/1 155/11/1 156/12/1
f 157/9/1 158/10/1 159/11/1 160/12/1
f 161/13/1 162/14/1 163/15/1 164/16/1
f 165/9/1 166/10/1 167/11/1 168/12/1

