﻿# Tiled2Unity generated file. Do not modify by hand.
# Wavefront file for 'Derwent_mesh_0013.obj'

# Vertices (Count = 64)
v -42.66667 -41.6 0
v -43.73334 -41.6 0
v -43.73334 -40.53334 0
v -42.66667 -40.53334 0
v -59.73334 -41.6 0
v -60.8 -41.6 0
v -60.8 -40.53334 0
v -59.73334 -40.53334 0
v -60.8 -41.6 0
v -61.86667 -41.6 0
v -61.86667 -40.53334 0
v -60.8 -40.53334 0
v -61.86667 -41.6 0
v -62.93334 -41.6 0
v -62.93334 -40.53334 0
v -61.86667 -40.53334 0
v -61.86667 -42.66667 0
v -62.93334 -42.66667 0
v -62.93334 -41.6 0
v -61.86667 -41.6 0
v -54.4 -44.8 0
v -55.46667 -44.8 0
v -55.46667 -43.73334 0
v -54.4 -43.73334 0
v -43.73334 -46.93333 0
v -44.8 -46.93333 0
v -44.8 -45.86667 0
v -43.73334 -45.86667 0
v -59.73334 -46.93333 0
v -60.8 -46.93333 0
v -60.8 -45.86667 0
v -59.73334 -45.86667 0
v -45.86667 -48 0
v -46.93333 -48 0
v -46.93333 -46.93333 0
v -45.86667 -46.93333 0
v -43.73334 -49.06667 0
v -44.8 -49.06667 0
v -44.8 -48 0
v -43.73334 -48 0
v -44.8 -50.13334 0
v -45.86667 -50.13334 0
v -45.86667 -49.06667 0
v -44.8 -49.06667 0
v -56.53334 -50.13334 0
v -57.6 -50.13334 0
v -57.6 -49.06667 0
v -56.53334 -49.06667 0
v -42.66667 -51.2 0
v -43.73334 -51.2 0
v -43.73334 -50.13334 0
v -42.66667 -50.13334 0
v -43.73334 -51.2 0
v -44.8 -51.2 0
v -44.8 -50.13334 0
v -43.73334 -50.13334 0
v -44.8 -51.2 0
v -45.86667 -51.2 0
v -45.86667 -50.13334 0
v -44.8 -50.13334 0
v -45.86667 -51.2 0
v -46.93333 -51.2 0
v -46.93333 -50.13334 0
v -45.86667 -50.13334 0

# Texture cooridinates (Count = 16)
vt 0.4917355 0.6463878
vt 0.5082645 0.6463878
vt 0.5082645 0.6768061
vt 0.4917355 0.6768061
vt 0.9483471 0.1939163
vt 0.9648761 0.1939163
vt 0.9648761 0.2243346
vt 0.9483471 0.2243346
vt 0.4917355 0.6140684
vt 0.5082645 0.6140684
vt 0.5082645 0.6444867
vt 0.4917355 0.6444867
vt 0.4390496 0.6140684
vt 0.4555785 0.6140684
vt 0.4555785 0.6444867
vt 0.4390496 0.6444867

# Normal
vn 0 0 -1

# Mesh description
g Derwent_mesh_0013

# Faces
f 1/1/1 2/2/1 3/3/1 4/4/1
f 5/5/1 6/6/1 7/7/1 8/8/1
f 9/5/1 10/6/1 11/7/1 12/8/1
f 13/5/1 14/6/1 15/7/1 16/8/1
f 17/5/1 18/6/1 19/7/1 20/8/1
f 21/1/1 22/2/1 23/3/1 24/4/1
f 25/9/1 26/10/1 27/11/1 28/12/1
f 29/13/1 30/14/1 31/15/1 32/16/1
f 33/9/1 34/10/1 35/11/1 36/12/1
f 37/5/1 38/6/1 39/7/1 40/8/1
f 41/5/1 42/6/1 43/7/1 44/8/1
f 45/13/1 46/14/1 47/15/1 48/16/1
f 49/5/1 50/6/1 51/7/1 52/8/1
f 53/5/1 54/6/1 55/7/1 56/8/1
f 57/5/1 58/6/1 59/7/1 60/8/1
f 61/5/1 62/6/1 63/7/1 64/8/1

