﻿# Tiled2Unity generated file. Do not modify by hand.
# Wavefront file for 'Derwent_mesh_0007.obj'

# Vertices (Count = 292)
v -50.13334 -22.4 0
v -51.2 -22.4 0
v -51.2 -21.33333 0
v -50.13334 -21.33333 0
v -51.2 -22.4 0
v -52.26667 -22.4 0
v -52.26667 -21.33333 0
v -51.2 -21.33333 0
v -52.26667 -22.4 0
v -53.33334 -22.4 0
v -53.33334 -21.33333 0
v -52.26667 -21.33333 0
v -53.33334 -22.4 0
v -54.4 -22.4 0
v -54.4 -21.33333 0
v -53.33334 -21.33333 0
v -54.4 -22.4 0
v -55.46667 -22.4 0
v -55.46667 -21.33333 0
v -54.4 -21.33333 0
v -55.46667 -22.4 0
v -56.53334 -22.4 0
v -56.53334 -21.33333 0
v -55.46667 -21.33333 0
v -56.53334 -22.4 0
v -57.6 -22.4 0
v -57.6 -21.33333 0
v -56.53334 -21.33333 0
v -57.6 -22.4 0
v -58.66667 -22.4 0
v -58.66667 -21.33333 0
v -57.6 -21.33333 0
v -58.66667 -22.4 0
v -59.73334 -22.4 0
v -59.73334 -21.33333 0
v -58.66667 -21.33333 0
v -59.73334 -22.4 0
v -60.8 -22.4 0
v -60.8 -21.33333 0
v -59.73334 -21.33333 0
v -60.8 -22.4 0
v -61.86667 -22.4 0
v -61.86667 -21.33333 0
v -60.8 -21.33333 0
v -61.86667 -22.4 0
v -62.93334 -22.4 0
v -62.93334 -21.33333 0
v -61.86667 -21.33333 0
v -62.93334 -22.4 0
v -64 -22.4 0
v -64 -21.33333 0
v -62.93334 -21.33333 0
v -50.13334 -23.46667 0
v -51.2 -23.46667 0
v -51.2 -22.4 0
v -50.13334 -22.4 0
v -62.93334 -23.46667 0
v -64 -23.46667 0
v -64 -22.4 0
v -62.93334 -22.4 0
v -50.13334 -24.53333 0
v -51.2 -24.53333 0
v -51.2 -23.46667 0
v -50.13334 -23.46667 0
v -62.93334 -24.53333 0
v -64 -24.53333 0
v -64 -23.46667 0
v -62.93334 -23.46667 0
v -62.93334 -25.6 0
v -64 -25.6 0
v -64 -24.53333 0
v -62.93334 -24.53333 0
v -62.93334 -26.66667 0
v -64 -26.66667 0
v -64 -25.6 0
v -62.93334 -25.6 0
v -62.93334 -27.73334 0
v -64 -27.73334 0
v -64 -26.66667 0
v -62.93334 -26.66667 0
v -62.93334 -28.8 0
v -64 -28.8 0
v -64 -27.73334 0
v -62.93334 -27.73334 0
v -62.93334 -29.86667 0
v -64 -29.86667 0
v -64 -28.8 0
v -62.93334 -28.8 0
v -50.13334 -30.93333 0
v -51.2 -30.93333 0
v -51.2 -29.86667 0
v -50.13334 -29.86667 0
v -62.93334 -30.93333 0
v -64 -30.93333 0
v -64 -29.86667 0
v -62.93334 -29.86667 0
v -50.13334 -32 0
v -51.2 -32 0
v -51.2 -30.93333 0
v -50.13334 -30.93333 0
v -62.93334 -32 0
v -64 -32 0
v -64 -30.93333 0
v -62.93334 -30.93333 0
v -50.13334 -33.06667 0
v -51.2 -33.06667 0
v -51.2 -32 0
v -50.13334 -32 0
v -62.93334 -33.06667 0
v -64 -33.06667 0
v -64 -32 0
v -62.93334 -32 0
v -50.13334 -34.13334 0
v -51.2 -34.13334 0
v -51.2 -33.06667 0
v -50.13334 -33.06667 0
v -62.93334 -34.13334 0
v -64 -34.13334 0
v -64 -33.06667 0
v -62.93334 -33.06667 0
v -50.13334 -35.2 0
v -51.2 -35.2 0
v -51.2 -34.13334 0
v -50.13334 -34.13334 0
v -62.93334 -35.2 0
v -64 -35.2 0
v -64 -34.13334 0
v -62.93334 -34.13334 0
v -50.13334 -36.26667 0
v -51.2 -36.26667 0
v -51.2 -35.2 0
v -50.13334 -35.2 0
v -62.93334 -36.26667 0
v -64 -36.26667 0
v -64 -35.2 0
v -62.93334 -35.2 0
v -50.13334 -37.33334 0
v -51.2 -37.33334 0
v -51.2 -36.26667 0
v -50.13334 -36.26667 0
v -51.2 -37.33334 0
v -52.26667 -37.33334 0
v -52.26667 -36.26667 0
v -51.2 -36.26667 0
v -52.26667 -37.33334 0
v -53.33334 -37.33334 0
v -53.33334 -36.26667 0
v -52.26667 -36.26667 0
v -53.33334 -37.33334 0
v -54.4 -37.33334 0
v -54.4 -36.26667 0
v -53.33334 -36.26667 0
v -54.4 -37.33334 0
v -55.46667 -37.33334 0
v -55.46667 -36.26667 0
v -54.4 -36.26667 0
v -55.46667 -37.33334 0
v -56.53334 -37.33334 0
v -56.53334 -36.26667 0
v -55.46667 -36.26667 0
v -56.53334 -37.33334 0
v -57.6 -37.33334 0
v -57.6 -36.26667 0
v -56.53334 -36.26667 0
v -57.6 -37.33334 0
v -58.66667 -37.33334 0
v -58.66667 -36.26667 0
v -57.6 -36.26667 0
v -58.66667 -37.33334 0
v -59.73334 -37.33334 0
v -59.73334 -36.26667 0
v -58.66667 -36.26667 0
v -59.73334 -37.33334 0
v -60.8 -37.33334 0
v -60.8 -36.26667 0
v -59.73334 -36.26667 0
v -60.8 -37.33334 0
v -61.86667 -37.33334 0
v -61.86667 -36.26667 0
v -60.8 -36.26667 0
v -61.86667 -37.33334 0
v -62.93334 -37.33334 0
v -62.93334 -36.26667 0
v -61.86667 -36.26667 0
v -62.93334 -37.33334 0
v -64 -37.33334 0
v -64 -36.26667 0
v -62.93334 -36.26667 0
v -50.13334 -38.4 0
v -51.2 -38.4 0
v -51.2 -37.33334 0
v -50.13334 -37.33334 0
v -51.2 -38.4 0
v -52.26667 -38.4 0
v -52.26667 -37.33334 0
v -51.2 -37.33334 0
v -52.26667 -38.4 0
v -53.33334 -38.4 0
v -53.33334 -37.33334 0
v -52.26667 -37.33334 0
v -53.33334 -38.4 0
v -54.4 -38.4 0
v -54.4 -37.33334 0
v -53.33334 -37.33334 0
v -54.4 -38.4 0
v -55.46667 -38.4 0
v -55.46667 -37.33334 0
v -54.4 -37.33334 0
v -55.46667 -38.4 0
v -56.53334 -38.4 0
v -56.53334 -37.33334 0
v -55.46667 -37.33334 0
v -56.53334 -38.4 0
v -57.6 -38.4 0
v -57.6 -37.33334 0
v -56.53334 -37.33334 0
v -57.6 -38.4 0
v -58.66667 -38.4 0
v -58.66667 -37.33334 0
v -57.6 -37.33334 0
v -58.66667 -38.4 0
v -59.73334 -38.4 0
v -59.73334 -37.33334 0
v -58.66667 -37.33334 0
v -59.73334 -38.4 0
v -60.8 -38.4 0
v -60.8 -37.33334 0
v -59.73334 -37.33334 0
v -60.8 -38.4 0
v -61.86667 -38.4 0
v -61.86667 -37.33334 0
v -60.8 -37.33334 0
v -61.86667 -38.4 0
v -62.93334 -38.4 0
v -62.93334 -37.33334 0
v -61.86667 -37.33334 0
v -62.93334 -38.4 0
v -64 -38.4 0
v -64 -37.33334 0
v -62.93334 -37.33334 0
v -50.13334 -39.46667 0
v -51.2 -39.46667 0
v -51.2 -38.4 0
v -50.13334 -38.4 0
v -51.2 -39.46667 0
v -52.26667 -39.46667 0
v -52.26667 -38.4 0
v -51.2 -38.4 0
v -52.26667 -39.46667 0
v -53.33334 -39.46667 0
v -53.33334 -38.4 0
v -52.26667 -38.4 0
v -53.33334 -39.46667 0
v -54.4 -39.46667 0
v -54.4 -38.4 0
v -53.33334 -38.4 0
v -54.4 -39.46667 0
v -55.46667 -39.46667 0
v -55.46667 -38.4 0
v -54.4 -38.4 0
v -55.46667 -39.46667 0
v -56.53334 -39.46667 0
v -56.53334 -38.4 0
v -55.46667 -38.4 0
v -56.53334 -39.46667 0
v -57.6 -39.46667 0
v -57.6 -38.4 0
v -56.53334 -38.4 0
v -57.6 -39.46667 0
v -58.66667 -39.46667 0
v -58.66667 -38.4 0
v -57.6 -38.4 0
v -58.66667 -39.46667 0
v -59.73334 -39.46667 0
v -59.73334 -38.4 0
v -58.66667 -38.4 0
v -59.73334 -39.46667 0
v -60.8 -39.46667 0
v -60.8 -38.4 0
v -59.73334 -38.4 0
v -60.8 -39.46667 0
v -61.86667 -39.46667 0
v -61.86667 -38.4 0
v -60.8 -38.4 0
v -61.86667 -39.46667 0
v -62.93334 -39.46667 0
v -62.93334 -38.4 0
v -61.86667 -38.4 0
v -62.93334 -39.46667 0
v -64 -39.46667 0
v -64 -38.4 0
v -62.93334 -38.4 0

# Texture cooridinates (Count = 56)
vt 0.5268595 0.5817491
vt 0.5433884 0.5817491
vt 0.5433884 0.6121673
vt 0.5268595 0.6121673
vt 0.4917355 0.5817491
vt 0.5082645 0.5817491
vt 0.5082645 0.6121673
vt 0.4917355 0.6121673
vt 0.5444215 0.5817491
vt 0.5609504 0.5817491
vt 0.5609504 0.6121673
vt 0.5444215 0.6121673
vt 0.5092975 0.5494297
vt 0.5258265 0.5494297
vt 0.5258265 0.5798479
vt 0.5092975 0.5798479
vt 0.4741735 0.5494297
vt 0.4907025 0.5494297
vt 0.4907025 0.5798479
vt 0.4741735 0.5798479
vt 0.5268595 0.5494297
vt 0.5433884 0.5494297
vt 0.5433884 0.5798479
vt 0.5268595 0.5798479
vt 0.5444215 0.5494297
vt 0.5609504 0.5494297
vt 0.5609504 0.5798479
vt 0.5444215 0.5798479
vt 0.5444215 0.4847909
vt 0.5609504 0.4847909
vt 0.5609504 0.5152091
vt 0.5444215 0.5152091
vt 0.5619835 0.4847909
vt 0.5785124 0.4847909
vt 0.5785124 0.5152091
vt 0.5619835 0.5152091
vt 0.5795454 0.4847909
vt 0.5960744 0.4847909
vt 0.5960744 0.5152091
vt 0.5795454 0.5152091
vt 0.5268595 0.3231939
vt 0.5433884 0.3231939
vt 0.5433884 0.3536122
vt 0.5268595 0.3536122
vt 0.4741735 0.4847909
vt 0.4907025 0.4847909
vt 0.4907025 0.5152091
vt 0.4741735 0.5152091
vt 0.5444215 0.3231939
vt 0.5609504 0.3231939
vt 0.5609504 0.3536122
vt 0.5444215 0.3536122
vt 0.5619835 0.3231939
vt 0.5785124 0.3231939
vt 0.5785124 0.3536122
vt 0.5619835 0.3536122

# Normal
vn 0 0 -1

# Mesh description
g Derwent_mesh_0007

# Faces
f 1/1/1 2/2/1 3/3/1 4/4/1
f 5/5/1 6/6/1 7/7/1 8/8/1
f 9/5/1 10/6/1 11/7/1 12/8/1
f 13/5/1 14/6/1 15/7/1 16/8/1
f 17/5/1 18/6/1 19/7/1 20/8/1
f 21/5/1 22/6/1 23/7/1 24/8/1
f 25/5/1 26/6/1 27/7/1 28/8/1
f 29/5/1 30/6/1 31/7/1 32/8/1
f 33/5/1 34/6/1 35/7/1 36/8/1
f 37/5/1 38/6/1 39/7/1 40/8/1
f 41/5/1 42/6/1 43/7/1 44/8/1
f 45/5/1 46/6/1 47/7/1 48/8/1
f 49/9/1 50/10/1 51/11/1 52/12/1
f 53/13/1 54/14/1 55/15/1 56/16/1
f 57/13/1 58/14/1 59/15/1 60/16/1
f 61/13/1 62/14/1 63/15/1 64/16/1
f 65/13/1 66/14/1 67/15/1 68/16/1
f 69/13/1 70/14/1 71/15/1 72/16/1
f 73/13/1 74/14/1 75/15/1 76/16/1
f 77/13/1 78/14/1 79/15/1 80/16/1
f 81/13/1 82/14/1 83/15/1 84/16/1
f 85/13/1 86/14/1 87/15/1 88/16/1
f 89/17/1 90/18/1 91/19/1 92/20/1
f 93/13/1 94/14/1 95/15/1 96/16/1
f 97/13/1 98/14/1 99/15/1 100/16/1
f 101/13/1 102/14/1 103/15/1 104/16/1
f 105/13/1 106/14/1 107/15/1 108/16/1
f 109/13/1 110/14/1 111/15/1 112/16/1
f 113/13/1 114/14/1 115/15/1 116/16/1
f 117/13/1 118/14/1 119/15/1 120/16/1
f 121/13/1 122/14/1 123/15/1 124/16/1
f 125/13/1 126/14/1 127/15/1 128/16/1
f 129/13/1 130/14/1 131/15/1 132/16/1
f 133/13/1 134/14/1 135/15/1 136/16/1
f 137/21/1 138/22/1 139/23/1 140/24/1
f 141/5/1 142/6/1 143/7/1 144/8/1
f 145/5/1 146/6/1 147/7/1 148/8/1
f 149/5/1 150/6/1 151/7/1 152/8/1
f 153/5/1 154/6/1 155/7/1 156/8/1
f 157/5/1 158/6/1 159/7/1 160/8/1
f 161/5/1 162/6/1 163/7/1 164/8/1
f 165/5/1 166/6/1 167/7/1 168/8/1
f 169/5/1 170/6/1 171/7/1 172/8/1
f 173/5/1 174/6/1 175/7/1 176/8/1
f 177/5/1 178/6/1 179/7/1 180/8/1
f 181/5/1 182/6/1 183/7/1 184/8/1
f 185/25/1 186/26/1 187/27/1 188/28/1
f 189/29/1 190/30/1 191/31/1 192/32/1
f 193/33/1 194/34/1 195/35/1 196/36/1
f 197/33/1 198/34/1 199/35/1 200/36/1
f 201/33/1 202/34/1 203/35/1 204/36/1
f 205/33/1 206/34/1 207/35/1 208/36/1
f 209/33/1 210/34/1 211/35/1 212/36/1
f 213/33/1 214/34/1 215/35/1 216/36/1
f 217/33/1 218/34/1 219/35/1 220/36/1
f 221/33/1 222/34/1 223/35/1 224/36/1
f 225/33/1 226/34/1 227/35/1 228/36/1
f 229/33/1 230/34/1 231/35/1 232/36/1
f 233/33/1 234/34/1 235/35/1 236/36/1
f 237/37/1 238/38/1 239/39/1 240/40/1
f 241/41/1 242/42/1 243/43/1 244/44/1
f 245/45/1 246/46/1 247/47/1 248/48/1
f 249/45/1 250/46/1 251/47/1 252/48/1
f 253/45/1 254/46/1 255/47/1 256/48/1
f 257/49/1 258/50/1 259/51/1 260/52/1
f 261/45/1 262/46/1 263/47/1 264/48/1
f 265/45/1 266/46/1 267/47/1 268/48/1
f 269/45/1 270/46/1 271/47/1 272/48/1
f 273/49/1 274/50/1 275/51/1 276/52/1
f 277/45/1 278/46/1 279/47/1 280/48/1
f 281/45/1 282/46/1 283/47/1 284/48/1
f 285/45/1 286/46/1 287/47/1 288/48/1
f 289/53/1 290/54/1 291/55/1 292/56/1

