﻿# Tiled2Unity generated file. Do not modify by hand.
# Wavefront file for 'Central-Hall_mesh_0010.obj'

# Vertices (Count = 448)
v -51.2 -41.6 0
v -52.26667 -41.6 0
v -52.26667 -40.53334 0
v -51.2 -40.53334 0
v -52.26667 -41.6 0
v -53.33334 -41.6 0
v -53.33334 -40.53334 0
v -52.26667 -40.53334 0
v -53.33334 -41.6 0
v -54.4 -41.6 0
v -54.4 -40.53334 0
v -53.33334 -40.53334 0
v -54.4 -41.6 0
v -55.46667 -41.6 0
v -55.46667 -40.53334 0
v -54.4 -40.53334 0
v -55.46667 -41.6 0
v -56.53334 -41.6 0
v -56.53334 -40.53334 0
v -55.46667 -40.53334 0
v -56.53334 -41.6 0
v -57.6 -41.6 0
v -57.6 -40.53334 0
v -56.53334 -40.53334 0
v -57.6 -41.6 0
v -58.66667 -41.6 0
v -58.66667 -40.53334 0
v -57.6 -40.53334 0
v -58.66667 -41.6 0
v -59.73334 -41.6 0
v -59.73334 -40.53334 0
v -58.66667 -40.53334 0
v -59.73334 -41.6 0
v -60.8 -41.6 0
v -60.8 -40.53334 0
v -59.73334 -40.53334 0
v -60.8 -41.6 0
v -61.86667 -41.6 0
v -61.86667 -40.53334 0
v -60.8 -40.53334 0
v -61.86667 -41.6 0
v -62.93334 -41.6 0
v -62.93334 -40.53334 0
v -61.86667 -40.53334 0
v -62.93334 -41.6 0
v -64 -41.6 0
v -64 -40.53334 0
v -62.93334 -40.53334 0
v -64 -41.6 0
v -65.06667 -41.6 0
v -65.06667 -40.53334 0
v -64 -40.53334 0
v -65.06667 -41.6 0
v -66.13334 -41.6 0
v -66.13334 -40.53334 0
v -65.06667 -40.53334 0
v -66.13334 -41.6 0
v -67.2 -41.6 0
v -67.2 -40.53334 0
v -66.13334 -40.53334 0
v -67.2 -41.6 0
v -68.26667 -41.6 0
v -68.26667 -40.53334 0
v -67.2 -40.53334 0
v -51.2 -42.66667 0
v -52.26667 -42.66667 0
v -52.26667 -41.6 0
v -51.2 -41.6 0
v -52.26667 -42.66667 0
v -53.33334 -42.66667 0
v -53.33334 -41.6 0
v -52.26667 -41.6 0
v -53.33334 -42.66667 0
v -54.4 -42.66667 0
v -54.4 -41.6 0
v -53.33334 -41.6 0
v -54.4 -42.66667 0
v -55.46667 -42.66667 0
v -55.46667 -41.6 0
v -54.4 -41.6 0
v -55.46667 -42.66667 0
v -56.53334 -42.66667 0
v -56.53334 -41.6 0
v -55.46667 -41.6 0
v -56.53334 -42.66667 0
v -57.6 -42.66667 0
v -57.6 -41.6 0
v -56.53334 -41.6 0
v -57.6 -42.66667 0
v -58.66667 -42.66667 0
v -58.66667 -41.6 0
v -57.6 -41.6 0
v -58.66667 -42.66667 0
v -59.73334 -42.66667 0
v -59.73334 -41.6 0
v -58.66667 -41.6 0
v -59.73334 -42.66667 0
v -60.8 -42.66667 0
v -60.8 -41.6 0
v -59.73334 -41.6 0
v -60.8 -42.66667 0
v -61.86667 -42.66667 0
v -61.86667 -41.6 0
v -60.8 -41.6 0
v -61.86667 -42.66667 0
v -62.93334 -42.66667 0
v -62.93334 -41.6 0
v -61.86667 -41.6 0
v -62.93334 -42.66667 0
v -64 -42.66667 0
v -64 -41.6 0
v -62.93334 -41.6 0
v -64 -42.66667 0
v -65.06667 -42.66667 0
v -65.06667 -41.6 0
v -64 -41.6 0
v -65.06667 -42.66667 0
v -66.13334 -42.66667 0
v -66.13334 -41.6 0
v -65.06667 -41.6 0
v -66.13334 -42.66667 0
v -67.2 -42.66667 0
v -67.2 -41.6 0
v -66.13334 -41.6 0
v -67.2 -42.66667 0
v -68.26667 -42.66667 0
v -68.26667 -41.6 0
v -67.2 -41.6 0
v -51.2 -43.73334 0
v -52.26667 -43.73334 0
v -52.26667 -42.66667 0
v -51.2 -42.66667 0
v -52.26667 -43.73334 0
v -53.33334 -43.73334 0
v -53.33334 -42.66667 0
v -52.26667 -42.66667 0
v -53.33334 -43.73334 0
v -54.4 -43.73334 0
v -54.4 -42.66667 0
v -53.33334 -42.66667 0
v -54.4 -43.73334 0
v -55.46667 -43.73334 0
v -55.46667 -42.66667 0
v -54.4 -42.66667 0
v -55.46667 -43.73334 0
v -56.53334 -43.73334 0
v -56.53334 -42.66667 0
v -55.46667 -42.66667 0
v -56.53334 -43.73334 0
v -57.6 -43.73334 0
v -57.6 -42.66667 0
v -56.53334 -42.66667 0
v -57.6 -43.73334 0
v -58.66667 -43.73334 0
v -58.66667 -42.66667 0
v -57.6 -42.66667 0
v -58.66667 -43.73334 0
v -59.73334 -43.73334 0
v -59.73334 -42.66667 0
v -58.66667 -42.66667 0
v -59.73334 -43.73334 0
v -60.8 -43.73334 0
v -60.8 -42.66667 0
v -59.73334 -42.66667 0
v -60.8 -43.73334 0
v -61.86667 -43.73334 0
v -61.86667 -42.66667 0
v -60.8 -42.66667 0
v -61.86667 -43.73334 0
v -62.93334 -43.73334 0
v -62.93334 -42.66667 0
v -61.86667 -42.66667 0
v -62.93334 -43.73334 0
v -64 -43.73334 0
v -64 -42.66667 0
v -62.93334 -42.66667 0
v -64 -43.73334 0
v -65.06667 -43.73334 0
v -65.06667 -42.66667 0
v -64 -42.66667 0
v -65.06667 -43.73334 0
v -66.13334 -43.73334 0
v -66.13334 -42.66667 0
v -65.06667 -42.66667 0
v -66.13334 -43.73334 0
v -67.2 -43.73334 0
v -67.2 -42.66667 0
v -66.13334 -42.66667 0
v -67.2 -43.73334 0
v -68.26667 -43.73334 0
v -68.26667 -42.66667 0
v -67.2 -42.66667 0
v -51.2 -44.8 0
v -52.26667 -44.8 0
v -52.26667 -43.73334 0
v -51.2 -43.73334 0
v -52.26667 -44.8 0
v -53.33334 -44.8 0
v -53.33334 -43.73334 0
v -52.26667 -43.73334 0
v -53.33334 -44.8 0
v -54.4 -44.8 0
v -54.4 -43.73334 0
v -53.33334 -43.73334 0
v -54.4 -44.8 0
v -55.46667 -44.8 0
v -55.46667 -43.73334 0
v -54.4 -43.73334 0
v -55.46667 -44.8 0
v -56.53334 -44.8 0
v -56.53334 -43.73334 0
v -55.46667 -43.73334 0
v -56.53334 -44.8 0
v -57.6 -44.8 0
v -57.6 -43.73334 0
v -56.53334 -43.73334 0
v -57.6 -44.8 0
v -58.66667 -44.8 0
v -58.66667 -43.73334 0
v -57.6 -43.73334 0
v -58.66667 -44.8 0
v -59.73334 -44.8 0
v -59.73334 -43.73334 0
v -58.66667 -43.73334 0
v -59.73334 -44.8 0
v -60.8 -44.8 0
v -60.8 -43.73334 0
v -59.73334 -43.73334 0
v -60.8 -44.8 0
v -61.86667 -44.8 0
v -61.86667 -43.73334 0
v -60.8 -43.73334 0
v -61.86667 -44.8 0
v -62.93334 -44.8 0
v -62.93334 -43.73334 0
v -61.86667 -43.73334 0
v -62.93334 -44.8 0
v -64 -44.8 0
v -64 -43.73334 0
v -62.93334 -43.73334 0
v -64 -44.8 0
v -65.06667 -44.8 0
v -65.06667 -43.73334 0
v -64 -43.73334 0
v -65.06667 -44.8 0
v -66.13334 -44.8 0
v -66.13334 -43.73334 0
v -65.06667 -43.73334 0
v -66.13334 -44.8 0
v -67.2 -44.8 0
v -67.2 -43.73334 0
v -66.13334 -43.73334 0
v -67.2 -44.8 0
v -68.26667 -44.8 0
v -68.26667 -43.73334 0
v -67.2 -43.73334 0
v -51.2 -45.86667 0
v -52.26667 -45.86667 0
v -52.26667 -44.8 0
v -51.2 -44.8 0
v -52.26667 -45.86667 0
v -53.33334 -45.86667 0
v -53.33334 -44.8 0
v -52.26667 -44.8 0
v -53.33334 -45.86667 0
v -54.4 -45.86667 0
v -54.4 -44.8 0
v -53.33334 -44.8 0
v -54.4 -45.86667 0
v -55.46667 -45.86667 0
v -55.46667 -44.8 0
v -54.4 -44.8 0
v -55.46667 -45.86667 0
v -56.53334 -45.86667 0
v -56.53334 -44.8 0
v -55.46667 -44.8 0
v -56.53334 -45.86667 0
v -57.6 -45.86667 0
v -57.6 -44.8 0
v -56.53334 -44.8 0
v -57.6 -45.86667 0
v -58.66667 -45.86667 0
v -58.66667 -44.8 0
v -57.6 -44.8 0
v -58.66667 -45.86667 0
v -59.73334 -45.86667 0
v -59.73334 -44.8 0
v -58.66667 -44.8 0
v -59.73334 -45.86667 0
v -60.8 -45.86667 0
v -60.8 -44.8 0
v -59.73334 -44.8 0
v -60.8 -45.86667 0
v -61.86667 -45.86667 0
v -61.86667 -44.8 0
v -60.8 -44.8 0
v -61.86667 -45.86667 0
v -62.93334 -45.86667 0
v -62.93334 -44.8 0
v -61.86667 -44.8 0
v -62.93334 -45.86667 0
v -64 -45.86667 0
v -64 -44.8 0
v -62.93334 -44.8 0
v -64 -45.86667 0
v -65.06667 -45.86667 0
v -65.06667 -44.8 0
v -64 -44.8 0
v -65.06667 -45.86667 0
v -66.13334 -45.86667 0
v -66.13334 -44.8 0
v -65.06667 -44.8 0
v -66.13334 -45.86667 0
v -67.2 -45.86667 0
v -67.2 -44.8 0
v -66.13334 -44.8 0
v -67.2 -45.86667 0
v -68.26667 -45.86667 0
v -68.26667 -44.8 0
v -67.2 -44.8 0
v -51.2 -46.93333 0
v -52.26667 -46.93333 0
v -52.26667 -45.86667 0
v -51.2 -45.86667 0
v -52.26667 -46.93333 0
v -53.33334 -46.93333 0
v -53.33334 -45.86667 0
v -52.26667 -45.86667 0
v -53.33334 -46.93333 0
v -54.4 -46.93333 0
v -54.4 -45.86667 0
v -53.33334 -45.86667 0
v -54.4 -46.93333 0
v -55.46667 -46.93333 0
v -55.46667 -45.86667 0
v -54.4 -45.86667 0
v -55.46667 -46.93333 0
v -56.53334 -46.93333 0
v -56.53334 -45.86667 0
v -55.46667 -45.86667 0
v -56.53334 -46.93333 0
v -57.6 -46.93333 0
v -57.6 -45.86667 0
v -56.53334 -45.86667 0
v -57.6 -46.93333 0
v -58.66667 -46.93333 0
v -58.66667 -45.86667 0
v -57.6 -45.86667 0
v -58.66667 -46.93333 0
v -59.73334 -46.93333 0
v -59.73334 -45.86667 0
v -58.66667 -45.86667 0
v -59.73334 -46.93333 0
v -60.8 -46.93333 0
v -60.8 -45.86667 0
v -59.73334 -45.86667 0
v -60.8 -46.93333 0
v -61.86667 -46.93333 0
v -61.86667 -45.86667 0
v -60.8 -45.86667 0
v -61.86667 -46.93333 0
v -62.93334 -46.93333 0
v -62.93334 -45.86667 0
v -61.86667 -45.86667 0
v -62.93334 -46.93333 0
v -64 -46.93333 0
v -64 -45.86667 0
v -62.93334 -45.86667 0
v -64 -46.93333 0
v -65.06667 -46.93333 0
v -65.06667 -45.86667 0
v -64 -45.86667 0
v -65.06667 -46.93333 0
v -66.13334 -46.93333 0
v -66.13334 -45.86667 0
v -65.06667 -45.86667 0
v -66.13334 -46.93333 0
v -67.2 -46.93333 0
v -67.2 -45.86667 0
v -66.13334 -45.86667 0
v -67.2 -46.93333 0
v -68.26667 -46.93333 0
v -68.26667 -45.86667 0
v -67.2 -45.86667 0
v -51.2 -48 0
v -52.26667 -48 0
v -52.26667 -46.93333 0
v -51.2 -46.93333 0
v -52.26667 -48 0
v -53.33334 -48 0
v -53.33334 -46.93333 0
v -52.26667 -46.93333 0
v -53.33334 -48 0
v -54.4 -48 0
v -54.4 -46.93333 0
v -53.33334 -46.93333 0
v -54.4 -48 0
v -55.46667 -48 0
v -55.46667 -46.93333 0
v -54.4 -46.93333 0
v -55.46667 -48 0
v -56.53334 -48 0
v -56.53334 -46.93333 0
v -55.46667 -46.93333 0
v -56.53334 -48 0
v -57.6 -48 0
v -57.6 -46.93333 0
v -56.53334 -46.93333 0
v -57.6 -48 0
v -58.66667 -48 0
v -58.66667 -46.93333 0
v -57.6 -46.93333 0
v -58.66667 -48 0
v -59.73334 -48 0
v -59.73334 -46.93333 0
v -58.66667 -46.93333 0
v -59.73334 -48 0
v -60.8 -48 0
v -60.8 -46.93333 0
v -59.73334 -46.93333 0
v -60.8 -48 0
v -61.86667 -48 0
v -61.86667 -46.93333 0
v -60.8 -46.93333 0
v -61.86667 -48 0
v -62.93334 -48 0
v -62.93334 -46.93333 0
v -61.86667 -46.93333 0
v -62.93334 -48 0
v -64 -48 0
v -64 -46.93333 0
v -62.93334 -46.93333 0
v -64 -48 0
v -65.06667 -48 0
v -65.06667 -46.93333 0
v -64 -46.93333 0
v -65.06667 -48 0
v -66.13334 -48 0
v -66.13334 -46.93333 0
v -65.06667 -46.93333 0
v -66.13334 -48 0
v -67.2 -48 0
v -67.2 -46.93333 0
v -66.13334 -46.93333 0
v -67.2 -48 0
v -68.26667 -48 0
v -68.26667 -46.93333 0
v -67.2 -46.93333 0

# Texture cooridinates (Count = 36)
vt 0.6673554 0.2908745
vt 0.6838843 0.2908745
vt 0.6838843 0.3212928
vt 0.6673554 0.3212928
vt 0.6849173 0.2908745
vt 0.7014463 0.2908745
vt 0.7014463 0.3212928
vt 0.6849173 0.3212928
vt 0.7024794 0.2908745
vt 0.7190083 0.2908745
vt 0.7190083 0.3212928
vt 0.7024794 0.3212928
vt 0.6673554 0.2585551
vt 0.6838843 0.2585551
vt 0.6838843 0.2889734
vt 0.6673554 0.2889734
vt 0.6849173 0.2585551
vt 0.7014463 0.2585551
vt 0.7014463 0.2889734
vt 0.6849173 0.2889734
vt 0.7024794 0.2585551
vt 0.7190083 0.2585551
vt 0.7190083 0.2889734
vt 0.7024794 0.2889734
vt 0.6673554 0.2262357
vt 0.6838843 0.2262357
vt 0.6838843 0.256654
vt 0.6673554 0.256654
vt 0.6849173 0.2262357
vt 0.7014463 0.2262357
vt 0.7014463 0.256654
vt 0.6849173 0.256654
vt 0.7024794 0.2262357
vt 0.7190083 0.2262357
vt 0.7190083 0.256654
vt 0.7024794 0.256654

# Normal
vn 0 0 -1

# Mesh description
g Central-Hall_mesh_0010

# Faces
f 1/1/1 2/2/1 3/3/1 4/4/1
f 5/5/1 6/6/1 7/7/1 8/8/1
f 9/5/1 10/6/1 11/7/1 12/8/1
f 13/5/1 14/6/1 15/7/1 16/8/1
f 17/5/1 18/6/1 19/7/1 20/8/1
f 21/5/1 22/6/1 23/7/1 24/8/1
f 25/5/1 26/6/1 27/7/1 28/8/1
f 29/5/1 30/6/1 31/7/1 32/8/1
f 33/5/1 34/6/1 35/7/1 36/8/1
f 37/5/1 38/6/1 39/7/1 40/8/1
f 41/5/1 42/6/1 43/7/1 44/8/1
f 45/5/1 46/6/1 47/7/1 48/8/1
f 49/5/1 50/6/1 51/7/1 52/8/1
f 53/5/1 54/6/1 55/7/1 56/8/1
f 57/5/1 58/6/1 59/7/1 60/8/1
f 61/9/1 62/10/1 63/11/1 64/12/1
f 65/13/1 66/14/1 67/15/1 68/16/1
f 69/17/1 70/18/1 71/19/1 72/20/1
f 73/17/1 74/18/1 75/19/1 76/20/1
f 77/17/1 78/18/1 79/19/1 80/20/1
f 81/17/1 82/18/1 83/19/1 84/20/1
f 85/17/1 86/18/1 87/19/1 88/20/1
f 89/17/1 90/18/1 91/19/1 92/20/1
f 93/17/1 94/18/1 95/19/1 96/20/1
f 97/17/1 98/18/1 99/19/1 100/20/1
f 101/17/1 102/18/1 103/19/1 104/20/1
f 105/17/1 106/18/1 107/19/1 108/20/1
f 109/17/1 110/18/1 111/19/1 112/20/1
f 113/17/1 114/18/1 115/19/1 116/20/1
f 117/17/1 118/18/1 119/19/1 120/20/1
f 121/17/1 122/18/1 123/19/1 124/20/1
f 125/21/1 126/22/1 127/23/1 128/24/1
f 129/13/1 130/14/1 131/15/1 132/16/1
f 133/17/1 134/18/1 135/19/1 136/20/1
f 137/17/1 138/18/1 139/19/1 140/20/1
f 141/17/1 142/18/1 143/19/1 144/20/1
f 145/17/1 146/18/1 147/19/1 148/20/1
f 149/17/1 150/18/1 151/19/1 152/20/1
f 153/17/1 154/18/1 155/19/1 156/20/1
f 157/17/1 158/18/1 159/19/1 160/20/1
f 161/17/1 162/18/1 163/19/1 164/20/1
f 165/17/1 166/18/1 167/19/1 168/20/1
f 169/17/1 170/18/1 171/19/1 172/20/1
f 173/17/1 174/18/1 175/19/1 176/20/1
f 177/17/1 178/18/1 179/19/1 180/20/1
f 181/17/1 182/18/1 183/19/1 184/20/1
f 185/17/1 186/18/1 187/19/1 188/20/1
f 189/21/1 190/22/1 191/23/1 192/24/1
f 193/17/1 194/18/1 195/19/1 196/20/1
f 197/17/1 198/18/1 199/19/1 200/20/1
f 201/17/1 202/18/1 203/19/1 204/20/1
f 205/17/1 206/18/1 207/19/1 208/20/1
f 209/17/1 210/18/1 211/19/1 212/20/1
f 213/17/1 214/18/1 215/19/1 216/20/1
f 217/17/1 218/18/1 219/19/1 220/20/1
f 221/17/1 222/18/1 223/19/1 224/20/1
f 225/17/1 226/18/1 227/19/1 228/20/1
f 229/17/1 230/18/1 231/19/1 232/20/1
f 233/17/1 234/18/1 235/19/1 236/20/1
f 237/17/1 238/18/1 239/19/1 240/20/1
f 241/17/1 242/18/1 243/19/1 244/20/1
f 245/17/1 246/18/1 247/19/1 248/20/1
f 249/17/1 250/18/1 251/19/1 252/20/1
f 253/17/1 254/18/1 255/19/1 256/20/1
f 257/13/1 258/14/1 259/15/1 260/16/1
f 261/17/1 262/18/1 263/19/1 264/20/1
f 265/17/1 266/18/1 267/19/1 268/20/1
f 269/17/1 270/18/1 271/19/1 272/20/1
f 273/17/1 274/18/1 275/19/1 276/20/1
f 277/17/1 278/18/1 279/19/1 280/20/1
f 281/17/1 282/18/1 283/19/1 284/20/1
f 285/17/1 286/18/1 287/19/1 288/20/1
f 289/17/1 290/18/1 291/19/1 292/20/1
f 293/17/1 294/18/1 295/19/1 296/20/1
f 297/17/1 298/18/1 299/19/1 300/20/1
f 301/17/1 302/18/1 303/19/1 304/20/1
f 305/17/1 306/18/1 307/19/1 308/20/1
f 309/17/1 310/18/1 311/19/1 312/20/1
f 313/17/1 314/18/1 315/19/1 316/20/1
f 317/21/1 318/22/1 319/23/1 320/24/1
f 321/25/1 322/26/1 323/27/1 324/28/1
f 325/29/1 326/30/1 327/31/1 328/32/1
f 329/29/1 330/30/1 331/31/1 332/32/1
f 333/29/1 334/30/1 335/31/1 336/32/1
f 337/29/1 338/30/1 339/31/1 340/32/1
f 341/29/1 342/30/1 343/31/1 344/32/1
f 345/29/1 346/30/1 347/31/1 348/32/1
f 349/29/1 350/30/1 351/31/1 352/32/1
f 353/29/1 354/30/1 355/31/1 356/32/1
f 357/29/1 358/30/1 359/31/1 360/32/1
f 361/29/1 362/30/1 363/31/1 364/32/1
f 365/29/1 366/30/1 367/31/1 368/32/1
f 369/29/1 370/30/1 371/31/1 372/32/1
f 373/29/1 374/30/1 375/31/1 376/32/1
f 377/29/1 378/30/1 379/31/1 380/32/1
f 381/33/1 382/34/1 383/35/1 384/36/1
f 385/11/1 386/12/1 387/9/1 388/10/1
f 389/7/1 390/8/1 391/5/1 392/6/1
f 393/7/1 394/8/1 395/5/1 396/6/1
f 397/7/1 398/8/1 399/5/1 400/6/1
f 401/7/1 402/8/1 403/5/1 404/6/1
f 405/7/1 406/8/1 407/5/1 408/6/1
f 409/7/1 410/8/1 411/5/1 412/6/1
f 413/7/1 414/8/1 415/5/1 416/6/1
f 417/7/1 418/8/1 419/5/1 420/6/1
f 421/7/1 422/8/1 423/5/1 424/6/1
f 425/7/1 426/8/1 427/5/1 428/6/1
f 429/7/1 430/8/1 431/5/1 432/6/1
f 433/7/1 434/8/1 435/5/1 436/6/1
f 437/7/1 438/8/1 439/5/1 440/6/1
f 441/7/1 442/8/1 443/5/1 444/6/1
f 445/3/1 446/4/1 447/1/1 448/2/1

