﻿# Tiled2Unity generated file. Do not modify by hand.
# Wavefront file for 'Central-Hall_mesh_0011.obj'

# Vertices (Count = 120)
v -43.73334 -40.53334 0
v -44.8 -40.53334 0
v -44.8 -39.46667 0
v -43.73334 -39.46667 0
v -44.8 -40.53334 0
v -45.86667 -40.53334 0
v -45.86667 -39.46667 0
v -44.8 -39.46667 0
v -45.86667 -40.53334 0
v -46.93333 -40.53334 0
v -46.93333 -39.46667 0
v -45.86667 -39.46667 0
v -46.93333 -40.53334 0
v -48 -40.53334 0
v -48 -39.46667 0
v -46.93333 -39.46667 0
v -48 -40.53334 0
v -49.06667 -40.53334 0
v -49.06667 -39.46667 0
v -48 -39.46667 0
v -49.06667 -40.53334 0
v -50.13334 -40.53334 0
v -50.13334 -39.46667 0
v -49.06667 -39.46667 0
v -50.13334 -40.53334 0
v -51.2 -40.53334 0
v -51.2 -39.46667 0
v -50.13334 -39.46667 0
v -51.2 -40.53334 0
v -52.26667 -40.53334 0
v -52.26667 -39.46667 0
v -51.2 -39.46667 0
v -52.26667 -40.53334 0
v -53.33334 -40.53334 0
v -53.33334 -39.46667 0
v -52.26667 -39.46667 0
v -53.33334 -40.53334 0
v -54.4 -40.53334 0
v -54.4 -39.46667 0
v -53.33334 -39.46667 0
v -54.4 -40.53334 0
v -55.46667 -40.53334 0
v -55.46667 -39.46667 0
v -54.4 -39.46667 0
v -55.46667 -40.53334 0
v -56.53334 -40.53334 0
v -56.53334 -39.46667 0
v -55.46667 -39.46667 0
v -56.53334 -40.53334 0
v -57.6 -40.53334 0
v -57.6 -39.46667 0
v -56.53334 -39.46667 0
v -57.6 -40.53334 0
v -58.66667 -40.53334 0
v -58.66667 -39.46667 0
v -57.6 -39.46667 0
v -58.66667 -40.53334 0
v -59.73334 -40.53334 0
v -59.73334 -39.46667 0
v -58.66667 -39.46667 0
v -59.73334 -40.53334 0
v -60.8 -40.53334 0
v -60.8 -39.46667 0
v -59.73334 -39.46667 0
v -60.8 -40.53334 0
v -61.86667 -40.53334 0
v -61.86667 -39.46667 0
v -60.8 -39.46667 0
v -61.86667 -40.53334 0
v -62.93334 -40.53334 0
v -62.93334 -39.46667 0
v -61.86667 -39.46667 0
v -62.93334 -40.53334 0
v -64 -40.53334 0
v -64 -39.46667 0
v -62.93334 -39.46667 0
v -64 -40.53334 0
v -65.06667 -40.53334 0
v -65.06667 -39.46667 0
v -64 -39.46667 0
v -65.06667 -40.53334 0
v -66.13334 -40.53334 0
v -66.13334 -39.46667 0
v -65.06667 -39.46667 0
v -66.13334 -40.53334 0
v -67.2 -40.53334 0
v -67.2 -39.46667 0
v -66.13334 -39.46667 0
v -67.2 -40.53334 0
v -68.26667 -40.53334 0
v -68.26667 -39.46667 0
v -67.2 -39.46667 0
v -68.26667 -40.53334 0
v -69.33334 -40.53334 0
v -69.33334 -39.46667 0
v -68.26667 -39.46667 0
v -69.33334 -40.53334 0
v -70.4 -40.53334 0
v -70.4 -39.46667 0
v -69.33334 -39.46667 0
v -70.4 -40.53334 0
v -71.46667 -40.53334 0
v -71.46667 -39.46667 0
v -70.4 -39.46667 0
v -71.46667 -40.53334 0
v -72.53334 -40.53334 0
v -72.53334 -39.46667 0
v -71.46667 -39.46667 0
v -72.53334 -40.53334 0
v -73.60001 -40.53334 0
v -73.60001 -39.46667 0
v -72.53334 -39.46667 0
v -73.60001 -40.53334 0
v -74.66667 -40.53334 0
v -74.66667 -39.46667 0
v -73.60001 -39.46667 0
v -74.66667 -40.53334 0
v -75.73334 -40.53334 0
v -75.73334 -39.46667 0
v -74.66667 -39.46667 0

# Texture cooridinates (Count = 4)
vt 0.6849173 0.4847909
vt 0.7014463 0.4847909
vt 0.7014463 0.5152091
vt 0.6849173 0.5152091

# Normal
vn 0 0 -1

# Mesh description
g Central-Hall_mesh_0011

# Faces
f 1/1/1 2/2/1 3/3/1 4/4/1
f 5/1/1 6/2/1 7/3/1 8/4/1
f 9/1/1 10/2/1 11/3/1 12/4/1
f 13/1/1 14/2/1 15/3/1 16/4/1
f 17/1/1 18/2/1 19/3/1 20/4/1
f 21/1/1 22/2/1 23/3/1 24/4/1
f 25/1/1 26/2/1 27/3/1 28/4/1
f 29/1/1 30/2/1 31/3/1 32/4/1
f 33/1/1 34/2/1 35/3/1 36/4/1
f 37/1/1 38/2/1 39/3/1 40/4/1
f 41/1/1 42/2/1 43/3/1 44/4/1
f 45/1/1 46/2/1 47/3/1 48/4/1
f 49/1/1 50/2/1 51/3/1 52/4/1
f 53/1/1 54/2/1 55/3/1 56/4/1
f 57/1/1 58/2/1 59/3/1 60/4/1
f 61/1/1 62/2/1 63/3/1 64/4/1
f 65/1/1 66/2/1 67/3/1 68/4/1
f 69/1/1 70/2/1 71/3/1 72/4/1
f 73/1/1 74/2/1 75/3/1 76/4/1
f 77/1/1 78/2/1 79/3/1 80/4/1
f 81/1/1 82/2/1 83/3/1 84/4/1
f 85/1/1 86/2/1 87/3/1 88/4/1
f 89/1/1 90/2/1 91/3/1 92/4/1
f 93/1/1 94/2/1 95/3/1 96/4/1
f 97/1/1 98/2/1 99/3/1 100/4/1
f 101/1/1 102/2/1 103/3/1 104/4/1
f 105/1/1 106/2/1 107/3/1 108/4/1
f 109/1/1 110/2/1 111/3/1 112/4/1
f 113/1/1 114/2/1 115/3/1 116/4/1
f 117/1/1 118/2/1 119/3/1 120/4/1

