﻿# Tiled2Unity generated file. Do not modify by hand.
# Wavefront file for 'Central-Hall_mesh_0014.obj'

# Vertices (Count = 60)
v -65.06667 -42.66667 0
v -66.13334 -42.66667 0
v -66.13334 -41.6 0
v -65.06667 -41.6 0
v -54.4 -43.73334 0
v -55.46667 -43.73334 0
v -55.46667 -42.66667 0
v -54.4 -42.66667 0
v -57.6 -43.73334 0
v -58.66667 -43.73334 0
v -58.66667 -42.66667 0
v -57.6 -42.66667 0
v -61.86667 -43.73334 0
v -62.93334 -43.73334 0
v -62.93334 -42.66667 0
v -61.86667 -42.66667 0
v -56.53334 -44.8 0
v -57.6 -44.8 0
v -57.6 -43.73334 0
v -56.53334 -43.73334 0
v -60.8 -44.8 0
v -61.86667 -44.8 0
v -61.86667 -43.73334 0
v -60.8 -43.73334 0
v -53.33334 -45.86667 0
v -54.4 -45.86667 0
v -54.4 -44.8 0
v -53.33334 -44.8 0
v -57.6 -45.86667 0
v -58.66667 -45.86667 0
v -58.66667 -44.8 0
v -57.6 -44.8 0
v -58.66667 -45.86667 0
v -59.73334 -45.86667 0
v -59.73334 -44.8 0
v -58.66667 -44.8 0
v -59.73334 -45.86667 0
v -60.8 -45.86667 0
v -60.8 -44.8 0
v -59.73334 -44.8 0
v -60.8 -45.86667 0
v -61.86667 -45.86667 0
v -61.86667 -44.8 0
v -60.8 -44.8 0
v -61.86667 -45.86667 0
v -62.93334 -45.86667 0
v -62.93334 -44.8 0
v -61.86667 -44.8 0
v -64 -45.86667 0
v -65.06667 -45.86667 0
v -65.06667 -44.8 0
v -64 -44.8 0
v -60.8 -46.93333 0
v -61.86667 -46.93333 0
v -61.86667 -45.86667 0
v -60.8 -45.86667 0
v -61.86667 -46.93333 0
v -62.93334 -46.93333 0
v -62.93334 -45.86667 0
v -61.86667 -45.86667 0

# Texture cooridinates (Count = 16)
vt 0.8780992 0.4847909
vt 0.8946281 0.4847909
vt 0.8946281 0.5152091
vt 0.8780992 0.5152091
vt 0.8429752 0.4847909
vt 0.8595041 0.4847909
vt 0.8595041 0.5152091
vt 0.8429752 0.5152091
vt 0.7200413 0.4847909
vt 0.7365702 0.4847909
vt 0.7365702 0.5152091
vt 0.7200413 0.5152091
vt 0.7727273 0.4847909
vt 0.7892562 0.4847909
vt 0.7892562 0.5152091
vt 0.7727273 0.5152091

# Normal
vn 0 0 -1

# Mesh description
g Central-Hall_mesh_0014

# Faces
f 1/1/1 2/2/1 3/3/1 4/4/1
f 5/5/1 6/6/1 7/7/1 8/8/1
f 9/9/1 10/10/1 11/11/1 12/12/1
f 13/13/1 14/14/1 15/15/1 16/16/1
f 17/9/1 18/10/1 19/11/1 20/12/1
f 21/9/1 22/10/1 23/11/1 24/12/1
f 25/5/1 26/6/1 27/7/1 28/8/1
f 29/9/1 30/10/1 31/11/1 32/12/1
f 33/1/1 34/2/1 35/3/1 36/4/1
f 37/9/1 38/10/1 39/11/1 40/12/1
f 41/9/1 42/10/1 43/11/1 44/12/1
f 45/9/1 46/10/1 47/11/1 48/12/1
f 49/9/1 50/10/1 51/11/1 52/12/1
f 53/9/1 54/10/1 55/11/1 56/12/1
f 57/1/1 58/2/1 59/3/1 60/4/1

