﻿# Tiled2Unity generated file. Do not modify by hand.
# Wavefront file for 'Central-Hall_mesh_0009.obj'

# Vertices (Count = 404)
v -56.53334 -60.8 0
v -57.6 -60.8 0
v -57.6 -59.73334 0
v -56.53334 -59.73334 0
v -57.6 -60.8 0
v -58.66667 -60.8 0
v -58.66667 -59.73334 0
v -57.6 -59.73334 0
v -58.66667 -60.8 0
v -59.73334 -60.8 0
v -59.73334 -59.73334 0
v -58.66667 -59.73334 0
v -59.73334 -60.8 0
v -60.8 -60.8 0
v -60.8 -59.73334 0
v -59.73334 -59.73334 0
v -60.8 -60.8 0
v -61.86667 -60.8 0
v -61.86667 -59.73334 0
v -60.8 -59.73334 0
v -42.66667 -61.86667 0
v -43.73334 -61.86667 0
v -43.73334 -60.8 0
v -42.66667 -60.8 0
v -43.73334 -61.86667 0
v -44.8 -61.86667 0
v -44.8 -60.8 0
v -43.73334 -60.8 0
v -44.8 -61.86667 0
v -45.86667 -61.86667 0
v -45.86667 -60.8 0
v -44.8 -60.8 0
v -45.86667 -61.86667 0
v -46.93333 -61.86667 0
v -46.93333 -60.8 0
v -45.86667 -60.8 0
v -46.93333 -61.86667 0
v -48 -61.86667 0
v -48 -60.8 0
v -46.93333 -60.8 0
v -48 -61.86667 0
v -49.06667 -61.86667 0
v -49.06667 -60.8 0
v -48 -60.8 0
v -49.06667 -61.86667 0
v -50.13334 -61.86667 0
v -50.13334 -60.8 0
v -49.06667 -60.8 0
v -50.13334 -61.86667 0
v -51.2 -61.86667 0
v -51.2 -60.8 0
v -50.13334 -60.8 0
v -51.2 -61.86667 0
v -52.26667 -61.86667 0
v -52.26667 -60.8 0
v -51.2 -60.8 0
v -52.26667 -61.86667 0
v -53.33334 -61.86667 0
v -53.33334 -60.8 0
v -52.26667 -60.8 0
v -53.33334 -61.86667 0
v -54.4 -61.86667 0
v -54.4 -60.8 0
v -53.33334 -60.8 0
v -54.4 -61.86667 0
v -55.46667 -61.86667 0
v -55.46667 -60.8 0
v -54.4 -60.8 0
v -55.46667 -61.86667 0
v -56.53334 -61.86667 0
v -56.53334 -60.8 0
v -55.46667 -60.8 0
v -56.53334 -61.86667 0
v -57.6 -61.86667 0
v -57.6 -60.8 0
v -56.53334 -60.8 0
v -57.6 -61.86667 0
v -58.66667 -61.86667 0
v -58.66667 -60.8 0
v -57.6 -60.8 0
v -58.66667 -61.86667 0
v -59.73334 -61.86667 0
v -59.73334 -60.8 0
v -58.66667 -60.8 0
v -59.73334 -61.86667 0
v -60.8 -61.86667 0
v -60.8 -60.8 0
v -59.73334 -60.8 0
v -60.8 -61.86667 0
v -61.86667 -61.86667 0
v -61.86667 -60.8 0
v -60.8 -60.8 0
v -61.86667 -61.86667 0
v -62.93334 -61.86667 0
v -62.93334 -60.8 0
v -61.86667 -60.8 0
v -62.93334 -61.86667 0
v -64 -61.86667 0
v -64 -60.8 0
v -62.93334 -60.8 0
v -64 -61.86667 0
v -65.06667 -61.86667 0
v -65.06667 -60.8 0
v -64 -60.8 0
v -65.06667 -61.86667 0
v -66.13334 -61.86667 0
v -66.13334 -60.8 0
v -65.06667 -60.8 0
v -66.13334 -61.86667 0
v -67.2 -61.86667 0
v -67.2 -60.8 0
v -66.13334 -60.8 0
v -67.2 -61.86667 0
v -68.26667 -61.86667 0
v -68.26667 -60.8 0
v -67.2 -60.8 0
v -68.26667 -61.86667 0
v -69.33334 -61.86667 0
v -69.33334 -60.8 0
v -68.26667 -60.8 0
v -69.33334 -61.86667 0
v -70.4 -61.86667 0
v -70.4 -60.8 0
v -69.33334 -60.8 0
v -70.4 -61.86667 0
v -71.46667 -61.86667 0
v -71.46667 -60.8 0
v -70.4 -60.8 0
v -71.46667 -61.86667 0
v -72.53334 -61.86667 0
v -72.53334 -60.8 0
v -71.46667 -60.8 0
v -72.53334 -61.86667 0
v -73.60001 -61.86667 0
v -73.60001 -60.8 0
v -72.53334 -60.8 0
v -73.60001 -61.86667 0
v -74.66667 -61.86667 0
v -74.66667 -60.8 0
v -73.60001 -60.8 0
v -74.66667 -61.86667 0
v -75.73334 -61.86667 0
v -75.73334 -60.8 0
v -74.66667 -60.8 0
v -75.73334 -61.86667 0
v -76.8 -61.86667 0
v -76.8 -60.8 0
v -75.73334 -60.8 0
v -42.66667 -62.93334 0
v -43.73334 -62.93334 0
v -43.73334 -61.86667 0
v -42.66667 -61.86667 0
v -43.73334 -62.93334 0
v -44.8 -62.93334 0
v -44.8 -61.86667 0
v -43.73334 -61.86667 0
v -44.8 -62.93334 0
v -45.86667 -62.93334 0
v -45.86667 -61.86667 0
v -44.8 -61.86667 0
v -45.86667 -62.93334 0
v -46.93333 -62.93334 0
v -46.93333 -61.86667 0
v -45.86667 -61.86667 0
v -46.93333 -62.93334 0
v -48 -62.93334 0
v -48 -61.86667 0
v -46.93333 -61.86667 0
v -48 -62.93334 0
v -49.06667 -62.93334 0
v -49.06667 -61.86667 0
v -48 -61.86667 0
v -49.06667 -62.93334 0
v -50.13334 -62.93334 0
v -50.13334 -61.86667 0
v -49.06667 -61.86667 0
v -50.13334 -62.93334 0
v -51.2 -62.93334 0
v -51.2 -61.86667 0
v -50.13334 -61.86667 0
v -51.2 -62.93334 0
v -52.26667 -62.93334 0
v -52.26667 -61.86667 0
v -51.2 -61.86667 0
v -52.26667 -62.93334 0
v -53.33334 -62.93334 0
v -53.33334 -61.86667 0
v -52.26667 -61.86667 0
v -53.33334 -62.93334 0
v -54.4 -62.93334 0
v -54.4 -61.86667 0
v -53.33334 -61.86667 0
v -54.4 -62.93334 0
v -55.46667 -62.93334 0
v -55.46667 -61.86667 0
v -54.4 -61.86667 0
v -55.46667 -62.93334 0
v -56.53334 -62.93334 0
v -56.53334 -61.86667 0
v -55.46667 -61.86667 0
v -56.53334 -62.93334 0
v -57.6 -62.93334 0
v -57.6 -61.86667 0
v -56.53334 -61.86667 0
v -57.6 -62.93334 0
v -58.66667 -62.93334 0
v -58.66667 -61.86667 0
v -57.6 -61.86667 0
v -58.66667 -62.93334 0
v -59.73334 -62.93334 0
v -59.73334 -61.86667 0
v -58.66667 -61.86667 0
v -59.73334 -62.93334 0
v -60.8 -62.93334 0
v -60.8 -61.86667 0
v -59.73334 -61.86667 0
v -60.8 -62.93334 0
v -61.86667 -62.93334 0
v -61.86667 -61.86667 0
v -60.8 -61.86667 0
v -61.86667 -62.93334 0
v -62.93334 -62.93334 0
v -62.93334 -61.86667 0
v -61.86667 -61.86667 0
v -62.93334 -62.93334 0
v -64 -62.93334 0
v -64 -61.86667 0
v -62.93334 -61.86667 0
v -64 -62.93334 0
v -65.06667 -62.93334 0
v -65.06667 -61.86667 0
v -64 -61.86667 0
v -65.06667 -62.93334 0
v -66.13334 -62.93334 0
v -66.13334 -61.86667 0
v -65.06667 -61.86667 0
v -66.13334 -62.93334 0
v -67.2 -62.93334 0
v -67.2 -61.86667 0
v -66.13334 -61.86667 0
v -67.2 -62.93334 0
v -68.26667 -62.93334 0
v -68.26667 -61.86667 0
v -67.2 -61.86667 0
v -68.26667 -62.93334 0
v -69.33334 -62.93334 0
v -69.33334 -61.86667 0
v -68.26667 -61.86667 0
v -69.33334 -62.93334 0
v -70.4 -62.93334 0
v -70.4 -61.86667 0
v -69.33334 -61.86667 0
v -70.4 -62.93334 0
v -71.46667 -62.93334 0
v -71.46667 -61.86667 0
v -70.4 -61.86667 0
v -71.46667 -62.93334 0
v -72.53334 -62.93334 0
v -72.53334 -61.86667 0
v -71.46667 -61.86667 0
v -72.53334 -62.93334 0
v -73.60001 -62.93334 0
v -73.60001 -61.86667 0
v -72.53334 -61.86667 0
v -73.60001 -62.93334 0
v -74.66667 -62.93334 0
v -74.66667 -61.86667 0
v -73.60001 -61.86667 0
v -74.66667 -62.93334 0
v -75.73334 -62.93334 0
v -75.73334 -61.86667 0
v -74.66667 -61.86667 0
v -75.73334 -62.93334 0
v -76.8 -62.93334 0
v -76.8 -61.86667 0
v -75.73334 -61.86667 0
v -42.66667 -64 0
v -43.73334 -64 0
v -43.73334 -62.93334 0
v -42.66667 -62.93334 0
v -43.73334 -64 0
v -44.8 -64 0
v -44.8 -62.93334 0
v -43.73334 -62.93334 0
v -44.8 -64 0
v -45.86667 -64 0
v -45.86667 -62.93334 0
v -44.8 -62.93334 0
v -45.86667 -64 0
v -46.93333 -64 0
v -46.93333 -62.93334 0
v -45.86667 -62.93334 0
v -46.93333 -64 0
v -48 -64 0
v -48 -62.93334 0
v -46.93333 -62.93334 0
v -48 -64 0
v -49.06667 -64 0
v -49.06667 -62.93334 0
v -48 -62.93334 0
v -49.06667 -64 0
v -50.13334 -64 0
v -50.13334 -62.93334 0
v -49.06667 -62.93334 0
v -50.13334 -64 0
v -51.2 -64 0
v -51.2 -62.93334 0
v -50.13334 -62.93334 0
v -51.2 -64 0
v -52.26667 -64 0
v -52.26667 -62.93334 0
v -51.2 -62.93334 0
v -52.26667 -64 0
v -53.33334 -64 0
v -53.33334 -62.93334 0
v -52.26667 -62.93334 0
v -53.33334 -64 0
v -54.4 -64 0
v -54.4 -62.93334 0
v -53.33334 -62.93334 0
v -54.4 -64 0
v -55.46667 -64 0
v -55.46667 -62.93334 0
v -54.4 -62.93334 0
v -55.46667 -64 0
v -56.53334 -64 0
v -56.53334 -62.93334 0
v -55.46667 -62.93334 0
v -56.53334 -64 0
v -57.6 -64 0
v -57.6 -62.93334 0
v -56.53334 -62.93334 0
v -57.6 -64 0
v -58.66667 -64 0
v -58.66667 -62.93334 0
v -57.6 -62.93334 0
v -58.66667 -64 0
v -59.73334 -64 0
v -59.73334 -62.93334 0
v -58.66667 -62.93334 0
v -59.73334 -64 0
v -60.8 -64 0
v -60.8 -62.93334 0
v -59.73334 -62.93334 0
v -60.8 -64 0
v -61.86667 -64 0
v -61.86667 -62.93334 0
v -60.8 -62.93334 0
v -61.86667 -64 0
v -62.93334 -64 0
v -62.93334 -62.93334 0
v -61.86667 -62.93334 0
v -62.93334 -64 0
v -64 -64 0
v -64 -62.93334 0
v -62.93334 -62.93334 0
v -64 -64 0
v -65.06667 -64 0
v -65.06667 -62.93334 0
v -64 -62.93334 0
v -65.06667 -64 0
v -66.13334 -64 0
v -66.13334 -62.93334 0
v -65.06667 -62.93334 0
v -66.13334 -64 0
v -67.2 -64 0
v -67.2 -62.93334 0
v -66.13334 -62.93334 0
v -67.2 -64 0
v -68.26667 -64 0
v -68.26667 -62.93334 0
v -67.2 -62.93334 0
v -68.26667 -64 0
v -69.33334 -64 0
v -69.33334 -62.93334 0
v -68.26667 -62.93334 0
v -69.33334 -64 0
v -70.4 -64 0
v -70.4 -62.93334 0
v -69.33334 -62.93334 0
v -70.4 -64 0
v -71.46667 -64 0
v -71.46667 -62.93334 0
v -70.4 -62.93334 0
v -71.46667 -64 0
v -72.53334 -64 0
v -72.53334 -62.93334 0
v -71.46667 -62.93334 0
v -72.53334 -64 0
v -73.60001 -64 0
v -73.60001 -62.93334 0
v -72.53334 -62.93334 0
v -73.60001 -64 0
v -74.66667 -64 0
v -74.66667 -62.93334 0
v -73.60001 -62.93334 0
v -74.66667 -64 0
v -75.73334 -64 0
v -75.73334 -62.93334 0
v -74.66667 -62.93334 0
v -75.73334 -64 0
v -76.8 -64 0
v -76.8 -62.93334 0
v -75.73334 -62.93334 0

# Texture cooridinates (Count = 44)
vt 0.5971074 0.5817491
vt 0.6136364 0.5817491
vt 0.6136364 0.6121673
vt 0.5971074 0.6121673
vt 0.6146694 0.5817491
vt 0.6311983 0.5817491
vt 0.6311983 0.6121673
vt 0.6146694 0.6121673
vt 0.6322314 0.5817491
vt 0.6487603 0.5817491
vt 0.6487603 0.6121673
vt 0.6322314 0.6121673
vt 0.6497934 0.5494297
vt 0.6663223 0.5494297
vt 0.6663223 0.5798479
vt 0.6497934 0.5798479
vt 0.6673554 0.4847909
vt 0.6838843 0.4847909
vt 0.6838843 0.5152091
vt 0.6673554 0.5152091
vt 0.6849173 0.4847909
vt 0.7014463 0.4847909
vt 0.7014463 0.5152091
vt 0.6849173 0.5152091
vt 0.7024794 0.4847909
vt 0.7190083 0.4847909
vt 0.7190083 0.5152091
vt 0.7024794 0.5152091
vt 0.6673554 0.5494297
vt 0.6838843 0.5494297
vt 0.6838843 0.5798479
vt 0.6673554 0.5798479
vt 0.6146694 0.4847909
vt 0.6311983 0.4847909
vt 0.6311983 0.5152091
vt 0.6146694 0.5152091
vt 0.5971074 0.4847909
vt 0.6136364 0.4847909
vt 0.6136364 0.5152091
vt 0.5971074 0.5152091
vt 0.6497934 0.4847909
vt 0.6663223 0.4847909
vt 0.6663223 0.5152091
vt 0.6497934 0.5152091

# Normal
vn 0 0 -1

# Mesh description
g Central-Hall_mesh_0009

# Faces
f 1/1/1 2/2/1 3/3/1 4/4/1
f 5/5/1 6/6/1 7/7/1 8/8/1
f 9/5/1 10/6/1 11/7/1 12/8/1
f 13/5/1 14/6/1 15/7/1 16/8/1
f 17/9/1 18/10/1 19/11/1 20/12/1
f 21/13/1 22/14/1 23/15/1 24/16/1
f 25/5/1 26/6/1 27/7/1 28/8/1
f 29/5/1 30/6/1 31/7/1 32/8/1
f 33/5/1 34/6/1 35/7/1 36/8/1
f 37/5/1 38/6/1 39/7/1 40/8/1
f 41/5/1 42/6/1 43/7/1 44/8/1
f 45/5/1 46/6/1 47/7/1 48/8/1
f 49/5/1 50/6/1 51/7/1 52/8/1
f 53/5/1 54/6/1 55/7/1 56/8/1
f 57/5/1 58/6/1 59/7/1 60/8/1
f 61/5/1 62/6/1 63/7/1 64/8/1
f 65/5/1 66/6/1 67/7/1 68/8/1
f 69/5/1 70/6/1 71/7/1 72/8/1
f 73/17/1 74/18/1 75/19/1 76/20/1
f 77/21/1 78/22/1 79/23/1 80/24/1
f 81/21/1 82/22/1 83/23/1 84/24/1
f 85/21/1 86/22/1 87/23/1 88/24/1
f 89/25/1 90/26/1 91/27/1 92/28/1
f 93/5/1 94/6/1 95/7/1 96/8/1
f 97/5/1 98/6/1 99/7/1 100/8/1
f 101/5/1 102/6/1 103/7/1 104/8/1
f 105/5/1 106/6/1 107/7/1 108/8/1
f 109/5/1 110/6/1 111/7/1 112/8/1
f 113/5/1 114/6/1 115/7/1 116/8/1
f 117/5/1 118/6/1 119/7/1 120/8/1
f 121/5/1 122/6/1 123/7/1 124/8/1
f 125/5/1 126/6/1 127/7/1 128/8/1
f 129/5/1 130/6/1 131/7/1 132/8/1
f 133/5/1 134/6/1 135/7/1 136/8/1
f 137/5/1 138/6/1 139/7/1 140/8/1
f 141/5/1 142/6/1 143/7/1 144/8/1
f 145/29/1 146/30/1 147/31/1 148/32/1
f 149/17/1 150/18/1 151/19/1 152/20/1
f 153/21/1 154/22/1 155/23/1 156/24/1
f 157/21/1 158/22/1 159/23/1 160/24/1
f 161/21/1 162/22/1 163/23/1 164/24/1
f 165/21/1 166/22/1 167/23/1 168/24/1
f 169/21/1 170/22/1 171/23/1 172/24/1
f 173/21/1 174/22/1 175/23/1 176/24/1
f 177/21/1 178/22/1 179/23/1 180/24/1
f 181/21/1 182/22/1 183/23/1 184/24/1
f 185/21/1 186/22/1 187/23/1 188/24/1
f 189/21/1 190/22/1 191/23/1 192/24/1
f 193/21/1 194/22/1 195/23/1 196/24/1
f 197/21/1 198/22/1 199/23/1 200/24/1
f 201/21/1 202/22/1 203/23/1 204/24/1
f 205/21/1 206/22/1 207/23/1 208/24/1
f 209/21/1 210/22/1 211/23/1 212/24/1
f 213/21/1 214/22/1 215/23/1 216/24/1
f 217/21/1 218/22/1 219/23/1 220/24/1
f 221/21/1 222/22/1 223/23/1 224/24/1
f 225/21/1 226/22/1 227/23/1 228/24/1
f 229/21/1 230/22/1 231/23/1 232/24/1
f 233/21/1 234/22/1 235/23/1 236/24/1
f 237/21/1 238/22/1 239/23/1 240/24/1
f 241/21/1 242/22/1 243/23/1 244/24/1
f 245/21/1 246/22/1 247/23/1 248/24/1
f 249/21/1 250/22/1 251/23/1 252/24/1
f 253/21/1 254/22/1 255/23/1 256/24/1
f 257/21/1 258/22/1 259/23/1 260/24/1
f 261/21/1 262/22/1 263/23/1 264/24/1
f 265/21/1 266/22/1 267/23/1 268/24/1
f 269/21/1 270/22/1 271/23/1 272/24/1
f 273/25/1 274/26/1 275/27/1 276/28/1
f 277/33/1 278/34/1 279/35/1 280/36/1
f 281/37/1 282/38/1 283/39/1 284/40/1
f 285/37/1 286/38/1 287/39/1 288/40/1
f 289/37/1 290/38/1 291/39/1 292/40/1
f 293/37/1 294/38/1 295/39/1 296/40/1
f 297/37/1 298/38/1 299/39/1 300/40/1
f 301/37/1 302/38/1 303/39/1 304/40/1
f 305/37/1 306/38/1 307/39/1 308/40/1
f 309/37/1 310/38/1 311/39/1 312/40/1
f 313/37/1 314/38/1 315/39/1 316/40/1
f 317/37/1 318/38/1 319/39/1 320/40/1
f 321/37/1 322/38/1 323/39/1 324/40/1
f 325/37/1 326/38/1 327/39/1 328/40/1
f 329/37/1 330/38/1 331/39/1 332/40/1
f 333/37/1 334/38/1 335/39/1 336/40/1
f 337/37/1 338/38/1 339/39/1 340/40/1
f 341/37/1 342/38/1 343/39/1 344/40/1
f 345/37/1 346/38/1 347/39/1 348/40/1
f 349/37/1 350/38/1 351/39/1 352/40/1
f 353/37/1 354/38/1 355/39/1 356/40/1
f 357/37/1 358/38/1 359/39/1 360/40/1
f 361/37/1 362/38/1 363/39/1 364/40/1
f 365/37/1 366/38/1 367/39/1 368/40/1
f 369/37/1 370/38/1 371/39/1 372/40/1
f 373/37/1 374/38/1 375/39/1 376/40/1
f 377/37/1 378/38/1 379/39/1 380/40/1
f 381/37/1 382/38/1 383/39/1 384/40/1
f 385/37/1 386/38/1 387/39/1 388/40/1
f 389/37/1 390/38/1 391/39/1 392/40/1
f 393/37/1 394/38/1 395/39/1 396/40/1
f 397/37/1 398/38/1 399/39/1 400/40/1
f 401/41/1 402/42/1 403/43/1 404/44/1

