﻿# Tiled2Unity generated file. Do not modify by hand.
# Wavefront file for 'Central-Hall_mesh_0013.obj'

# Vertices (Count = 184)
v -42.66667 -39.46667 0
v -43.73334 -39.46667 0
v -43.73334 -38.4 0
v -42.66667 -38.4 0
v -43.73334 -39.46667 0
v -44.8 -39.46667 0
v -44.8 -38.4 0
v -43.73334 -38.4 0
v -44.8 -39.46667 0
v -45.86667 -39.46667 0
v -45.86667 -38.4 0
v -44.8 -38.4 0
v -45.86667 -39.46667 0
v -46.93333 -39.46667 0
v -46.93333 -38.4 0
v -45.86667 -38.4 0
v -46.93333 -39.46667 0
v -48 -39.46667 0
v -48 -38.4 0
v -46.93333 -38.4 0
v -48 -39.46667 0
v -49.06667 -39.46667 0
v -49.06667 -38.4 0
v -48 -38.4 0
v -49.06667 -39.46667 0
v -50.13334 -39.46667 0
v -50.13334 -38.4 0
v -49.06667 -38.4 0
v -50.13334 -39.46667 0
v -51.2 -39.46667 0
v -51.2 -38.4 0
v -50.13334 -38.4 0
v -51.2 -39.46667 0
v -52.26667 -39.46667 0
v -52.26667 -38.4 0
v -51.2 -38.4 0
v -52.26667 -39.46667 0
v -53.33334 -39.46667 0
v -53.33334 -38.4 0
v -52.26667 -38.4 0
v -53.33334 -39.46667 0
v -54.4 -39.46667 0
v -54.4 -38.4 0
v -53.33334 -38.4 0
v -54.4 -39.46667 0
v -55.46667 -39.46667 0
v -55.46667 -38.4 0
v -54.4 -38.4 0
v -55.46667 -39.46667 0
v -56.53334 -39.46667 0
v -56.53334 -38.4 0
v -55.46667 -38.4 0
v -56.53334 -39.46667 0
v -57.6 -39.46667 0
v -57.6 -38.4 0
v -56.53334 -38.4 0
v -57.6 -39.46667 0
v -58.66667 -39.46667 0
v -58.66667 -38.4 0
v -57.6 -38.4 0
v -58.66667 -39.46667 0
v -59.73334 -39.46667 0
v -59.73334 -38.4 0
v -58.66667 -38.4 0
v -59.73334 -39.46667 0
v -60.8 -39.46667 0
v -60.8 -38.4 0
v -59.73334 -38.4 0
v -60.8 -39.46667 0
v -61.86667 -39.46667 0
v -61.86667 -38.4 0
v -60.8 -38.4 0
v -61.86667 -39.46667 0
v -62.93334 -39.46667 0
v -62.93334 -38.4 0
v -61.86667 -38.4 0
v -62.93334 -39.46667 0
v -64 -39.46667 0
v -64 -38.4 0
v -62.93334 -38.4 0
v -64 -39.46667 0
v -65.06667 -39.46667 0
v -65.06667 -38.4 0
v -64 -38.4 0
v -65.06667 -39.46667 0
v -66.13334 -39.46667 0
v -66.13334 -38.4 0
v -65.06667 -38.4 0
v -66.13334 -39.46667 0
v -67.2 -39.46667 0
v -67.2 -38.4 0
v -66.13334 -38.4 0
v -67.2 -39.46667 0
v -68.26667 -39.46667 0
v -68.26667 -38.4 0
v -67.2 -38.4 0
v -68.26667 -39.46667 0
v -69.33334 -39.46667 0
v -69.33334 -38.4 0
v -68.26667 -38.4 0
v -69.33334 -39.46667 0
v -70.4 -39.46667 0
v -70.4 -38.4 0
v -69.33334 -38.4 0
v -70.4 -39.46667 0
v -71.46667 -39.46667 0
v -71.46667 -38.4 0
v -70.4 -38.4 0
v -71.46667 -39.46667 0
v -72.53334 -39.46667 0
v -72.53334 -38.4 0
v -71.46667 -38.4 0
v -72.53334 -39.46667 0
v -73.60001 -39.46667 0
v -73.60001 -38.4 0
v -72.53334 -38.4 0
v -73.60001 -39.46667 0
v -74.66667 -39.46667 0
v -74.66667 -38.4 0
v -73.60001 -38.4 0
v -74.66667 -39.46667 0
v -75.73334 -39.46667 0
v -75.73334 -38.4 0
v -74.66667 -38.4 0
v -75.73334 -39.46667 0
v -76.8 -39.46667 0
v -76.8 -38.4 0
v -75.73334 -38.4 0
v -43.73334 -41.6 0
v -44.8 -41.6 0
v -44.8 -40.53334 0
v -43.73334 -40.53334 0
v -44.8 -41.6 0
v -45.86667 -41.6 0
v -45.86667 -40.53334 0
v -44.8 -40.53334 0
v -45.86667 -41.6 0
v -46.93333 -41.6 0
v -46.93333 -40.53334 0
v -45.86667 -40.53334 0
v -46.93333 -41.6 0
v -48 -41.6 0
v -48 -40.53334 0
v -46.93333 -40.53334 0
v -48 -41.6 0
v -49.06667 -41.6 0
v -49.06667 -40.53334 0
v -48 -40.53334 0
v -49.06667 -41.6 0
v -50.13334 -41.6 0
v -50.13334 -40.53334 0
v -49.06667 -40.53334 0
v -50.13334 -41.6 0
v -51.2 -41.6 0
v -51.2 -40.53334 0
v -50.13334 -40.53334 0
v -68.26667 -41.6 0
v -69.33334 -41.6 0
v -69.33334 -40.53334 0
v -68.26667 -40.53334 0
v -69.33334 -41.6 0
v -70.4 -41.6 0
v -70.4 -40.53334 0
v -69.33334 -40.53334 0
v -70.4 -41.6 0
v -71.46667 -41.6 0
v -71.46667 -40.53334 0
v -70.4 -40.53334 0
v -71.46667 -41.6 0
v -72.53334 -41.6 0
v -72.53334 -40.53334 0
v -71.46667 -40.53334 0
v -72.53334 -41.6 0
v -73.60001 -41.6 0
v -73.60001 -40.53334 0
v -72.53334 -40.53334 0
v -73.60001 -41.6 0
v -74.66667 -41.6 0
v -74.66667 -40.53334 0
v -73.60001 -40.53334 0
v -74.66667 -41.6 0
v -75.73334 -41.6 0
v -75.73334 -40.53334 0
v -74.66667 -40.53334 0

# Texture cooridinates (Count = 16)
vt 0.6497934 0.5817491
vt 0.6663223 0.5817491
vt 0.6663223 0.6121673
vt 0.6497934 0.6121673
vt 0.6146694 0.5817491
vt 0.6311983 0.5817491
vt 0.6311983 0.6121673
vt 0.6146694 0.6121673
vt 0.6673554 0.5817491
vt 0.6838843 0.5817491
vt 0.6838843 0.6121673
vt 0.6673554 0.6121673
vt 0.5971074 0.4847909
vt 0.6136364 0.4847909
vt 0.6136364 0.5152091
vt 0.5971074 0.5152091

# Normal
vn 0 0 -1

# Mesh description
g Central-Hall_mesh_0013

# Faces
f 1/1/1 2/2/1 3/3/1 4/4/1
f 5/5/1 6/6/1 7/7/1 8/8/1
f 9/5/1 10/6/1 11/7/1 12/8/1
f 13/5/1 14/6/1 15/7/1 16/8/1
f 17/5/1 18/6/1 19/7/1 20/8/1
f 21/5/1 22/6/1 23/7/1 24/8/1
f 25/5/1 26/6/1 27/7/1 28/8/1
f 29/5/1 30/6/1 31/7/1 32/8/1
f 33/5/1 34/6/1 35/7/1 36/8/1
f 37/5/1 38/6/1 39/7/1 40/8/1
f 41/5/1 42/6/1 43/7/1 44/8/1
f 45/5/1 46/6/1 47/7/1 48/8/1
f 49/5/1 50/6/1 51/7/1 52/8/1
f 53/5/1 54/6/1 55/7/1 56/8/1
f 57/5/1 58/6/1 59/7/1 60/8/1
f 61/5/1 62/6/1 63/7/1 64/8/1
f 65/5/1 66/6/1 67/7/1 68/8/1
f 69/5/1 70/6/1 71/7/1 72/8/1
f 73/5/1 74/6/1 75/7/1 76/8/1
f 77/5/1 78/6/1 79/7/1 80/8/1
f 81/5/1 82/6/1 83/7/1 84/8/1
f 85/5/1 86/6/1 87/7/1 88/8/1
f 89/5/1 90/6/1 91/7/1 92/8/1
f 93/5/1 94/6/1 95/7/1 96/8/1
f 97/5/1 98/6/1 99/7/1 100/8/1
f 101/5/1 102/6/1 103/7/1 104/8/1
f 105/5/1 106/6/1 107/7/1 108/8/1
f 109/5/1 110/6/1 111/7/1 112/8/1
f 113/5/1 114/6/1 115/7/1 116/8/1
f 117/5/1 118/6/1 119/7/1 120/8/1
f 121/5/1 122/6/1 123/7/1 124/8/1
f 125/9/1 126/10/1 127/11/1 128/12/1
f 129/13/1 130/14/1 131/15/1 132/16/1
f 133/13/1 134/14/1 135/15/1 136/16/1
f 137/13/1 138/14/1 139/15/1 140/16/1
f 141/13/1 142/14/1 143/15/1 144/16/1
f 145/13/1 146/14/1 147/15/1 148/16/1
f 149/13/1 150/14/1 151/15/1 152/16/1
f 153/13/1 154/14/1 155/15/1 156/16/1
f 157/13/1 158/14/1 159/15/1 160/16/1
f 161/13/1 162/14/1 163/15/1 164/16/1
f 165/13/1 166/14/1 167/15/1 168/16/1
f 169/13/1 170/14/1 171/15/1 172/16/1
f 173/13/1 174/14/1 175/15/1 176/16/1
f 177/13/1 178/14/1 179/15/1 180/16/1
f 181/13/1 182/14/1 183/15/1 184/16/1

