﻿# Tiled2Unity generated file. Do not modify by hand.
# Wavefront file for 'Central-Hall_mesh_0002.obj'

# Vertices (Count = 1108)
v -43.73334 -42.66667 0
v -44.8 -42.66667 0
v -44.8 -41.6 0
v -43.73334 -41.6 0
v -44.8 -42.66667 0
v -45.86667 -42.66667 0
v -45.86667 -41.6 0
v -44.8 -41.6 0
v -45.86667 -42.66667 0
v -46.93333 -42.66667 0
v -46.93333 -41.6 0
v -45.86667 -41.6 0
v -46.93333 -42.66667 0
v -48 -42.66667 0
v -48 -41.6 0
v -46.93333 -41.6 0
v -48 -42.66667 0
v -49.06667 -42.66667 0
v -49.06667 -41.6 0
v -48 -41.6 0
v -51.2 -42.66667 0
v -52.26667 -42.66667 0
v -52.26667 -41.6 0
v -51.2 -41.6 0
v -67.2 -42.66667 0
v -68.26667 -42.66667 0
v -68.26667 -41.6 0
v -67.2 -41.6 0
v -70.4 -42.66667 0
v -71.46667 -42.66667 0
v -71.46667 -41.6 0
v -70.4 -41.6 0
v -71.46667 -42.66667 0
v -72.53334 -42.66667 0
v -72.53334 -41.6 0
v -71.46667 -41.6 0
v -72.53334 -42.66667 0
v -73.60001 -42.66667 0
v -73.60001 -41.6 0
v -72.53334 -41.6 0
v -73.60001 -42.66667 0
v -74.66667 -42.66667 0
v -74.66667 -41.6 0
v -73.60001 -41.6 0
v -74.66667 -42.66667 0
v -75.73334 -42.66667 0
v -75.73334 -41.6 0
v -74.66667 -41.6 0
v -43.73334 -43.73334 0
v -44.8 -43.73334 0
v -44.8 -42.66667 0
v -43.73334 -42.66667 0
v -44.8 -43.73334 0
v -45.86667 -43.73334 0
v -45.86667 -42.66667 0
v -44.8 -42.66667 0
v -45.86667 -43.73334 0
v -46.93333 -43.73334 0
v -46.93333 -42.66667 0
v -45.86667 -42.66667 0
v -46.93333 -43.73334 0
v -48 -43.73334 0
v -48 -42.66667 0
v -46.93333 -42.66667 0
v -48 -43.73334 0
v -49.06667 -43.73334 0
v -49.06667 -42.66667 0
v -48 -42.66667 0
v -51.2 -43.73334 0
v -52.26667 -43.73334 0
v -52.26667 -42.66667 0
v -51.2 -42.66667 0
v -67.2 -43.73334 0
v -68.26667 -43.73334 0
v -68.26667 -42.66667 0
v -67.2 -42.66667 0
v -70.4 -43.73334 0
v -71.46667 -43.73334 0
v -71.46667 -42.66667 0
v -70.4 -42.66667 0
v -71.46667 -43.73334 0
v -72.53334 -43.73334 0
v -72.53334 -42.66667 0
v -71.46667 -42.66667 0
v -72.53334 -43.73334 0
v -73.60001 -43.73334 0
v -73.60001 -42.66667 0
v -72.53334 -42.66667 0
v -73.60001 -43.73334 0
v -74.66667 -43.73334 0
v -74.66667 -42.66667 0
v -73.60001 -42.66667 0
v -74.66667 -43.73334 0
v -75.73334 -43.73334 0
v -75.73334 -42.66667 0
v -74.66667 -42.66667 0
v -43.73334 -44.8 0
v -44.8 -44.8 0
v -44.8 -43.73334 0
v -43.73334 -43.73334 0
v -44.8 -44.8 0
v -45.86667 -44.8 0
v -45.86667 -43.73334 0
v -44.8 -43.73334 0
v -45.86667 -44.8 0
v -46.93333 -44.8 0
v -46.93333 -43.73334 0
v -45.86667 -43.73334 0
v -46.93333 -44.8 0
v -48 -44.8 0
v -48 -43.73334 0
v -46.93333 -43.73334 0
v -48 -44.8 0
v -49.06667 -44.8 0
v -49.06667 -43.73334 0
v -48 -43.73334 0
v -70.4 -44.8 0
v -71.46667 -44.8 0
v -71.46667 -43.73334 0
v -70.4 -43.73334 0
v -71.46667 -44.8 0
v -72.53334 -44.8 0
v -72.53334 -43.73334 0
v -71.46667 -43.73334 0
v -72.53334 -44.8 0
v -73.60001 -44.8 0
v -73.60001 -43.73334 0
v -72.53334 -43.73334 0
v -73.60001 -44.8 0
v -74.66667 -44.8 0
v -74.66667 -43.73334 0
v -73.60001 -43.73334 0
v -74.66667 -44.8 0
v -75.73334 -44.8 0
v -75.73334 -43.73334 0
v -74.66667 -43.73334 0
v -43.73334 -45.86667 0
v -44.8 -45.86667 0
v -44.8 -44.8 0
v -43.73334 -44.8 0
v -44.8 -45.86667 0
v -45.86667 -45.86667 0
v -45.86667 -44.8 0
v -44.8 -44.8 0
v -45.86667 -45.86667 0
v -46.93333 -45.86667 0
v -46.93333 -44.8 0
v -45.86667 -44.8 0
v -46.93333 -45.86667 0
v -48 -45.86667 0
v -48 -44.8 0
v -46.93333 -44.8 0
v -48 -45.86667 0
v -49.06667 -45.86667 0
v -49.06667 -44.8 0
v -48 -44.8 0
v -51.2 -45.86667 0
v -52.26667 -45.86667 0
v -52.26667 -44.8 0
v -51.2 -44.8 0
v -67.2 -45.86667 0
v -68.26667 -45.86667 0
v -68.26667 -44.8 0
v -67.2 -44.8 0
v -70.4 -45.86667 0
v -71.46667 -45.86667 0
v -71.46667 -44.8 0
v -70.4 -44.8 0
v -71.46667 -45.86667 0
v -72.53334 -45.86667 0
v -72.53334 -44.8 0
v -71.46667 -44.8 0
v -72.53334 -45.86667 0
v -73.60001 -45.86667 0
v -73.60001 -44.8 0
v -72.53334 -44.8 0
v -73.60001 -45.86667 0
v -74.66667 -45.86667 0
v -74.66667 -44.8 0
v -73.60001 -44.8 0
v -74.66667 -45.86667 0
v -75.73334 -45.86667 0
v -75.73334 -44.8 0
v -74.66667 -44.8 0
v -43.73334 -46.93333 0
v -44.8 -46.93333 0
v -44.8 -45.86667 0
v -43.73334 -45.86667 0
v -44.8 -46.93333 0
v -45.86667 -46.93333 0
v -45.86667 -45.86667 0
v -44.8 -45.86667 0
v -45.86667 -46.93333 0
v -46.93333 -46.93333 0
v -46.93333 -45.86667 0
v -45.86667 -45.86667 0
v -46.93333 -46.93333 0
v -48 -46.93333 0
v -48 -45.86667 0
v -46.93333 -45.86667 0
v -48 -46.93333 0
v -49.06667 -46.93333 0
v -49.06667 -45.86667 0
v -48 -45.86667 0
v -70.4 -46.93333 0
v -71.46667 -46.93333 0
v -71.46667 -45.86667 0
v -70.4 -45.86667 0
v -71.46667 -46.93333 0
v -72.53334 -46.93333 0
v -72.53334 -45.86667 0
v -71.46667 -45.86667 0
v -72.53334 -46.93333 0
v -73.60001 -46.93333 0
v -73.60001 -45.86667 0
v -72.53334 -45.86667 0
v -73.60001 -46.93333 0
v -74.66667 -46.93333 0
v -74.66667 -45.86667 0
v -73.60001 -45.86667 0
v -74.66667 -46.93333 0
v -75.73334 -46.93333 0
v -75.73334 -45.86667 0
v -74.66667 -45.86667 0
v -43.73334 -48 0
v -44.8 -48 0
v -44.8 -46.93333 0
v -43.73334 -46.93333 0
v -44.8 -48 0
v -45.86667 -48 0
v -45.86667 -46.93333 0
v -44.8 -46.93333 0
v -45.86667 -48 0
v -46.93333 -48 0
v -46.93333 -46.93333 0
v -45.86667 -46.93333 0
v -46.93333 -48 0
v -48 -48 0
v -48 -46.93333 0
v -46.93333 -46.93333 0
v -48 -48 0
v -49.06667 -48 0
v -49.06667 -46.93333 0
v -48 -46.93333 0
v -70.4 -48 0
v -71.46667 -48 0
v -71.46667 -46.93333 0
v -70.4 -46.93333 0
v -71.46667 -48 0
v -72.53334 -48 0
v -72.53334 -46.93333 0
v -71.46667 -46.93333 0
v -72.53334 -48 0
v -73.60001 -48 0
v -73.60001 -46.93333 0
v -72.53334 -46.93333 0
v -73.60001 -48 0
v -74.66667 -48 0
v -74.66667 -46.93333 0
v -73.60001 -46.93333 0
v -74.66667 -48 0
v -75.73334 -48 0
v -75.73334 -46.93333 0
v -74.66667 -46.93333 0
v -43.73334 -49.06667 0
v -44.8 -49.06667 0
v -44.8 -48 0
v -43.73334 -48 0
v -44.8 -49.06667 0
v -45.86667 -49.06667 0
v -45.86667 -48 0
v -44.8 -48 0
v -45.86667 -49.06667 0
v -46.93333 -49.06667 0
v -46.93333 -48 0
v -45.86667 -48 0
v -46.93333 -49.06667 0
v -48 -49.06667 0
v -48 -48 0
v -46.93333 -48 0
v -48 -49.06667 0
v -49.06667 -49.06667 0
v -49.06667 -48 0
v -48 -48 0
v -70.4 -49.06667 0
v -71.46667 -49.06667 0
v -71.46667 -48 0
v -70.4 -48 0
v -71.46667 -49.06667 0
v -72.53334 -49.06667 0
v -72.53334 -48 0
v -71.46667 -48 0
v -72.53334 -49.06667 0
v -73.60001 -49.06667 0
v -73.60001 -48 0
v -72.53334 -48 0
v -73.60001 -49.06667 0
v -74.66667 -49.06667 0
v -74.66667 -48 0
v -73.60001 -48 0
v -74.66667 -49.06667 0
v -75.73334 -49.06667 0
v -75.73334 -48 0
v -74.66667 -48 0
v -43.73334 -50.13334 0
v -44.8 -50.13334 0
v -44.8 -49.06667 0
v -43.73334 -49.06667 0
v -44.8 -50.13334 0
v -45.86667 -50.13334 0
v -45.86667 -49.06667 0
v -44.8 -49.06667 0
v -45.86667 -50.13334 0
v -46.93333 -50.13334 0
v -46.93333 -49.06667 0
v -45.86667 -49.06667 0
v -46.93333 -50.13334 0
v -48 -50.13334 0
v -48 -49.06667 0
v -46.93333 -49.06667 0
v -48 -50.13334 0
v -49.06667 -50.13334 0
v -49.06667 -49.06667 0
v -48 -49.06667 0
v -70.4 -50.13334 0
v -71.46667 -50.13334 0
v -71.46667 -49.06667 0
v -70.4 -49.06667 0
v -71.46667 -50.13334 0
v -72.53334 -50.13334 0
v -72.53334 -49.06667 0
v -71.46667 -49.06667 0
v -72.53334 -50.13334 0
v -73.60001 -50.13334 0
v -73.60001 -49.06667 0
v -72.53334 -49.06667 0
v -73.60001 -50.13334 0
v -74.66667 -50.13334 0
v -74.66667 -49.06667 0
v -73.60001 -49.06667 0
v -74.66667 -50.13334 0
v -75.73334 -50.13334 0
v -75.73334 -49.06667 0
v -74.66667 -49.06667 0
v -43.73334 -53.33334 0
v -44.8 -53.33334 0
v -44.8 -52.26667 0
v -43.73334 -52.26667 0
v -44.8 -53.33334 0
v -45.86667 -53.33334 0
v -45.86667 -52.26667 0
v -44.8 -52.26667 0
v -45.86667 -53.33334 0
v -46.93333 -53.33334 0
v -46.93333 -52.26667 0
v -45.86667 -52.26667 0
v -46.93333 -53.33334 0
v -48 -53.33334 0
v -48 -52.26667 0
v -46.93333 -52.26667 0
v -48 -53.33334 0
v -49.06667 -53.33334 0
v -49.06667 -52.26667 0
v -48 -52.26667 0
v -70.4 -53.33334 0
v -71.46667 -53.33334 0
v -71.46667 -52.26667 0
v -70.4 -52.26667 0
v -71.46667 -53.33334 0
v -72.53334 -53.33334 0
v -72.53334 -52.26667 0
v -71.46667 -52.26667 0
v -72.53334 -53.33334 0
v -73.60001 -53.33334 0
v -73.60001 -52.26667 0
v -72.53334 -52.26667 0
v -73.60001 -53.33334 0
v -74.66667 -53.33334 0
v -74.66667 -52.26667 0
v -73.60001 -52.26667 0
v -74.66667 -53.33334 0
v -75.73334 -53.33334 0
v -75.73334 -52.26667 0
v -74.66667 -52.26667 0
v -43.73334 -54.4 0
v -44.8 -54.4 0
v -44.8 -53.33334 0
v -43.73334 -53.33334 0
v -44.8 -54.4 0
v -45.86667 -54.4 0
v -45.86667 -53.33334 0
v -44.8 -53.33334 0
v -45.86667 -54.4 0
v -46.93333 -54.4 0
v -46.93333 -53.33334 0
v -45.86667 -53.33334 0
v -46.93333 -54.4 0
v -48 -54.4 0
v -48 -53.33334 0
v -46.93333 -53.33334 0
v -48 -54.4 0
v -49.06667 -54.4 0
v -49.06667 -53.33334 0
v -48 -53.33334 0
v -70.4 -54.4 0
v -71.46667 -54.4 0
v -71.46667 -53.33334 0
v -70.4 -53.33334 0
v -71.46667 -54.4 0
v -72.53334 -54.4 0
v -72.53334 -53.33334 0
v -71.46667 -53.33334 0
v -72.53334 -54.4 0
v -73.60001 -54.4 0
v -73.60001 -53.33334 0
v -72.53334 -53.33334 0
v -73.60001 -54.4 0
v -74.66667 -54.4 0
v -74.66667 -53.33334 0
v -73.60001 -53.33334 0
v -74.66667 -54.4 0
v -75.73334 -54.4 0
v -75.73334 -53.33334 0
v -74.66667 -53.33334 0
v -43.73334 -55.46667 0
v -44.8 -55.46667 0
v -44.8 -54.4 0
v -43.73334 -54.4 0
v -44.8 -55.46667 0
v -45.86667 -55.46667 0
v -45.86667 -54.4 0
v -44.8 -54.4 0
v -45.86667 -55.46667 0
v -46.93333 -55.46667 0
v -46.93333 -54.4 0
v -45.86667 -54.4 0
v -46.93333 -55.46667 0
v -48 -55.46667 0
v -48 -54.4 0
v -46.93333 -54.4 0
v -48 -55.46667 0
v -49.06667 -55.46667 0
v -49.06667 -54.4 0
v -48 -54.4 0
v -70.4 -55.46667 0
v -71.46667 -55.46667 0
v -71.46667 -54.4 0
v -70.4 -54.4 0
v -71.46667 -55.46667 0
v -72.53334 -55.46667 0
v -72.53334 -54.4 0
v -71.46667 -54.4 0
v -72.53334 -55.46667 0
v -73.60001 -55.46667 0
v -73.60001 -54.4 0
v -72.53334 -54.4 0
v -73.60001 -55.46667 0
v -74.66667 -55.46667 0
v -74.66667 -54.4 0
v -73.60001 -54.4 0
v -74.66667 -55.46667 0
v -75.73334 -55.46667 0
v -75.73334 -54.4 0
v -74.66667 -54.4 0
v -43.73334 -56.53334 0
v -44.8 -56.53334 0
v -44.8 -55.46667 0
v -43.73334 -55.46667 0
v -44.8 -56.53334 0
v -45.86667 -56.53334 0
v -45.86667 -55.46667 0
v -44.8 -55.46667 0
v -45.86667 -56.53334 0
v -46.93333 -56.53334 0
v -46.93333 -55.46667 0
v -45.86667 -55.46667 0
v -46.93333 -56.53334 0
v -48 -56.53334 0
v -48 -55.46667 0
v -46.93333 -55.46667 0
v -48 -56.53334 0
v -49.06667 -56.53334 0
v -49.06667 -55.46667 0
v -48 -55.46667 0
v -70.4 -56.53334 0
v -71.46667 -56.53334 0
v -71.46667 -55.46667 0
v -70.4 -55.46667 0
v -71.46667 -56.53334 0
v -72.53334 -56.53334 0
v -72.53334 -55.46667 0
v -71.46667 -55.46667 0
v -72.53334 -56.53334 0
v -73.60001 -56.53334 0
v -73.60001 -55.46667 0
v -72.53334 -55.46667 0
v -73.60001 -56.53334 0
v -74.66667 -56.53334 0
v -74.66667 -55.46667 0
v -73.60001 -55.46667 0
v -74.66667 -56.53334 0
v -75.73334 -56.53334 0
v -75.73334 -55.46667 0
v -74.66667 -55.46667 0
v -43.73334 -57.6 0
v -44.8 -57.6 0
v -44.8 -56.53334 0
v -43.73334 -56.53334 0
v -44.8 -57.6 0
v -45.86667 -57.6 0
v -45.86667 -56.53334 0
v -44.8 -56.53334 0
v -45.86667 -57.6 0
v -46.93333 -57.6 0
v -46.93333 -56.53334 0
v -45.86667 -56.53334 0
v -46.93333 -57.6 0
v -48 -57.6 0
v -48 -56.53334 0
v -46.93333 -56.53334 0
v -48 -57.6 0
v -49.06667 -57.6 0
v -49.06667 -56.53334 0
v -48 -56.53334 0
v -70.4 -57.6 0
v -71.46667 -57.6 0
v -71.46667 -56.53334 0
v -70.4 -56.53334 0
v -71.46667 -57.6 0
v -72.53334 -57.6 0
v -72.53334 -56.53334 0
v -71.46667 -56.53334 0
v -72.53334 -57.6 0
v -73.60001 -57.6 0
v -73.60001 -56.53334 0
v -72.53334 -56.53334 0
v -73.60001 -57.6 0
v -74.66667 -57.6 0
v -74.66667 -56.53334 0
v -73.60001 -56.53334 0
v -74.66667 -57.6 0
v -75.73334 -57.6 0
v -75.73334 -56.53334 0
v -74.66667 -56.53334 0
v -43.73334 -58.66667 0
v -44.8 -58.66667 0
v -44.8 -57.6 0
v -43.73334 -57.6 0
v -44.8 -58.66667 0
v -45.86667 -58.66667 0
v -45.86667 -57.6 0
v -44.8 -57.6 0
v -45.86667 -58.66667 0
v -46.93333 -58.66667 0
v -46.93333 -57.6 0
v -45.86667 -57.6 0
v -46.93333 -58.66667 0
v -48 -58.66667 0
v -48 -57.6 0
v -46.93333 -57.6 0
v -48 -58.66667 0
v -49.06667 -58.66667 0
v -49.06667 -57.6 0
v -48 -57.6 0
v -49.06667 -58.66667 0
v -50.13334 -58.66667 0
v -50.13334 -57.6 0
v -49.06667 -57.6 0
v -52.26667 -58.66667 0
v -53.33334 -58.66667 0
v -53.33334 -57.6 0
v -52.26667 -57.6 0
v -53.33334 -58.66667 0
v -54.4 -58.66667 0
v -54.4 -57.6 0
v -53.33334 -57.6 0
v -54.4 -58.66667 0
v -55.46667 -58.66667 0
v -55.46667 -57.6 0
v -54.4 -57.6 0
v -55.46667 -58.66667 0
v -56.53334 -58.66667 0
v -56.53334 -57.6 0
v -55.46667 -57.6 0
v -56.53334 -58.66667 0
v -57.6 -58.66667 0
v -57.6 -57.6 0
v -56.53334 -57.6 0
v -57.6 -58.66667 0
v -58.66667 -58.66667 0
v -58.66667 -57.6 0
v -57.6 -57.6 0
v -58.66667 -58.66667 0
v -59.73334 -58.66667 0
v -59.73334 -57.6 0
v -58.66667 -57.6 0
v -59.73334 -58.66667 0
v -60.8 -58.66667 0
v -60.8 -57.6 0
v -59.73334 -57.6 0
v -60.8 -58.66667 0
v -61.86667 -58.66667 0
v -61.86667 -57.6 0
v -60.8 -57.6 0
v -61.86667 -58.66667 0
v -62.93334 -58.66667 0
v -62.93334 -57.6 0
v -61.86667 -57.6 0
v -62.93334 -58.66667 0
v -64 -58.66667 0
v -64 -57.6 0
v -62.93334 -57.6 0
v -64 -58.66667 0
v -65.06667 -58.66667 0
v -65.06667 -57.6 0
v -64 -57.6 0
v -65.06667 -58.66667 0
v -66.13334 -58.66667 0
v -66.13334 -57.6 0
v -65.06667 -57.6 0
v -66.13334 -58.66667 0
v -67.2 -58.66667 0
v -67.2 -57.6 0
v -66.13334 -57.6 0
v -69.33334 -58.66667 0
v -70.4 -58.66667 0
v -70.4 -57.6 0
v -69.33334 -57.6 0
v -70.4 -58.66667 0
v -71.46667 -58.66667 0
v -71.46667 -57.6 0
v -70.4 -57.6 0
v -71.46667 -58.66667 0
v -72.53334 -58.66667 0
v -72.53334 -57.6 0
v -71.46667 -57.6 0
v -72.53334 -58.66667 0
v -73.60001 -58.66667 0
v -73.60001 -57.6 0
v -72.53334 -57.6 0
v -73.60001 -58.66667 0
v -74.66667 -58.66667 0
v -74.66667 -57.6 0
v -73.60001 -57.6 0
v -74.66667 -58.66667 0
v -75.73334 -58.66667 0
v -75.73334 -57.6 0
v -74.66667 -57.6 0
v -43.73334 -59.73334 0
v -44.8 -59.73334 0
v -44.8 -58.66667 0
v -43.73334 -58.66667 0
v -44.8 -59.73334 0
v -45.86667 -59.73334 0
v -45.86667 -58.66667 0
v -44.8 -58.66667 0
v -45.86667 -59.73334 0
v -46.93333 -59.73334 0
v -46.93333 -58.66667 0
v -45.86667 -58.66667 0
v -46.93333 -59.73334 0
v -48 -59.73334 0
v -48 -58.66667 0
v -46.93333 -58.66667 0
v -48 -59.73334 0
v -49.06667 -59.73334 0
v -49.06667 -58.66667 0
v -48 -58.66667 0
v -49.06667 -59.73334 0
v -50.13334 -59.73334 0
v -50.13334 -58.66667 0
v -49.06667 -58.66667 0
v -52.26667 -59.73334 0
v -53.33334 -59.73334 0
v -53.33334 -58.66667 0
v -52.26667 -58.66667 0
v -53.33334 -59.73334 0
v -54.4 -59.73334 0
v -54.4 -58.66667 0
v -53.33334 -58.66667 0
v -54.4 -59.73334 0
v -55.46667 -59.73334 0
v -55.46667 -58.66667 0
v -54.4 -58.66667 0
v -55.46667 -59.73334 0
v -56.53334 -59.73334 0
v -56.53334 -58.66667 0
v -55.46667 -58.66667 0
v -56.53334 -59.73334 0
v -57.6 -59.73334 0
v -57.6 -58.66667 0
v -56.53334 -58.66667 0
v -57.6 -59.73334 0
v -58.66667 -59.73334 0
v -58.66667 -58.66667 0
v -57.6 -58.66667 0
v -58.66667 -59.73334 0
v -59.73334 -59.73334 0
v -59.73334 -58.66667 0
v -58.66667 -58.66667 0
v -59.73334 -59.73334 0
v -60.8 -59.73334 0
v -60.8 -58.66667 0
v -59.73334 -58.66667 0
v -60.8 -59.73334 0
v -61.86667 -59.73334 0
v -61.86667 -58.66667 0
v -60.8 -58.66667 0
v -61.86667 -59.73334 0
v -62.93334 -59.73334 0
v -62.93334 -58.66667 0
v -61.86667 -58.66667 0
v -62.93334 -59.73334 0
v -64 -59.73334 0
v -64 -58.66667 0
v -62.93334 -58.66667 0
v -64 -59.73334 0
v -65.06667 -59.73334 0
v -65.06667 -58.66667 0
v -64 -58.66667 0
v -65.06667 -59.73334 0
v -66.13334 -59.73334 0
v -66.13334 -58.66667 0
v -65.06667 -58.66667 0
v -66.13334 -59.73334 0
v -67.2 -59.73334 0
v -67.2 -58.66667 0
v -66.13334 -58.66667 0
v -69.33334 -59.73334 0
v -70.4 -59.73334 0
v -70.4 -58.66667 0
v -69.33334 -58.66667 0
v -70.4 -59.73334 0
v -71.46667 -59.73334 0
v -71.46667 -58.66667 0
v -70.4 -58.66667 0
v -71.46667 -59.73334 0
v -72.53334 -59.73334 0
v -72.53334 -58.66667 0
v -71.46667 -58.66667 0
v -72.53334 -59.73334 0
v -73.60001 -59.73334 0
v -73.60001 -58.66667 0
v -72.53334 -58.66667 0
v -73.60001 -59.73334 0
v -74.66667 -59.73334 0
v -74.66667 -58.66667 0
v -73.60001 -58.66667 0
v -74.66667 -59.73334 0
v -75.73334 -59.73334 0
v -75.73334 -58.66667 0
v -74.66667 -58.66667 0
v -43.73334 -60.8 0
v -44.8 -60.8 0
v -44.8 -59.73334 0
v -43.73334 -59.73334 0
v -44.8 -60.8 0
v -45.86667 -60.8 0
v -45.86667 -59.73334 0
v -44.8 -59.73334 0
v -45.86667 -60.8 0
v -46.93333 -60.8 0
v -46.93333 -59.73334 0
v -45.86667 -59.73334 0
v -46.93333 -60.8 0
v -48 -60.8 0
v -48 -59.73334 0
v -46.93333 -59.73334 0
v -48 -60.8 0
v -49.06667 -60.8 0
v -49.06667 -59.73334 0
v -48 -59.73334 0
v -49.06667 -60.8 0
v -50.13334 -60.8 0
v -50.13334 -59.73334 0
v -49.06667 -59.73334 0
v -50.13334 -60.8 0
v -51.2 -60.8 0
v -51.2 -59.73334 0
v -50.13334 -59.73334 0
v -51.2 -60.8 0
v -52.26667 -60.8 0
v -52.26667 -59.73334 0
v -51.2 -59.73334 0
v -52.26667 -60.8 0
v -53.33334 -60.8 0
v -53.33334 -59.73334 0
v -52.26667 -59.73334 0
v -53.33334 -60.8 0
v -54.4 -60.8 0
v -54.4 -59.73334 0
v -53.33334 -59.73334 0
v -54.4 -60.8 0
v -55.46667 -60.8 0
v -55.46667 -59.73334 0
v -54.4 -59.73334 0
v -55.46667 -60.8 0
v -56.53334 -60.8 0
v -56.53334 -59.73334 0
v -55.46667 -59.73334 0
v -56.53334 -60.8 0
v -57.6 -60.8 0
v -57.6 -59.73334 0
v -56.53334 -59.73334 0
v -57.6 -60.8 0
v -58.66667 -60.8 0
v -58.66667 -59.73334 0
v -57.6 -59.73334 0
v -58.66667 -60.8 0
v -59.73334 -60.8 0
v -59.73334 -59.73334 0
v -58.66667 -59.73334 0
v -59.73334 -60.8 0
v -60.8 -60.8 0
v -60.8 -59.73334 0
v -59.73334 -59.73334 0
v -60.8 -60.8 0
v -61.86667 -60.8 0
v -61.86667 -59.73334 0
v -60.8 -59.73334 0
v -61.86667 -60.8 0
v -62.93334 -60.8 0
v -62.93334 -59.73334 0
v -61.86667 -59.73334 0
v -62.93334 -60.8 0
v -64 -60.8 0
v -64 -59.73334 0
v -62.93334 -59.73334 0
v -64 -60.8 0
v -65.06667 -60.8 0
v -65.06667 -59.73334 0
v -64 -59.73334 0
v -65.06667 -60.8 0
v -66.13334 -60.8 0
v -66.13334 -59.73334 0
v -65.06667 -59.73334 0
v -66.13334 -60.8 0
v -67.2 -60.8 0
v -67.2 -59.73334 0
v -66.13334 -59.73334 0
v -67.2 -60.8 0
v -68.26667 -60.8 0
v -68.26667 -59.73334 0
v -67.2 -59.73334 0
v -68.26667 -60.8 0
v -69.33334 -60.8 0
v -69.33334 -59.73334 0
v -68.26667 -59.73334 0
v -69.33334 -60.8 0
v -70.4 -60.8 0
v -70.4 -59.73334 0
v -69.33334 -59.73334 0
v -70.4 -60.8 0
v -71.46667 -60.8 0
v -71.46667 -59.73334 0
v -70.4 -59.73334 0
v -71.46667 -60.8 0
v -72.53334 -60.8 0
v -72.53334 -59.73334 0
v -71.46667 -59.73334 0
v -72.53334 -60.8 0
v -73.60001 -60.8 0
v -73.60001 -59.73334 0
v -72.53334 -59.73334 0
v -73.60001 -60.8 0
v -74.66667 -60.8 0
v -74.66667 -59.73334 0
v -73.60001 -59.73334 0
v -74.66667 -60.8 0
v -75.73334 -60.8 0
v -75.73334 -59.73334 0
v -74.66667 -59.73334 0
v -43.73334 -61.86667 0
v -44.8 -61.86667 0
v -44.8 -60.8 0
v -43.73334 -60.8 0
v -44.8 -61.86667 0
v -45.86667 -61.86667 0
v -45.86667 -60.8 0
v -44.8 -60.8 0
v -45.86667 -61.86667 0
v -46.93333 -61.86667 0
v -46.93333 -60.8 0
v -45.86667 -60.8 0
v -46.93333 -61.86667 0
v -48 -61.86667 0
v -48 -60.8 0
v -46.93333 -60.8 0
v -48 -61.86667 0
v -49.06667 -61.86667 0
v -49.06667 -60.8 0
v -48 -60.8 0
v -49.06667 -61.86667 0
v -50.13334 -61.86667 0
v -50.13334 -60.8 0
v -49.06667 -60.8 0
v -50.13334 -61.86667 0
v -51.2 -61.86667 0
v -51.2 -60.8 0
v -50.13334 -60.8 0
v -51.2 -61.86667 0
v -52.26667 -61.86667 0
v -52.26667 -60.8 0
v -51.2 -60.8 0
v -52.26667 -61.86667 0
v -53.33334 -61.86667 0
v -53.33334 -60.8 0
v -52.26667 -60.8 0
v -53.33334 -61.86667 0
v -54.4 -61.86667 0
v -54.4 -60.8 0
v -53.33334 -60.8 0
v -54.4 -61.86667 0
v -55.46667 -61.86667 0
v -55.46667 -60.8 0
v -54.4 -60.8 0
v -55.46667 -61.86667 0
v -56.53334 -61.86667 0
v -56.53334 -60.8 0
v -55.46667 -60.8 0
v -56.53334 -61.86667 0
v -57.6 -61.86667 0
v -57.6 -60.8 0
v -56.53334 -60.8 0
v -57.6 -61.86667 0
v -58.66667 -61.86667 0
v -58.66667 -60.8 0
v -57.6 -60.8 0
v -58.66667 -61.86667 0
v -59.73334 -61.86667 0
v -59.73334 -60.8 0
v -58.66667 -60.8 0
v -59.73334 -61.86667 0
v -60.8 -61.86667 0
v -60.8 -60.8 0
v -59.73334 -60.8 0
v -60.8 -61.86667 0
v -61.86667 -61.86667 0
v -61.86667 -60.8 0
v -60.8 -60.8 0
v -61.86667 -61.86667 0
v -62.93334 -61.86667 0
v -62.93334 -60.8 0
v -61.86667 -60.8 0
v -62.93334 -61.86667 0
v -64 -61.86667 0
v -64 -60.8 0
v -62.93334 -60.8 0
v -64 -61.86667 0
v -65.06667 -61.86667 0
v -65.06667 -60.8 0
v -64 -60.8 0
v -65.06667 -61.86667 0
v -66.13334 -61.86667 0
v -66.13334 -60.8 0
v -65.06667 -60.8 0
v -66.13334 -61.86667 0
v -67.2 -61.86667 0
v -67.2 -60.8 0
v -66.13334 -60.8 0
v -67.2 -61.86667 0
v -68.26667 -61.86667 0
v -68.26667 -60.8 0
v -67.2 -60.8 0
v -68.26667 -61.86667 0
v -69.33334 -61.86667 0
v -69.33334 -60.8 0
v -68.26667 -60.8 0
v -69.33334 -61.86667 0
v -70.4 -61.86667 0
v -70.4 -60.8 0
v -69.33334 -60.8 0
v -70.4 -61.86667 0
v -71.46667 -61.86667 0
v -71.46667 -60.8 0
v -70.4 -60.8 0
v -71.46667 -61.86667 0
v -72.53334 -61.86667 0
v -72.53334 -60.8 0
v -71.46667 -60.8 0
v -72.53334 -61.86667 0
v -73.60001 -61.86667 0
v -73.60001 -60.8 0
v -72.53334 -60.8 0
v -73.60001 -61.86667 0
v -74.66667 -61.86667 0
v -74.66667 -60.8 0
v -73.60001 -60.8 0
v -74.66667 -61.86667 0
v -75.73334 -61.86667 0
v -75.73334 -60.8 0
v -74.66667 -60.8 0
v -43.73334 -62.93334 0
v -44.8 -62.93334 0
v -44.8 -61.86667 0
v -43.73334 -61.86667 0
v -44.8 -62.93334 0
v -45.86667 -62.93334 0
v -45.86667 -61.86667 0
v -44.8 -61.86667 0
v -45.86667 -62.93334 0
v -46.93333 -62.93334 0
v -46.93333 -61.86667 0
v -45.86667 -61.86667 0
v -46.93333 -62.93334 0
v -48 -62.93334 0
v -48 -61.86667 0
v -46.93333 -61.86667 0
v -48 -62.93334 0
v -49.06667 -62.93334 0
v -49.06667 -61.86667 0
v -48 -61.86667 0
v -49.06667 -62.93334 0
v -50.13334 -62.93334 0
v -50.13334 -61.86667 0
v -49.06667 -61.86667 0
v -50.13334 -62.93334 0
v -51.2 -62.93334 0
v -51.2 -61.86667 0
v -50.13334 -61.86667 0
v -51.2 -62.93334 0
v -52.26667 -62.93334 0
v -52.26667 -61.86667 0
v -51.2 -61.86667 0
v -52.26667 -62.93334 0
v -53.33334 -62.93334 0
v -53.33334 -61.86667 0
v -52.26667 -61.86667 0
v -53.33334 -62.93334 0
v -54.4 -62.93334 0
v -54.4 -61.86667 0
v -53.33334 -61.86667 0
v -54.4 -62.93334 0
v -55.46667 -62.93334 0
v -55.46667 -61.86667 0
v -54.4 -61.86667 0
v -55.46667 -62.93334 0
v -56.53334 -62.93334 0
v -56.53334 -61.86667 0
v -55.46667 -61.86667 0
v -56.53334 -62.93334 0
v -57.6 -62.93334 0
v -57.6 -61.86667 0
v -56.53334 -61.86667 0
v -57.6 -62.93334 0
v -58.66667 -62.93334 0
v -58.66667 -61.86667 0
v -57.6 -61.86667 0
v -59.73334 -62.93334 0
v -60.8 -62.93334 0
v -60.8 -61.86667 0
v -59.73334 -61.86667 0
v -60.8 -62.93334 0
v -61.86667 -62.93334 0
v -61.86667 -61.86667 0
v -60.8 -61.86667 0
v -61.86667 -62.93334 0
v -62.93334 -62.93334 0
v -62.93334 -61.86667 0
v -61.86667 -61.86667 0
v -62.93334 -62.93334 0
v -64 -62.93334 0
v -64 -61.86667 0
v -62.93334 -61.86667 0
v -64 -62.93334 0
v -65.06667 -62.93334 0
v -65.06667 -61.86667 0
v -64 -61.86667 0
v -65.06667 -62.93334 0
v -66.13334 -62.93334 0
v -66.13334 -61.86667 0
v -65.06667 -61.86667 0
v -66.13334 -62.93334 0
v -67.2 -62.93334 0
v -67.2 -61.86667 0
v -66.13334 -61.86667 0
v -67.2 -62.93334 0
v -68.26667 -62.93334 0
v -68.26667 -61.86667 0
v -67.2 -61.86667 0
v -68.26667 -62.93334 0
v -69.33334 -62.93334 0
v -69.33334 -61.86667 0
v -68.26667 -61.86667 0
v -69.33334 -62.93334 0
v -70.4 -62.93334 0
v -70.4 -61.86667 0
v -69.33334 -61.86667 0
v -70.4 -62.93334 0
v -71.46667 -62.93334 0
v -71.46667 -61.86667 0
v -70.4 -61.86667 0
v -71.46667 -62.93334 0
v -72.53334 -62.93334 0
v -72.53334 -61.86667 0
v -71.46667 -61.86667 0
v -72.53334 -62.93334 0
v -73.60001 -62.93334 0
v -73.60001 -61.86667 0
v -72.53334 -61.86667 0
v -73.60001 -62.93334 0
v -74.66667 -62.93334 0
v -74.66667 -61.86667 0
v -73.60001 -61.86667 0
v -74.66667 -62.93334 0
v -75.73334 -62.93334 0
v -75.73334 -61.86667 0
v -74.66667 -61.86667 0

# Texture cooridinates (Count = 40)
vt 0.9299781 0.3344262
vt 0.9649891 0.3344262
vt 0.9649891 0.3868852
vt 0.9299781 0.3868852
vt 0.3719912 0.8360656
vt 0.4070022 0.8360656
vt 0.4070022 0.8885246
vt 0.3719912 0.8885246
vt 0.8555799 0.2786885
vt 0.8905908 0.2786885
vt 0.8905908 0.3311476
vt 0.8555799 0.3311476
vt 0.892779 0.2786885
vt 0.9277899 0.2786885
vt 0.9277899 0.3311476
vt 0.892779 0.3311476
vt 0.9299781 0.2786885
vt 0.9649891 0.2786885
vt 0.9649891 0.3311476
vt 0.9299781 0.3311476
vt 0.8555799 0.2229508
vt 0.8905908 0.2229508
vt 0.8905908 0.2754098
vt 0.8555799 0.2754098
vt 0.9299781 0.390164
vt 0.9649891 0.390164
vt 0.9649891 0.442623
vt 0.9299781 0.442623
vt 0.8555799 0.390164
vt 0.8905908 0.390164
vt 0.8905908 0.442623
vt 0.8555799 0.442623
vt 0.892779 0.390164
vt 0.9277899 0.390164
vt 0.9277899 0.442623
vt 0.892779 0.442623
vt 0.892779 0.2229508
vt 0.9277899 0.2229508
vt 0.9277899 0.2754098
vt 0.892779 0.2754098

# Normal
vn 0 0 -1

# Mesh description
g Central-Hall_mesh_0002

# Faces
f 1/1/1 2/2/1 3/3/1 4/4/1
f 5/1/1 6/2/1 7/3/1 8/4/1
f 9/1/1 10/2/1 11/3/1 12/4/1
f 13/1/1 14/2/1 15/3/1 16/4/1
f 17/1/1 18/2/1 19/3/1 20/4/1
f 21/5/1 22/6/1 23/7/1 24/8/1
f 25/7/1 26/8/1 27/5/1 28/6/1
f 29/2/1 30/1/1 31/4/1 32/3/1
f 33/2/1 34/1/1 35/4/1 36/3/1
f 37/2/1 38/1/1 39/4/1 40/3/1
f 41/2/1 42/1/1 43/4/1 44/3/1
f 45/2/1 46/1/1 47/4/1 48/3/1
f 49/9/1 50/10/1 51/11/1 52/12/1
f 53/9/1 54/10/1 55/11/1 56/12/1
f 57/9/1 58/10/1 59/11/1 60/12/1
f 61/9/1 62/10/1 63/11/1 64/12/1
f 65/9/1 66/10/1 67/11/1 68/12/1
f 69/5/1 70/6/1 71/7/1 72/8/1
f 73/7/1 74/8/1 75/5/1 76/6/1
f 77/13/1 78/14/1 79/15/1 80/16/1
f 81/13/1 82/14/1 83/15/1 84/16/1
f 85/13/1 86/14/1 87/15/1 88/16/1
f 89/13/1 90/14/1 91/15/1 92/16/1
f 93/13/1 94/14/1 95/15/1 96/16/1
f 97/9/1 98/10/1 99/11/1 100/12/1
f 101/9/1 102/10/1 103/11/1 104/12/1
f 105/9/1 106/10/1 107/11/1 108/12/1
f 109/9/1 110/10/1 111/11/1 112/12/1
f 113/9/1 114/10/1 115/11/1 116/12/1
f 117/13/1 118/14/1 119/15/1 120/16/1
f 121/13/1 122/14/1 123/15/1 124/16/1
f 125/13/1 126/14/1 127/15/1 128/16/1
f 129/13/1 130/14/1 131/15/1 132/16/1
f 133/13/1 134/14/1 135/15/1 136/16/1
f 137/9/1 138/10/1 139/11/1 140/12/1
f 141/9/1 142/10/1 143/11/1 144/12/1
f 145/9/1 146/10/1 147/11/1 148/12/1
f 149/9/1 150/10/1 151/11/1 152/12/1
f 153/9/1 154/10/1 155/11/1 156/12/1
f 157/5/1 158/6/1 159/7/1 160/8/1
f 161/7/1 162/8/1 163/5/1 164/6/1
f 165/13/1 166/14/1 167/15/1 168/16/1
f 169/13/1 170/14/1 171/15/1 172/16/1
f 173/13/1 174/14/1 175/15/1 176/16/1
f 177/13/1 178/14/1 179/15/1 180/16/1
f 181/13/1 182/14/1 183/15/1 184/16/1
f 185/9/1 186/10/1 187/11/1 188/12/1
f 189/9/1 190/10/1 191/11/1 192/12/1
f 193/9/1 194/10/1 195/11/1 196/12/1
f 197/9/1 198/10/1 199/11/1 200/12/1
f 201/9/1 202/10/1 203/11/1 204/12/1
f 205/13/1 206/14/1 207/15/1 208/16/1
f 209/13/1 210/14/1 211/15/1 212/16/1
f 213/13/1 214/14/1 215/15/1 216/16/1
f 217/13/1 218/14/1 219/15/1 220/16/1
f 221/13/1 222/14/1 223/15/1 224/16/1
f 225/9/1 226/10/1 227/11/1 228/12/1
f 229/9/1 230/10/1 231/11/1 232/12/1
f 233/9/1 234/10/1 235/11/1 236/12/1
f 237/9/1 238/10/1 239/11/1 240/12/1
f 241/9/1 242/10/1 243/11/1 244/12/1
f 245/13/1 246/14/1 247/15/1 248/16/1
f 249/13/1 250/14/1 251/15/1 252/16/1
f 253/13/1 254/14/1 255/15/1 256/16/1
f 257/13/1 258/14/1 259/15/1 260/16/1
f 261/13/1 262/14/1 263/15/1 264/16/1
f 265/9/1 266/10/1 267/11/1 268/12/1
f 269/9/1 270/10/1 271/11/1 272/12/1
f 273/9/1 274/10/1 275/11/1 276/12/1
f 277/9/1 278/10/1 279/11/1 280/12/1
f 281/9/1 282/10/1 283/11/1 284/12/1
f 285/13/1 286/14/1 287/15/1 288/16/1
f 289/13/1 290/14/1 291/15/1 292/16/1
f 293/13/1 294/14/1 295/15/1 296/16/1
f 297/13/1 298/14/1 299/15/1 300/16/1
f 301/13/1 302/14/1 303/15/1 304/16/1
f 305/17/1 306/18/1 307/19/1 308/20/1
f 309/17/1 310/18/1 311/19/1 312/20/1
f 313/17/1 314/18/1 315/19/1 316/20/1
f 317/17/1 318/18/1 319/19/1 320/20/1
f 321/17/1 322/18/1 323/19/1 324/20/1
f 325/18/1 326/17/1 327/20/1 328/19/1
f 329/18/1 330/17/1 331/20/1 332/19/1
f 333/18/1 334/17/1 335/20/1 336/19/1
f 337/18/1 338/17/1 339/20/1 340/19/1
f 341/18/1 342/17/1 343/20/1 344/19/1
f 345/1/1 346/2/1 347/3/1 348/4/1
f 349/1/1 350/2/1 351/3/1 352/4/1
f 353/1/1 354/2/1 355/3/1 356/4/1
f 357/1/1 358/2/1 359/3/1 360/4/1
f 361/1/1 362/2/1 363/3/1 364/4/1
f 365/2/1 366/1/1 367/4/1 368/3/1
f 369/2/1 370/1/1 371/4/1 372/3/1
f 373/2/1 374/1/1 375/4/1 376/3/1
f 377/2/1 378/1/1 379/4/1 380/3/1
f 381/2/1 382/1/1 383/4/1 384/3/1
f 385/9/1 386/10/1 387/11/1 388/12/1
f 389/9/1 390/10/1 391/11/1 392/12/1
f 393/9/1 394/10/1 395/11/1 396/12/1
f 397/9/1 398/10/1 399/11/1 400/12/1
f 401/9/1 402/10/1 403/11/1 404/12/1
f 405/13/1 406/14/1 407/15/1 408/16/1
f 409/13/1 410/14/1 411/15/1 412/16/1
f 413/13/1 414/14/1 415/15/1 416/16/1
f 417/13/1 418/14/1 419/15/1 420/16/1
f 421/13/1 422/14/1 423/15/1 424/16/1
f 425/9/1 426/10/1 427/11/1 428/12/1
f 429/9/1 430/10/1 431/11/1 432/12/1
f 433/9/1 434/10/1 435/11/1 436/12/1
f 437/9/1 438/10/1 439/11/1 440/12/1
f 441/9/1 442/10/1 443/11/1 444/12/1
f 445/13/1 446/14/1 447/15/1 448/16/1
f 449/13/1 450/14/1 451/15/1 452/16/1
f 453/13/1 454/14/1 455/15/1 456/16/1
f 457/13/1 458/14/1 459/15/1 460/16/1
f 461/13/1 462/14/1 463/15/1 464/16/1
f 465/9/1 466/10/1 467/11/1 468/12/1
f 469/9/1 470/10/1 471/11/1 472/12/1
f 473/9/1 474/10/1 475/11/1 476/12/1
f 477/9/1 478/10/1 479/11/1 480/12/1
f 481/9/1 482/10/1 483/11/1 484/12/1
f 485/13/1 486/14/1 487/15/1 488/16/1
f 489/13/1 490/14/1 491/15/1 492/16/1
f 493/13/1 494/14/1 495/15/1 496/16/1
f 497/13/1 498/14/1 499/15/1 500/16/1
f 501/13/1 502/14/1 503/15/1 504/16/1
f 505/9/1 506/10/1 507/11/1 508/12/1
f 509/9/1 510/10/1 511/11/1 512/12/1
f 513/9/1 514/10/1 515/11/1 516/12/1
f 517/9/1 518/10/1 519/11/1 520/12/1
f 521/9/1 522/10/1 523/11/1 524/12/1
f 525/13/1 526/14/1 527/15/1 528/16/1
f 529/13/1 530/14/1 531/15/1 532/16/1
f 533/13/1 534/14/1 535/15/1 536/16/1
f 537/13/1 538/14/1 539/15/1 540/16/1
f 541/13/1 542/14/1 543/15/1 544/16/1
f 545/9/1 546/10/1 547/11/1 548/12/1
f 549/9/1 550/10/1 551/11/1 552/12/1
f 553/9/1 554/10/1 555/11/1 556/12/1
f 557/9/1 558/10/1 559/11/1 560/12/1
f 561/21/1 562/22/1 563/23/1 564/24/1
f 565/25/1 566/26/1 567/27/1 568/28/1
f 569/29/1 570/30/1 571/31/1 572/32/1
f 573/33/1 574/34/1 575/35/1 576/36/1
f 577/33/1 578/34/1 579/35/1 580/36/1
f 581/33/1 582/34/1 583/35/1 584/36/1
f 585/33/1 586/34/1 587/35/1 588/36/1
f 589/33/1 590/34/1 591/35/1 592/36/1
f 593/33/1 594/34/1 595/35/1 596/36/1
f 597/33/1 598/34/1 599/35/1 600/36/1
f 601/33/1 602/34/1 603/35/1 604/36/1
f 605/33/1 606/34/1 607/35/1 608/36/1
f 609/33/1 610/34/1 611/35/1 612/36/1
f 613/33/1 614/34/1 615/35/1 616/36/1
f 617/33/1 618/34/1 619/35/1 620/36/1
f 621/25/1 622/26/1 623/27/1 624/28/1
f 625/29/1 626/30/1 627/31/1 628/32/1
f 629/37/1 630/38/1 631/39/1 632/40/1
f 633/13/1 634/14/1 635/15/1 636/16/1
f 637/13/1 638/14/1 639/15/1 640/16/1
f 641/13/1 642/14/1 643/15/1 644/16/1
f 645/13/1 646/14/1 647/15/1 648/16/1
f 649/9/1 650/10/1 651/11/1 652/12/1
f 653/9/1 654/10/1 655/11/1 656/12/1
f 657/9/1 658/10/1 659/11/1 660/12/1
f 661/21/1 662/22/1 663/23/1 664/24/1
f 665/33/1 666/34/1 667/35/1 668/36/1
f 669/25/1 670/26/1 671/27/1 672/28/1
f 673/29/1 674/30/1 675/31/1 676/32/1
f 677/33/1 678/34/1 679/35/1 680/36/1
f 681/33/1 682/34/1 683/35/1 684/36/1
f 685/33/1 686/34/1 687/35/1 688/36/1
f 689/33/1 690/34/1 691/35/1 692/36/1
f 693/33/1 694/34/1 695/35/1 696/36/1
f 697/33/1 698/34/1 699/35/1 700/36/1
f 701/33/1 702/34/1 703/35/1 704/36/1
f 705/33/1 706/34/1 707/35/1 708/36/1
f 709/33/1 710/34/1 711/35/1 712/36/1
f 713/33/1 714/34/1 715/35/1 716/36/1
f 717/33/1 718/34/1 719/35/1 720/36/1
f 721/33/1 722/34/1 723/35/1 724/36/1
f 725/25/1 726/26/1 727/27/1 728/28/1
f 729/29/1 730/30/1 731/31/1 732/32/1
f 733/33/1 734/34/1 735/35/1 736/36/1
f 737/37/1 738/38/1 739/39/1 740/40/1
f 741/13/1 742/14/1 743/15/1 744/16/1
f 745/13/1 746/14/1 747/15/1 748/16/1
f 749/13/1 750/14/1 751/15/1 752/16/1
f 753/9/1 754/10/1 755/11/1 756/12/1
f 757/9/1 758/10/1 759/11/1 760/12/1
f 761/21/1 762/22/1 763/23/1 764/24/1
f 765/33/1 766/34/1 767/35/1 768/36/1
f 769/33/1 770/34/1 771/35/1 772/36/1
f 773/33/1 774/34/1 775/35/1 776/36/1
f 777/33/1 778/34/1 779/35/1 780/36/1
f 781/33/1 782/34/1 783/35/1 784/36/1
f 785/33/1 786/34/1 787/35/1 788/36/1
f 789/33/1 790/34/1 791/35/1 792/36/1
f 793/33/1 794/34/1 795/35/1 796/36/1
f 797/33/1 798/34/1 799/35/1 800/36/1
f 801/33/1 802/34/1 803/35/1 804/36/1
f 805/33/1 806/34/1 807/35/1 808/36/1
f 809/33/1 810/34/1 811/35/1 812/36/1
f 813/33/1 814/34/1 815/35/1 816/36/1
f 817/33/1 818/34/1 819/35/1 820/36/1
f 821/33/1 822/34/1 823/35/1 824/36/1
f 825/33/1 826/34/1 827/35/1 828/36/1
f 829/33/1 830/34/1 831/35/1 832/36/1
f 833/33/1 834/34/1 835/35/1 836/36/1
f 837/33/1 838/34/1 839/35/1 840/36/1
f 841/33/1 842/34/1 843/35/1 844/36/1
f 845/33/1 846/34/1 847/35/1 848/36/1
f 849/33/1 850/34/1 851/35/1 852/36/1
f 853/33/1 854/34/1 855/35/1 856/36/1
f 857/33/1 858/34/1 859/35/1 860/36/1
f 861/37/1 862/38/1 863/39/1 864/40/1
f 865/13/1 866/14/1 867/15/1 868/16/1
f 869/13/1 870/14/1 871/15/1 872/16/1
f 873/9/1 874/10/1 875/11/1 876/12/1
f 877/21/1 878/22/1 879/23/1 880/24/1
f 881/33/1 882/34/1 883/35/1 884/36/1
f 885/33/1 886/34/1 887/35/1 888/36/1
f 889/33/1 890/34/1 891/35/1 892/36/1
f 893/33/1 894/34/1 895/35/1 896/36/1
f 897/33/1 898/34/1 899/35/1 900/36/1
f 901/33/1 902/34/1 903/35/1 904/36/1
f 905/33/1 906/34/1 907/35/1 908/36/1
f 909/33/1 910/34/1 911/35/1 912/36/1
f 913/33/1 914/34/1 915/35/1 916/36/1
f 917/33/1 918/34/1 919/35/1 920/36/1
f 921/33/1 922/34/1 923/35/1 924/36/1
f 925/33/1 926/34/1 927/35/1 928/36/1
f 929/33/1 930/34/1 931/35/1 932/36/1
f 933/33/1 934/34/1 935/35/1 936/36/1
f 937/33/1 938/34/1 939/35/1 940/36/1
f 941/33/1 942/34/1 943/35/1 944/36/1
f 945/33/1 946/34/1 947/35/1 948/36/1
f 949/33/1 950/34/1 951/35/1 952/36/1
f 953/33/1 954/34/1 955/35/1 956/36/1
f 957/33/1 958/34/1 959/35/1 960/36/1
f 961/33/1 962/34/1 963/35/1 964/36/1
f 965/33/1 966/34/1 967/35/1 968/36/1
f 969/33/1 970/34/1 971/35/1 972/36/1
f 973/33/1 974/34/1 975/35/1 976/36/1
f 977/33/1 978/34/1 979/35/1 980/36/1
f 981/33/1 982/34/1 983/35/1 984/36/1
f 985/37/1 986/38/1 987/39/1 988/40/1
f 989/13/1 990/14/1 991/15/1 992/16/1
f 993/21/1 994/22/1 995/23/1 996/24/1
f 997/33/1 998/34/1 999/35/1 1000/36/1
f 1001/33/1 1002/34/1 1003/35/1 1004/36/1
f 1005/33/1 1006/34/1 1007/35/1 1008/36/1
f 1009/33/1 1010/34/1 1011/35/1 1012/36/1
f 1013/33/1 1014/34/1 1015/35/1 1016/36/1
f 1017/33/1 1018/34/1 1019/35/1 1020/36/1
f 1021/33/1 1022/34/1 1023/35/1 1024/36/1
f 1025/33/1 1026/34/1 1027/35/1 1028/36/1
f 1029/33/1 1030/34/1 1031/35/1 1032/36/1
f 1033/33/1 1034/34/1 1035/35/1 1036/36/1
f 1037/33/1 1038/34/1 1039/35/1 1040/36/1
f 1041/33/1 1042/34/1 1043/35/1 1044/36/1
f 1045/33/1 1046/34/1 1047/35/1 1048/36/1
f 1049/33/1 1050/34/1 1051/35/1 1052/36/1
f 1053/33/1 1054/34/1 1055/35/1 1056/36/1
f 1057/33/1 1058/34/1 1059/35/1 1060/36/1
f 1061/33/1 1062/34/1 1063/35/1 1064/36/1
f 1065/33/1 1066/34/1 1067/35/1 1068/36/1
f 1069/33/1 1070/34/1 1071/35/1 1072/36/1
f 1073/33/1 1074/34/1 1075/35/1 1076/36/1
f 1077/33/1 1078/34/1 1079/35/1 1080/36/1
f 1081/33/1 1082/34/1 1083/35/1 1084/36/1
f 1085/33/1 1086/34/1 1087/35/1 1088/36/1
f 1089/33/1 1090/34/1 1091/35/1 1092/36/1
f 1093/33/1 1094/34/1 1095/35/1 1096/36/1
f 1097/33/1 1098/34/1 1099/35/1 1100/36/1
f 1101/33/1 1102/34/1 1103/35/1 1104/36/1
f 1105/37/1 1106/38/1 1107/39/1 1108/40/1

