﻿# Tiled2Unity generated file. Do not modify by hand.
# Wavefront file for 'Central-Hall_mesh_0008.obj'

# Vertices (Count = 332)
v -51.2 -50.13334 0
v -52.26667 -50.13334 0
v -52.26667 -49.06667 0
v -51.2 -49.06667 0
v -52.26667 -50.13334 0
v -53.33334 -50.13334 0
v -53.33334 -49.06667 0
v -52.26667 -49.06667 0
v -54.4 -50.13334 0
v -55.46667 -50.13334 0
v -55.46667 -49.06667 0
v -54.4 -49.06667 0
v -55.46667 -50.13334 0
v -56.53334 -50.13334 0
v -56.53334 -49.06667 0
v -55.46667 -49.06667 0
v -56.53334 -50.13334 0
v -57.6 -50.13334 0
v -57.6 -49.06667 0
v -56.53334 -49.06667 0
v -57.6 -50.13334 0
v -58.66667 -50.13334 0
v -58.66667 -49.06667 0
v -57.6 -49.06667 0
v -60.8 -50.13334 0
v -61.86667 -50.13334 0
v -61.86667 -49.06667 0
v -60.8 -49.06667 0
v -61.86667 -50.13334 0
v -62.93334 -50.13334 0
v -62.93334 -49.06667 0
v -61.86667 -49.06667 0
v -62.93334 -50.13334 0
v -64 -50.13334 0
v -64 -49.06667 0
v -62.93334 -49.06667 0
v -64 -50.13334 0
v -65.06667 -50.13334 0
v -65.06667 -49.06667 0
v -64 -49.06667 0
v -65.06667 -50.13334 0
v -66.13334 -50.13334 0
v -66.13334 -49.06667 0
v -65.06667 -49.06667 0
v -66.13334 -50.13334 0
v -67.2 -50.13334 0
v -67.2 -49.06667 0
v -66.13334 -49.06667 0
v -67.2 -50.13334 0
v -68.26667 -50.13334 0
v -68.26667 -49.06667 0
v -67.2 -49.06667 0
v -68.26667 -50.13334 0
v -69.33334 -50.13334 0
v -69.33334 -49.06667 0
v -68.26667 -49.06667 0
v -51.2 -51.2 0
v -52.26667 -51.2 0
v -52.26667 -50.13334 0
v -51.2 -50.13334 0
v -52.26667 -51.2 0
v -53.33334 -51.2 0
v -53.33334 -50.13334 0
v -52.26667 -50.13334 0
v -53.33334 -51.2 0
v -54.4 -51.2 0
v -54.4 -50.13334 0
v -53.33334 -50.13334 0
v -54.4 -51.2 0
v -55.46667 -51.2 0
v -55.46667 -50.13334 0
v -54.4 -50.13334 0
v -55.46667 -51.2 0
v -56.53334 -51.2 0
v -56.53334 -50.13334 0
v -55.46667 -50.13334 0
v -56.53334 -51.2 0
v -57.6 -51.2 0
v -57.6 -50.13334 0
v -56.53334 -50.13334 0
v -60.8 -51.2 0
v -61.86667 -51.2 0
v -61.86667 -50.13334 0
v -60.8 -50.13334 0
v -61.86667 -51.2 0
v -62.93334 -51.2 0
v -62.93334 -50.13334 0
v -61.86667 -50.13334 0
v -62.93334 -51.2 0
v -64 -51.2 0
v -64 -50.13334 0
v -62.93334 -50.13334 0
v -64 -51.2 0
v -65.06667 -51.2 0
v -65.06667 -50.13334 0
v -64 -50.13334 0
v -65.06667 -51.2 0
v -66.13334 -51.2 0
v -66.13334 -50.13334 0
v -65.06667 -50.13334 0
v -66.13334 -51.2 0
v -67.2 -51.2 0
v -67.2 -50.13334 0
v -66.13334 -50.13334 0
v -68.26667 -51.2 0
v -69.33334 -51.2 0
v -69.33334 -50.13334 0
v -68.26667 -50.13334 0
v -51.2 -52.26667 0
v -52.26667 -52.26667 0
v -52.26667 -51.2 0
v -51.2 -51.2 0
v -52.26667 -52.26667 0
v -53.33334 -52.26667 0
v -53.33334 -51.2 0
v -52.26667 -51.2 0
v -53.33334 -52.26667 0
v -54.4 -52.26667 0
v -54.4 -51.2 0
v -53.33334 -51.2 0
v -54.4 -52.26667 0
v -55.46667 -52.26667 0
v -55.46667 -51.2 0
v -54.4 -51.2 0
v -55.46667 -52.26667 0
v -56.53334 -52.26667 0
v -56.53334 -51.2 0
v -55.46667 -51.2 0
v -56.53334 -52.26667 0
v -57.6 -52.26667 0
v -57.6 -51.2 0
v -56.53334 -51.2 0
v -57.6 -52.26667 0
v -58.66667 -52.26667 0
v -58.66667 -51.2 0
v -57.6 -51.2 0
v -60.8 -52.26667 0
v -61.86667 -52.26667 0
v -61.86667 -51.2 0
v -60.8 -51.2 0
v -61.86667 -52.26667 0
v -62.93334 -52.26667 0
v -62.93334 -51.2 0
v -61.86667 -51.2 0
v -62.93334 -52.26667 0
v -64 -52.26667 0
v -64 -51.2 0
v -62.93334 -51.2 0
v -64 -52.26667 0
v -65.06667 -52.26667 0
v -65.06667 -51.2 0
v -64 -51.2 0
v -65.06667 -52.26667 0
v -66.13334 -52.26667 0
v -66.13334 -51.2 0
v -65.06667 -51.2 0
v -66.13334 -52.26667 0
v -67.2 -52.26667 0
v -67.2 -51.2 0
v -66.13334 -51.2 0
v -67.2 -52.26667 0
v -68.26667 -52.26667 0
v -68.26667 -51.2 0
v -67.2 -51.2 0
v -50.13334 -53.33334 0
v -51.2 -53.33334 0
v -51.2 -52.26667 0
v -50.13334 -52.26667 0
v -51.2 -53.33334 0
v -52.26667 -53.33334 0
v -52.26667 -52.26667 0
v -51.2 -52.26667 0
v -52.26667 -53.33334 0
v -53.33334 -53.33334 0
v -53.33334 -52.26667 0
v -52.26667 -52.26667 0
v -54.4 -53.33334 0
v -55.46667 -53.33334 0
v -55.46667 -52.26667 0
v -54.4 -52.26667 0
v -55.46667 -53.33334 0
v -56.53334 -53.33334 0
v -56.53334 -52.26667 0
v -55.46667 -52.26667 0
v -56.53334 -53.33334 0
v -57.6 -53.33334 0
v -57.6 -52.26667 0
v -56.53334 -52.26667 0
v -57.6 -53.33334 0
v -58.66667 -53.33334 0
v -58.66667 -52.26667 0
v -57.6 -52.26667 0
v -61.86667 -53.33334 0
v -62.93334 -53.33334 0
v -62.93334 -52.26667 0
v -61.86667 -52.26667 0
v -62.93334 -53.33334 0
v -64 -53.33334 0
v -64 -52.26667 0
v -62.93334 -52.26667 0
v -65.06667 -53.33334 0
v -66.13334 -53.33334 0
v -66.13334 -52.26667 0
v -65.06667 -52.26667 0
v -66.13334 -53.33334 0
v -67.2 -53.33334 0
v -67.2 -52.26667 0
v -66.13334 -52.26667 0
v -67.2 -53.33334 0
v -68.26667 -53.33334 0
v -68.26667 -52.26667 0
v -67.2 -52.26667 0
v -51.2 -54.4 0
v -52.26667 -54.4 0
v -52.26667 -53.33334 0
v -51.2 -53.33334 0
v -52.26667 -54.4 0
v -53.33334 -54.4 0
v -53.33334 -53.33334 0
v -52.26667 -53.33334 0
v -53.33334 -54.4 0
v -54.4 -54.4 0
v -54.4 -53.33334 0
v -53.33334 -53.33334 0
v -54.4 -54.4 0
v -55.46667 -54.4 0
v -55.46667 -53.33334 0
v -54.4 -53.33334 0
v -55.46667 -54.4 0
v -56.53334 -54.4 0
v -56.53334 -53.33334 0
v -55.46667 -53.33334 0
v -56.53334 -54.4 0
v -57.6 -54.4 0
v -57.6 -53.33334 0
v -56.53334 -53.33334 0
v -57.6 -54.4 0
v -58.66667 -54.4 0
v -58.66667 -53.33334 0
v -57.6 -53.33334 0
v -60.8 -54.4 0
v -61.86667 -54.4 0
v -61.86667 -53.33334 0
v -60.8 -53.33334 0
v -61.86667 -54.4 0
v -62.93334 -54.4 0
v -62.93334 -53.33334 0
v -61.86667 -53.33334 0
v -62.93334 -54.4 0
v -64 -54.4 0
v -64 -53.33334 0
v -62.93334 -53.33334 0
v -64 -54.4 0
v -65.06667 -54.4 0
v -65.06667 -53.33334 0
v -64 -53.33334 0
v -65.06667 -54.4 0
v -66.13334 -54.4 0
v -66.13334 -53.33334 0
v -65.06667 -53.33334 0
v -66.13334 -54.4 0
v -67.2 -54.4 0
v -67.2 -53.33334 0
v -66.13334 -53.33334 0
v -51.2 -55.46667 0
v -52.26667 -55.46667 0
v -52.26667 -54.4 0
v -51.2 -54.4 0
v -52.26667 -55.46667 0
v -53.33334 -55.46667 0
v -53.33334 -54.4 0
v -52.26667 -54.4 0
v -54.4 -55.46667 0
v -55.46667 -55.46667 0
v -55.46667 -54.4 0
v -54.4 -54.4 0
v -55.46667 -55.46667 0
v -56.53334 -55.46667 0
v -56.53334 -54.4 0
v -55.46667 -54.4 0
v -56.53334 -55.46667 0
v -57.6 -55.46667 0
v -57.6 -54.4 0
v -56.53334 -54.4 0
v -57.6 -55.46667 0
v -58.66667 -55.46667 0
v -58.66667 -54.4 0
v -57.6 -54.4 0
v -60.8 -55.46667 0
v -61.86667 -55.46667 0
v -61.86667 -54.4 0
v -60.8 -54.4 0
v -61.86667 -55.46667 0
v -62.93334 -55.46667 0
v -62.93334 -54.4 0
v -61.86667 -54.4 0
v -62.93334 -55.46667 0
v -64 -55.46667 0
v -64 -54.4 0
v -62.93334 -54.4 0
v -64 -55.46667 0
v -65.06667 -55.46667 0
v -65.06667 -54.4 0
v -64 -54.4 0
v -65.06667 -55.46667 0
v -66.13334 -55.46667 0
v -66.13334 -54.4 0
v -65.06667 -54.4 0
v -66.13334 -55.46667 0
v -67.2 -55.46667 0
v -67.2 -54.4 0
v -66.13334 -54.4 0
v -68.26667 -55.46667 0
v -69.33334 -55.46667 0
v -69.33334 -54.4 0
v -68.26667 -54.4 0
v -50.13334 -56.53334 0
v -51.2 -56.53334 0
v -51.2 -55.46667 0
v -50.13334 -55.46667 0
v -53.33334 -56.53334 0
v -54.4 -56.53334 0
v -54.4 -55.46667 0
v -53.33334 -55.46667 0
v -54.4 -56.53334 0
v -55.46667 -56.53334 0
v -55.46667 -55.46667 0
v -54.4 -55.46667 0
v -67.2 -56.53334 0
v -68.26667 -56.53334 0
v -68.26667 -55.46667 0
v -67.2 -55.46667 0

# Texture cooridinates (Count = 4)
vt 0.03719912 0.8360656
vt 0.07221007 0.8360656
vt 0.07221007 0.8885246
vt 0.03719912 0.8885246

# Normal
vn 0 0 -1

# Mesh description
g Central-Hall_mesh_0008

# Faces
f 1/1/1 2/2/1 3/3/1 4/4/1
f 5/1/1 6/2/1 7/3/1 8/4/1
f 9/1/1 10/2/1 11/3/1 12/4/1
f 13/1/1 14/2/1 15/3/1 16/4/1
f 17/1/1 18/2/1 19/3/1 20/4/1
f 21/1/1 22/2/1 23/3/1 24/4/1
f 25/1/1 26/2/1 27/3/1 28/4/1
f 29/1/1 30/2/1 31/3/1 32/4/1
f 33/2/1 34/3/1 35/4/1 36/1/1
f 37/1/1 38/2/1 39/3/1 40/4/1
f 41/1/1 42/2/1 43/3/1 44/4/1
f 45/1/1 46/2/1 47/3/1 48/4/1
f 49/1/1 50/2/1 51/3/1 52/4/1
f 53/2/1 54/3/1 55/4/1 56/1/1
f 57/1/1 58/2/1 59/3/1 60/4/1
f 61/4/1 62/1/1 63/2/1 64/3/1
f 65/1/1 66/2/1 67/3/1 68/4/1
f 69/1/1 70/2/1 71/3/1 72/4/1
f 73/4/1 74/1/1 75/2/1 76/3/1
f 77/1/1 78/2/1 79/3/1 80/4/1
f 81/1/1 82/2/1 83/3/1 84/4/1
f 85/4/1 86/1/1 87/2/1 88/3/1
f 89/1/1 90/2/1 91/3/1 92/4/1
f 93/1/1 94/2/1 95/3/1 96/4/1
f 97/2/1 98/3/1 99/4/1 100/1/1
f 101/1/1 102/2/1 103/3/1 104/4/1
f 105/1/1 106/2/1 107/3/1 108/4/1
f 109/1/1 110/2/1 111/3/1 112/4/1
f 113/1/1 114/2/1 115/3/1 116/4/1
f 117/4/1 118/1/1 119/2/1 120/3/1
f 121/1/1 122/2/1 123/3/1 124/4/1
f 125/1/1 126/2/1 127/3/1 128/4/1
f 129/1/1 130/2/1 131/3/1 132/4/1
f 133/1/1 134/2/1 135/3/1 136/4/1
f 137/1/1 138/2/1 139/3/1 140/4/1
f 141/1/1 142/2/1 143/3/1 144/4/1
f 145/1/1 146/2/1 147/3/1 148/4/1
f 149/4/1 150/1/1 151/2/1 152/3/1
f 153/1/1 154/2/1 155/3/1 156/4/1
f 157/1/1 158/2/1 159/3/1 160/4/1
f 161/1/1 162/2/1 163/3/1 164/4/1
f 165/4/1 166/1/1 167/2/1 168/3/1
f 169/1/1 170/2/1 171/3/1 172/4/1
f 173/1/1 174/2/1 175/3/1 176/4/1
f 177/1/1 178/2/1 179/3/1 180/4/1
f 181/2/1 182/3/1 183/4/1 184/1/1
f 185/1/1 186/2/1 187/3/1 188/4/1
f 189/1/1 190/2/1 191/3/1 192/4/1
f 193/1/1 194/2/1 195/3/1 196/4/1
f 197/2/1 198/3/1 199/4/1 200/1/1
f 201/1/1 202/2/1 203/3/1 204/4/1
f 205/1/1 206/2/1 207/3/1 208/4/1
f 209/4/1 210/1/1 211/2/1 212/3/1
f 213/2/1 214/3/1 215/4/1 216/1/1
f 217/1/1 218/2/1 219/3/1 220/4/1
f 221/1/1 222/2/1 223/3/1 224/4/1
f 225/1/1 226/2/1 227/3/1 228/4/1
f 229/1/1 230/2/1 231/3/1 232/4/1
f 233/2/1 234/3/1 235/4/1 236/1/1
f 237/1/1 238/2/1 239/3/1 240/4/1
f 241/1/1 242/2/1 243/3/1 244/4/1
f 245/1/1 246/2/1 247/3/1 248/4/1
f 249/1/1 250/2/1 251/3/1 252/4/1
f 253/1/1 254/2/1 255/3/1 256/4/1
f 257/2/1 258/3/1 259/4/1 260/1/1
f 261/1/1 262/2/1 263/3/1 264/4/1
f 265/1/1 266/2/1 267/3/1 268/4/1
f 269/1/1 270/2/1 271/3/1 272/4/1
f 273/1/1 274/2/1 275/3/1 276/4/1
f 277/4/1 278/1/1 279/2/1 280/3/1
f 281/1/1 282/2/1 283/3/1 284/4/1
f 285/1/1 286/2/1 287/3/1 288/4/1
f 289/4/1 290/1/1 291/2/1 292/3/1
f 293/1/1 294/2/1 295/3/1 296/4/1
f 297/2/1 298/3/1 299/4/1 300/1/1
f 301/1/1 302/2/1 303/3/1 304/4/1
f 305/1/1 306/2/1 307/3/1 308/4/1
f 309/1/1 310/2/1 311/3/1 312/4/1
f 313/2/1 314/3/1 315/4/1 316/1/1
f 317/4/1 318/1/1 319/2/1 320/3/1
f 321/1/1 322/2/1 323/3/1 324/4/1
f 325/4/1 326/1/1 327/2/1 328/3/1
f 329/2/1 330/3/1 331/4/1 332/1/1

