﻿# Tiled2Unity generated file. Do not modify by hand.
# Wavefront file for 'WorldMap_mesh_0015.obj'

# Vertices (Count = 4)
v -69.33334 -75.73334 0
v -73.60001 -75.73334 0
v -73.60001 -71.46667 0
v -69.33334 -71.46667 0

# Texture cooridinates (Count = 4)
vt 0 0
vt 1 0
vt 1 1
vt 0 1

# Normal
vn 0 0 -1

# Mesh description
g WorldMap_mesh_0015

# Faces
f 1/1/1 2/2/1 3/3/1 4/4/1

