﻿# Tiled2Unity generated file. Do not modify by hand.
# Wavefront file for 'WorldMap_mesh_0007.obj'

# Vertices (Count = 992)
v -59.73334 -45.86667 0
v -60.8 -45.86667 0
v -60.8 -44.8 0
v -59.73334 -44.8 0
v -58.66667 -45.86667 0
v -59.73334 -45.86667 0
v -59.73334 -44.8 0
v -58.66667 -44.8 0
v -57.6 -45.86667 0
v -58.66667 -45.86667 0
v -58.66667 -44.8 0
v -57.6 -44.8 0
v -56.53334 -45.86667 0
v -57.6 -45.86667 0
v -57.6 -44.8 0
v -56.53334 -44.8 0
v -59.73334 -46.93333 0
v -60.8 -46.93333 0
v -60.8 -45.86667 0
v -59.73334 -45.86667 0
v -58.66667 -46.93333 0
v -59.73334 -46.93333 0
v -59.73334 -45.86667 0
v -58.66667 -45.86667 0
v -57.6 -46.93333 0
v -58.66667 -46.93333 0
v -58.66667 -45.86667 0
v -57.6 -45.86667 0
v -56.53334 -46.93333 0
v -57.6 -46.93333 0
v -57.6 -45.86667 0
v -56.53334 -45.86667 0
v -59.73334 -48 0
v -60.8 -48 0
v -60.8 -46.93333 0
v -59.73334 -46.93333 0
v -58.66667 -48 0
v -59.73334 -48 0
v -59.73334 -46.93333 0
v -58.66667 -46.93333 0
v -57.6 -48 0
v -58.66667 -48 0
v -58.66667 -46.93333 0
v -57.6 -46.93333 0
v -56.53334 -48 0
v -57.6 -48 0
v -57.6 -46.93333 0
v -56.53334 -46.93333 0
v -59.73334 -49.06667 0
v -60.8 -49.06667 0
v -60.8 -48 0
v -59.73334 -48 0
v -58.66667 -49.06667 0
v -59.73334 -49.06667 0
v -59.73334 -48 0
v -58.66667 -48 0
v -57.6 -49.06667 0
v -58.66667 -49.06667 0
v -58.66667 -48 0
v -57.6 -48 0
v -56.53334 -49.06667 0
v -57.6 -49.06667 0
v -57.6 -48 0
v -56.53334 -48 0
v -59.73334 -50.13334 0
v -60.8 -50.13334 0
v -60.8 -49.06667 0
v -59.73334 -49.06667 0
v -58.66667 -50.13334 0
v -59.73334 -50.13334 0
v -59.73334 -49.06667 0
v -58.66667 -49.06667 0
v -57.6 -50.13334 0
v -58.66667 -50.13334 0
v -58.66667 -49.06667 0
v -57.6 -49.06667 0
v -56.53334 -50.13334 0
v -57.6 -50.13334 0
v -57.6 -49.06667 0
v -56.53334 -49.06667 0
v -59.73334 -51.2 0
v -60.8 -51.2 0
v -60.8 -50.13334 0
v -59.73334 -50.13334 0
v -58.66667 -51.2 0
v -59.73334 -51.2 0
v -59.73334 -50.13334 0
v -58.66667 -50.13334 0
v -57.6 -51.2 0
v -58.66667 -51.2 0
v -58.66667 -50.13334 0
v -57.6 -50.13334 0
v -56.53334 -51.2 0
v -57.6 -51.2 0
v -57.6 -50.13334 0
v -56.53334 -50.13334 0
v -59.73334 -52.26667 0
v -60.8 -52.26667 0
v -60.8 -51.2 0
v -59.73334 -51.2 0
v -58.66667 -52.26667 0
v -59.73334 -52.26667 0
v -59.73334 -51.2 0
v -58.66667 -51.2 0
v -57.6 -52.26667 0
v -58.66667 -52.26667 0
v -58.66667 -51.2 0
v -57.6 -51.2 0
v -56.53334 -52.26667 0
v -57.6 -52.26667 0
v -57.6 -51.2 0
v -56.53334 -51.2 0
v -59.73334 -53.33334 0
v -60.8 -53.33334 0
v -60.8 -52.26667 0
v -59.73334 -52.26667 0
v -58.66667 -53.33334 0
v -59.73334 -53.33334 0
v -59.73334 -52.26667 0
v -58.66667 -52.26667 0
v -57.6 -53.33334 0
v -58.66667 -53.33334 0
v -58.66667 -52.26667 0
v -57.6 -52.26667 0
v -56.53334 -53.33334 0
v -57.6 -53.33334 0
v -57.6 -52.26667 0
v -56.53334 -52.26667 0
v -59.73334 -54.4 0
v -60.8 -54.4 0
v -60.8 -53.33334 0
v -59.73334 -53.33334 0
v -58.66667 -54.4 0
v -59.73334 -54.4 0
v -59.73334 -53.33334 0
v -58.66667 -53.33334 0
v -57.6 -54.4 0
v -58.66667 -54.4 0
v -58.66667 -53.33334 0
v -57.6 -53.33334 0
v -56.53334 -54.4 0
v -57.6 -54.4 0
v -57.6 -53.33334 0
v -56.53334 -53.33334 0
v -59.73334 -55.46667 0
v -60.8 -55.46667 0
v -60.8 -54.4 0
v -59.73334 -54.4 0
v -58.66667 -55.46667 0
v -59.73334 -55.46667 0
v -59.73334 -54.4 0
v -58.66667 -54.4 0
v -57.6 -55.46667 0
v -58.66667 -55.46667 0
v -58.66667 -54.4 0
v -57.6 -54.4 0
v -56.53334 -55.46667 0
v -57.6 -55.46667 0
v -57.6 -54.4 0
v -56.53334 -54.4 0
v -59.73334 -56.53334 0
v -60.8 -56.53334 0
v -60.8 -55.46667 0
v -59.73334 -55.46667 0
v -58.66667 -56.53334 0
v -59.73334 -56.53334 0
v -59.73334 -55.46667 0
v -58.66667 -55.46667 0
v -57.6 -56.53334 0
v -58.66667 -56.53334 0
v -58.66667 -55.46667 0
v -57.6 -55.46667 0
v -56.53334 -56.53334 0
v -57.6 -56.53334 0
v -57.6 -55.46667 0
v -56.53334 -55.46667 0
v -59.73334 -57.6 0
v -60.8 -57.6 0
v -60.8 -56.53334 0
v -59.73334 -56.53334 0
v -58.66667 -57.6 0
v -59.73334 -57.6 0
v -59.73334 -56.53334 0
v -58.66667 -56.53334 0
v -57.6 -57.6 0
v -58.66667 -57.6 0
v -58.66667 -56.53334 0
v -57.6 -56.53334 0
v -56.53334 -57.6 0
v -57.6 -57.6 0
v -57.6 -56.53334 0
v -56.53334 -56.53334 0
v -59.73334 -58.66667 0
v -60.8 -58.66667 0
v -60.8 -57.6 0
v -59.73334 -57.6 0
v -58.66667 -58.66667 0
v -59.73334 -58.66667 0
v -59.73334 -57.6 0
v -58.66667 -57.6 0
v -57.6 -58.66667 0
v -58.66667 -58.66667 0
v -58.66667 -57.6 0
v -57.6 -57.6 0
v -56.53334 -58.66667 0
v -57.6 -58.66667 0
v -57.6 -57.6 0
v -56.53334 -57.6 0
v -59.73334 -59.73334 0
v -60.8 -59.73334 0
v -60.8 -58.66667 0
v -59.73334 -58.66667 0
v -58.66667 -59.73334 0
v -59.73334 -59.73334 0
v -59.73334 -58.66667 0
v -58.66667 -58.66667 0
v -57.6 -59.73334 0
v -58.66667 -59.73334 0
v -58.66667 -58.66667 0
v -57.6 -58.66667 0
v -56.53334 -59.73334 0
v -57.6 -59.73334 0
v -57.6 -58.66667 0
v -56.53334 -58.66667 0
v -59.73334 -60.8 0
v -60.8 -60.8 0
v -60.8 -59.73334 0
v -59.73334 -59.73334 0
v -58.66667 -60.8 0
v -59.73334 -60.8 0
v -59.73334 -59.73334 0
v -58.66667 -59.73334 0
v -57.6 -60.8 0
v -58.66667 -60.8 0
v -58.66667 -59.73334 0
v -57.6 -59.73334 0
v -56.53334 -60.8 0
v -57.6 -60.8 0
v -57.6 -59.73334 0
v -56.53334 -59.73334 0
v -59.73334 -61.86667 0
v -60.8 -61.86667 0
v -60.8 -60.8 0
v -59.73334 -60.8 0
v -58.66667 -61.86667 0
v -59.73334 -61.86667 0
v -59.73334 -60.8 0
v -58.66667 -60.8 0
v -57.6 -61.86667 0
v -58.66667 -61.86667 0
v -58.66667 -60.8 0
v -57.6 -60.8 0
v -56.53334 -61.86667 0
v -57.6 -61.86667 0
v -57.6 -60.8 0
v -56.53334 -60.8 0
v -59.73334 -62.93334 0
v -60.8 -62.93334 0
v -60.8 -61.86667 0
v -59.73334 -61.86667 0
v -58.66667 -62.93334 0
v -59.73334 -62.93334 0
v -59.73334 -61.86667 0
v -58.66667 -61.86667 0
v -57.6 -62.93334 0
v -58.66667 -62.93334 0
v -58.66667 -61.86667 0
v -57.6 -61.86667 0
v -56.53334 -62.93334 0
v -57.6 -62.93334 0
v -57.6 -61.86667 0
v -56.53334 -61.86667 0
v -59.73334 -64 0
v -60.8 -64 0
v -60.8 -62.93334 0
v -59.73334 -62.93334 0
v -58.66667 -64 0
v -59.73334 -64 0
v -59.73334 -62.93334 0
v -58.66667 -62.93334 0
v -57.6 -64 0
v -58.66667 -64 0
v -58.66667 -62.93334 0
v -57.6 -62.93334 0
v -56.53334 -64 0
v -57.6 -64 0
v -57.6 -62.93334 0
v -56.53334 -62.93334 0
v -59.73334 -65.06667 0
v -60.8 -65.06667 0
v -60.8 -64 0
v -59.73334 -64 0
v -58.66667 -65.06667 0
v -59.73334 -65.06667 0
v -59.73334 -64 0
v -58.66667 -64 0
v -57.6 -65.06667 0
v -58.66667 -65.06667 0
v -58.66667 -64 0
v -57.6 -64 0
v -56.53334 -65.06667 0
v -57.6 -65.06667 0
v -57.6 -64 0
v -56.53334 -64 0
v -59.73334 -66.13334 0
v -60.8 -66.13334 0
v -60.8 -65.06667 0
v -59.73334 -65.06667 0
v -58.66667 -66.13334 0
v -59.73334 -66.13334 0
v -59.73334 -65.06667 0
v -58.66667 -65.06667 0
v -57.6 -66.13334 0
v -58.66667 -66.13334 0
v -58.66667 -65.06667 0
v -57.6 -65.06667 0
v -56.53334 -66.13334 0
v -57.6 -66.13334 0
v -57.6 -65.06667 0
v -56.53334 -65.06667 0
v -59.73334 -67.2 0
v -60.8 -67.2 0
v -60.8 -66.13334 0
v -59.73334 -66.13334 0
v -58.66667 -67.2 0
v -59.73334 -67.2 0
v -59.73334 -66.13334 0
v -58.66667 -66.13334 0
v -57.6 -67.2 0
v -58.66667 -67.2 0
v -58.66667 -66.13334 0
v -57.6 -66.13334 0
v -56.53334 -67.2 0
v -57.6 -67.2 0
v -57.6 -66.13334 0
v -56.53334 -66.13334 0
v -59.73334 -68.26667 0
v -60.8 -68.26667 0
v -60.8 -67.2 0
v -59.73334 -67.2 0
v -58.66667 -68.26667 0
v -59.73334 -68.26667 0
v -59.73334 -67.2 0
v -58.66667 -67.2 0
v -57.6 -68.26667 0
v -58.66667 -68.26667 0
v -58.66667 -67.2 0
v -57.6 -67.2 0
v -56.53334 -68.26667 0
v -57.6 -68.26667 0
v -57.6 -67.2 0
v -56.53334 -67.2 0
v -59.73334 -69.33334 0
v -60.8 -69.33334 0
v -60.8 -68.26667 0
v -59.73334 -68.26667 0
v -58.66667 -69.33334 0
v -59.73334 -69.33334 0
v -59.73334 -68.26667 0
v -58.66667 -68.26667 0
v -57.6 -69.33334 0
v -58.66667 -69.33334 0
v -58.66667 -68.26667 0
v -57.6 -68.26667 0
v -56.53334 -69.33334 0
v -57.6 -69.33334 0
v -57.6 -68.26667 0
v -56.53334 -68.26667 0
v -59.73334 -70.4 0
v -60.8 -70.4 0
v -60.8 -69.33334 0
v -59.73334 -69.33334 0
v -58.66667 -70.4 0
v -59.73334 -70.4 0
v -59.73334 -69.33334 0
v -58.66667 -69.33334 0
v -57.6 -70.4 0
v -58.66667 -70.4 0
v -58.66667 -69.33334 0
v -57.6 -69.33334 0
v -56.53334 -70.4 0
v -57.6 -70.4 0
v -57.6 -69.33334 0
v -56.53334 -69.33334 0
v -59.73334 -71.46667 0
v -60.8 -71.46667 0
v -60.8 -70.4 0
v -59.73334 -70.4 0
v -58.66667 -71.46667 0
v -59.73334 -71.46667 0
v -59.73334 -70.4 0
v -58.66667 -70.4 0
v -57.6 -71.46667 0
v -58.66667 -71.46667 0
v -58.66667 -70.4 0
v -57.6 -70.4 0
v -56.53334 -71.46667 0
v -57.6 -71.46667 0
v -57.6 -70.4 0
v -56.53334 -70.4 0
v -59.73334 -72.53334 0
v -60.8 -72.53334 0
v -60.8 -71.46667 0
v -59.73334 -71.46667 0
v -58.66667 -72.53334 0
v -59.73334 -72.53334 0
v -59.73334 -71.46667 0
v -58.66667 -71.46667 0
v -57.6 -72.53334 0
v -58.66667 -72.53334 0
v -58.66667 -71.46667 0
v -57.6 -71.46667 0
v -56.53334 -72.53334 0
v -57.6 -72.53334 0
v -57.6 -71.46667 0
v -56.53334 -71.46667 0
v -59.73334 -73.60001 0
v -60.8 -73.60001 0
v -60.8 -72.53334 0
v -59.73334 -72.53334 0
v -58.66667 -73.60001 0
v -59.73334 -73.60001 0
v -59.73334 -72.53334 0
v -58.66667 -72.53334 0
v -57.6 -73.60001 0
v -58.66667 -73.60001 0
v -58.66667 -72.53334 0
v -57.6 -72.53334 0
v -56.53334 -73.60001 0
v -57.6 -73.60001 0
v -57.6 -72.53334 0
v -56.53334 -72.53334 0
v -59.73334 -74.66667 0
v -60.8 -74.66667 0
v -60.8 -73.60001 0
v -59.73334 -73.60001 0
v -58.66667 -74.66667 0
v -59.73334 -74.66667 0
v -59.73334 -73.60001 0
v -58.66667 -73.60001 0
v -57.6 -74.66667 0
v -58.66667 -74.66667 0
v -58.66667 -73.60001 0
v -57.6 -73.60001 0
v -56.53334 -74.66667 0
v -57.6 -74.66667 0
v -57.6 -73.60001 0
v -56.53334 -73.60001 0
v -59.73334 -75.73334 0
v -60.8 -75.73334 0
v -60.8 -74.66667 0
v -59.73334 -74.66667 0
v -58.66667 -75.73334 0
v -59.73334 -75.73334 0
v -59.73334 -74.66667 0
v -58.66667 -74.66667 0
v -57.6 -75.73334 0
v -58.66667 -75.73334 0
v -58.66667 -74.66667 0
v -57.6 -74.66667 0
v -56.53334 -75.73334 0
v -57.6 -75.73334 0
v -57.6 -74.66667 0
v -56.53334 -74.66667 0
v -59.73334 -76.8 0
v -60.8 -76.8 0
v -60.8 -75.73334 0
v -59.73334 -75.73334 0
v -58.66667 -76.8 0
v -59.73334 -76.8 0
v -59.73334 -75.73334 0
v -58.66667 -75.73334 0
v -57.6 -76.8 0
v -58.66667 -76.8 0
v -58.66667 -75.73334 0
v -57.6 -75.73334 0
v -56.53334 -76.8 0
v -57.6 -76.8 0
v -57.6 -75.73334 0
v -56.53334 -75.73334 0
v -59.73334 -77.86667 0
v -60.8 -77.86667 0
v -60.8 -76.8 0
v -59.73334 -76.8 0
v -58.66667 -77.86667 0
v -59.73334 -77.86667 0
v -59.73334 -76.8 0
v -58.66667 -76.8 0
v -57.6 -77.86667 0
v -58.66667 -77.86667 0
v -58.66667 -76.8 0
v -57.6 -76.8 0
v -56.53334 -77.86667 0
v -57.6 -77.86667 0
v -57.6 -76.8 0
v -56.53334 -76.8 0
v -59.73334 -78.93333 0
v -60.8 -78.93333 0
v -60.8 -77.86667 0
v -59.73334 -77.86667 0
v -58.66667 -78.93333 0
v -59.73334 -78.93333 0
v -59.73334 -77.86667 0
v -58.66667 -77.86667 0
v -57.6 -78.93333 0
v -58.66667 -78.93333 0
v -58.66667 -77.86667 0
v -57.6 -77.86667 0
v -56.53334 -78.93333 0
v -57.6 -78.93333 0
v -57.6 -77.86667 0
v -56.53334 -77.86667 0
v -59.73334 -80.00001 0
v -60.8 -80.00001 0
v -60.8 -78.93333 0
v -59.73334 -78.93333 0
v -58.66667 -80.00001 0
v -59.73334 -80.00001 0
v -59.73334 -78.93333 0
v -58.66667 -78.93333 0
v -57.6 -80.00001 0
v -58.66667 -80.00001 0
v -58.66667 -78.93333 0
v -57.6 -78.93333 0
v -56.53334 -80.00001 0
v -57.6 -80.00001 0
v -57.6 -78.93333 0
v -56.53334 -78.93333 0
v -55.46667 -80.00001 0
v -56.53334 -80.00001 0
v -56.53334 -78.93333 0
v -55.46667 -78.93333 0
v -54.4 -80.00001 0
v -55.46667 -80.00001 0
v -55.46667 -78.93333 0
v -54.4 -78.93333 0
v -53.33334 -80.00001 0
v -54.4 -80.00001 0
v -54.4 -78.93333 0
v -53.33334 -78.93333 0
v -52.26667 -80.00001 0
v -53.33334 -80.00001 0
v -53.33334 -78.93333 0
v -52.26667 -78.93333 0
v -51.2 -80.00001 0
v -52.26667 -80.00001 0
v -52.26667 -78.93333 0
v -51.2 -78.93333 0
v -50.13334 -80.00001 0
v -51.2 -80.00001 0
v -51.2 -78.93333 0
v -50.13334 -78.93333 0
v -49.06667 -80.00001 0
v -50.13334 -80.00001 0
v -50.13334 -78.93333 0
v -49.06667 -78.93333 0
v -48 -80.00001 0
v -49.06667 -80.00001 0
v -49.06667 -78.93333 0
v -48 -78.93333 0
v -46.93333 -80.00001 0
v -48 -80.00001 0
v -48 -78.93333 0
v -46.93333 -78.93333 0
v -45.86667 -80.00001 0
v -46.93333 -80.00001 0
v -46.93333 -78.93333 0
v -45.86667 -78.93333 0
v -44.8 -80.00001 0
v -45.86667 -80.00001 0
v -45.86667 -78.93333 0
v -44.8 -78.93333 0
v -43.73334 -80.00001 0
v -44.8 -80.00001 0
v -44.8 -78.93333 0
v -43.73334 -78.93333 0
v -42.66667 -80.00001 0
v -43.73334 -80.00001 0
v -43.73334 -78.93333 0
v -42.66667 -78.93333 0
v -41.6 -80.00001 0
v -42.66667 -80.00001 0
v -42.66667 -78.93333 0
v -41.6 -78.93333 0
v -40.53334 -80.00001 0
v -41.6 -80.00001 0
v -41.6 -78.93333 0
v -40.53334 -78.93333 0
v -39.46667 -80.00001 0
v -40.53334 -80.00001 0
v -40.53334 -78.93333 0
v -39.46667 -78.93333 0
v -38.4 -80.00001 0
v -39.46667 -80.00001 0
v -39.46667 -78.93333 0
v -38.4 -78.93333 0
v -37.33334 -80.00001 0
v -38.4 -80.00001 0
v -38.4 -78.93333 0
v -37.33334 -78.93333 0
v -36.26667 -80.00001 0
v -37.33334 -80.00001 0
v -37.33334 -78.93333 0
v -36.26667 -78.93333 0
v -35.2 -80.00001 0
v -36.26667 -80.00001 0
v -36.26667 -78.93333 0
v -35.2 -78.93333 0
v -34.13334 -80.00001 0
v -35.2 -80.00001 0
v -35.2 -78.93333 0
v -34.13334 -78.93333 0
v -33.06667 -80.00001 0
v -34.13334 -80.00001 0
v -34.13334 -78.93333 0
v -33.06667 -78.93333 0
v -59.73334 -81.06667 0
v -60.8 -81.06667 0
v -60.8 -80.00001 0
v -59.73334 -80.00001 0
v -58.66667 -81.06667 0
v -59.73334 -81.06667 0
v -59.73334 -80.00001 0
v -58.66667 -80.00001 0
v -57.6 -81.06667 0
v -58.66667 -81.06667 0
v -58.66667 -80.00001 0
v -57.6 -80.00001 0
v -56.53334 -81.06667 0
v -57.6 -81.06667 0
v -57.6 -80.00001 0
v -56.53334 -80.00001 0
v -55.46667 -81.06667 0
v -56.53334 -81.06667 0
v -56.53334 -80.00001 0
v -55.46667 -80.00001 0
v -54.4 -81.06667 0
v -55.46667 -81.06667 0
v -55.46667 -80.00001 0
v -54.4 -80.00001 0
v -53.33334 -81.06667 0
v -54.4 -81.06667 0
v -54.4 -80.00001 0
v -53.33334 -80.00001 0
v -52.26667 -81.06667 0
v -53.33334 -81.06667 0
v -53.33334 -80.00001 0
v -52.26667 -80.00001 0
v -51.2 -81.06667 0
v -52.26667 -81.06667 0
v -52.26667 -80.00001 0
v -51.2 -80.00001 0
v -50.13334 -81.06667 0
v -51.2 -81.06667 0
v -51.2 -80.00001 0
v -50.13334 -80.00001 0
v -49.06667 -81.06667 0
v -50.13334 -81.06667 0
v -50.13334 -80.00001 0
v -49.06667 -80.00001 0
v -48 -81.06667 0
v -49.06667 -81.06667 0
v -49.06667 -80.00001 0
v -48 -80.00001 0
v -46.93333 -81.06667 0
v -48 -81.06667 0
v -48 -80.00001 0
v -46.93333 -80.00001 0
v -45.86667 -81.06667 0
v -46.93333 -81.06667 0
v -46.93333 -80.00001 0
v -45.86667 -80.00001 0
v -44.8 -81.06667 0
v -45.86667 -81.06667 0
v -45.86667 -80.00001 0
v -44.8 -80.00001 0
v -43.73334 -81.06667 0
v -44.8 -81.06667 0
v -44.8 -80.00001 0
v -43.73334 -80.00001 0
v -42.66667 -81.06667 0
v -43.73334 -81.06667 0
v -43.73334 -80.00001 0
v -42.66667 -80.00001 0
v -41.6 -81.06667 0
v -42.66667 -81.06667 0
v -42.66667 -80.00001 0
v -41.6 -80.00001 0
v -40.53334 -81.06667 0
v -41.6 -81.06667 0
v -41.6 -80.00001 0
v -40.53334 -80.00001 0
v -39.46667 -81.06667 0
v -40.53334 -81.06667 0
v -40.53334 -80.00001 0
v -39.46667 -80.00001 0
v -38.4 -81.06667 0
v -39.46667 -81.06667 0
v -39.46667 -80.00001 0
v -38.4 -80.00001 0
v -37.33334 -81.06667 0
v -38.4 -81.06667 0
v -38.4 -80.00001 0
v -37.33334 -80.00001 0
v -36.26667 -81.06667 0
v -37.33334 -81.06667 0
v -37.33334 -80.00001 0
v -36.26667 -80.00001 0
v -35.2 -81.06667 0
v -36.26667 -81.06667 0
v -36.26667 -80.00001 0
v -35.2 -80.00001 0
v -34.13334 -81.06667 0
v -35.2 -81.06667 0
v -35.2 -80.00001 0
v -34.13334 -80.00001 0
v -33.06667 -81.06667 0
v -34.13334 -81.06667 0
v -34.13334 -80.00001 0
v -33.06667 -80.00001 0
v -59.73334 -82.13334 0
v -60.8 -82.13334 0
v -60.8 -81.06667 0
v -59.73334 -81.06667 0
v -58.66667 -82.13334 0
v -59.73334 -82.13334 0
v -59.73334 -81.06667 0
v -58.66667 -81.06667 0
v -57.6 -82.13334 0
v -58.66667 -82.13334 0
v -58.66667 -81.06667 0
v -57.6 -81.06667 0
v -56.53334 -82.13334 0
v -57.6 -82.13334 0
v -57.6 -81.06667 0
v -56.53334 -81.06667 0
v -55.46667 -82.13334 0
v -56.53334 -82.13334 0
v -56.53334 -81.06667 0
v -55.46667 -81.06667 0
v -54.4 -82.13334 0
v -55.46667 -82.13334 0
v -55.46667 -81.06667 0
v -54.4 -81.06667 0
v -53.33334 -82.13334 0
v -54.4 -82.13334 0
v -54.4 -81.06667 0
v -53.33334 -81.06667 0
v -52.26667 -82.13334 0
v -53.33334 -82.13334 0
v -53.33334 -81.06667 0
v -52.26667 -81.06667 0
v -51.2 -82.13334 0
v -52.26667 -82.13334 0
v -52.26667 -81.06667 0
v -51.2 -81.06667 0
v -50.13334 -82.13334 0
v -51.2 -82.13334 0
v -51.2 -81.06667 0
v -50.13334 -81.06667 0
v -49.06667 -82.13334 0
v -50.13334 -82.13334 0
v -50.13334 -81.06667 0
v -49.06667 -81.06667 0
v -48 -82.13334 0
v -49.06667 -82.13334 0
v -49.06667 -81.06667 0
v -48 -81.06667 0
v -46.93333 -82.13334 0
v -48 -82.13334 0
v -48 -81.06667 0
v -46.93333 -81.06667 0
v -45.86667 -82.13334 0
v -46.93333 -82.13334 0
v -46.93333 -81.06667 0
v -45.86667 -81.06667 0
v -44.8 -82.13334 0
v -45.86667 -82.13334 0
v -45.86667 -81.06667 0
v -44.8 -81.06667 0
v -43.73334 -82.13334 0
v -44.8 -82.13334 0
v -44.8 -81.06667 0
v -43.73334 -81.06667 0
v -42.66667 -82.13334 0
v -43.73334 -82.13334 0
v -43.73334 -81.06667 0
v -42.66667 -81.06667 0
v -41.6 -82.13334 0
v -42.66667 -82.13334 0
v -42.66667 -81.06667 0
v -41.6 -81.06667 0
v -40.53334 -82.13334 0
v -41.6 -82.13334 0
v -41.6 -81.06667 0
v -40.53334 -81.06667 0
v -39.46667 -82.13334 0
v -40.53334 -82.13334 0
v -40.53334 -81.06667 0
v -39.46667 -81.06667 0
v -38.4 -82.13334 0
v -39.46667 -82.13334 0
v -39.46667 -81.06667 0
v -38.4 -81.06667 0
v -37.33334 -82.13334 0
v -38.4 -82.13334 0
v -38.4 -81.06667 0
v -37.33334 -81.06667 0
v -36.26667 -82.13334 0
v -37.33334 -82.13334 0
v -37.33334 -81.06667 0
v -36.26667 -81.06667 0
v -35.2 -82.13334 0
v -36.26667 -82.13334 0
v -36.26667 -81.06667 0
v -35.2 -81.06667 0
v -34.13334 -82.13334 0
v -35.2 -82.13334 0
v -35.2 -81.06667 0
v -34.13334 -81.06667 0
v -33.06667 -82.13334 0
v -34.13334 -82.13334 0
v -34.13334 -81.06667 0
v -33.06667 -81.06667 0
v -59.73334 -83.2 0
v -60.8 -83.2 0
v -60.8 -82.13334 0
v -59.73334 -82.13334 0
v -58.66667 -83.2 0
v -59.73334 -83.2 0
v -59.73334 -82.13334 0
v -58.66667 -82.13334 0
v -57.6 -83.2 0
v -58.66667 -83.2 0
v -58.66667 -82.13334 0
v -57.6 -82.13334 0
v -56.53334 -83.2 0
v -57.6 -83.2 0
v -57.6 -82.13334 0
v -56.53334 -82.13334 0
v -55.46667 -83.2 0
v -56.53334 -83.2 0
v -56.53334 -82.13334 0
v -55.46667 -82.13334 0
v -54.4 -83.2 0
v -55.46667 -83.2 0
v -55.46667 -82.13334 0
v -54.4 -82.13334 0
v -53.33334 -83.2 0
v -54.4 -83.2 0
v -54.4 -82.13334 0
v -53.33334 -82.13334 0
v -52.26667 -83.2 0
v -53.33334 -83.2 0
v -53.33334 -82.13334 0
v -52.26667 -82.13334 0
v -51.2 -83.2 0
v -52.26667 -83.2 0
v -52.26667 -82.13334 0
v -51.2 -82.13334 0
v -50.13334 -83.2 0
v -51.2 -83.2 0
v -51.2 -82.13334 0
v -50.13334 -82.13334 0
v -49.06667 -83.2 0
v -50.13334 -83.2 0
v -50.13334 -82.13334 0
v -49.06667 -82.13334 0
v -48 -83.2 0
v -49.06667 -83.2 0
v -49.06667 -82.13334 0
v -48 -82.13334 0
v -46.93333 -83.2 0
v -48 -83.2 0
v -48 -82.13334 0
v -46.93333 -82.13334 0
v -45.86667 -83.2 0
v -46.93333 -83.2 0
v -46.93333 -82.13334 0
v -45.86667 -82.13334 0
v -44.8 -83.2 0
v -45.86667 -83.2 0
v -45.86667 -82.13334 0
v -44.8 -82.13334 0
v -43.73334 -83.2 0
v -44.8 -83.2 0
v -44.8 -82.13334 0
v -43.73334 -82.13334 0
v -42.66667 -83.2 0
v -43.73334 -83.2 0
v -43.73334 -82.13334 0
v -42.66667 -82.13334 0
v -41.6 -83.2 0
v -42.66667 -83.2 0
v -42.66667 -82.13334 0
v -41.6 -82.13334 0
v -40.53334 -83.2 0
v -41.6 -83.2 0
v -41.6 -82.13334 0
v -40.53334 -82.13334 0
v -39.46667 -83.2 0
v -40.53334 -83.2 0
v -40.53334 -82.13334 0
v -39.46667 -82.13334 0
v -38.4 -83.2 0
v -39.46667 -83.2 0
v -39.46667 -82.13334 0
v -38.4 -82.13334 0
v -37.33334 -83.2 0
v -38.4 -83.2 0
v -38.4 -82.13334 0
v -37.33334 -82.13334 0
v -36.26667 -83.2 0
v -37.33334 -83.2 0
v -37.33334 -82.13334 0
v -36.26667 -82.13334 0
v -35.2 -83.2 0
v -36.26667 -83.2 0
v -36.26667 -82.13334 0
v -35.2 -82.13334 0
v -34.13334 -83.2 0
v -35.2 -83.2 0
v -35.2 -82.13334 0
v -34.13334 -82.13334 0
v -33.06667 -83.2 0
v -34.13334 -83.2 0
v -34.13334 -82.13334 0
v -33.06667 -82.13334 0
v -59.73334 -84.26667 0
v -60.8 -84.26667 0
v -60.8 -83.2 0
v -59.73334 -83.2 0
v -58.66667 -84.26667 0
v -59.73334 -84.26667 0
v -59.73334 -83.2 0
v -58.66667 -83.2 0
v -57.6 -84.26667 0
v -58.66667 -84.26667 0
v -58.66667 -83.2 0
v -57.6 -83.2 0
v -56.53334 -84.26667 0
v -57.6 -84.26667 0
v -57.6 -83.2 0
v -56.53334 -83.2 0
v -59.73334 -85.33334 0
v -60.8 -85.33334 0
v -60.8 -84.26667 0
v -59.73334 -84.26667 0
v -58.66667 -85.33334 0
v -59.73334 -85.33334 0
v -59.73334 -84.26667 0
v -58.66667 -84.26667 0
v -57.6 -85.33334 0
v -58.66667 -85.33334 0
v -58.66667 -84.26667 0
v -57.6 -84.26667 0
v -56.53334 -85.33334 0
v -57.6 -85.33334 0
v -57.6 -84.26667 0
v -56.53334 -84.26667 0
v -59.73334 -86.4 0
v -60.8 -86.4 0
v -60.8 -85.33334 0
v -59.73334 -85.33334 0
v -58.66667 -86.4 0
v -59.73334 -86.4 0
v -59.73334 -85.33334 0
v -58.66667 -85.33334 0
v -57.6 -86.4 0
v -58.66667 -86.4 0
v -58.66667 -85.33334 0
v -57.6 -85.33334 0
v -56.53334 -86.4 0
v -57.6 -86.4 0
v -57.6 -85.33334 0
v -56.53334 -85.33334 0
v -59.73334 -87.46667 0
v -60.8 -87.46667 0
v -60.8 -86.4 0
v -59.73334 -86.4 0
v -58.66667 -87.46667 0
v -59.73334 -87.46667 0
v -59.73334 -86.4 0
v -58.66667 -86.4 0
v -57.6 -87.46667 0
v -58.66667 -87.46667 0
v -58.66667 -86.4 0
v -57.6 -86.4 0
v -56.53334 -87.46667 0
v -57.6 -87.46667 0
v -57.6 -86.4 0
v -56.53334 -86.4 0

# Texture cooridinates (Count = 48)
vt 0.433121 0.2147368
vt 0.4585987 0.2147368
vt 0.4585987 0.2484211
vt 0.433121 0.2484211
vt 0.4872611 0.1789474
vt 0.5127388 0.1789474
vt 0.5127388 0.2126316
vt 0.4872611 0.2126316
vt 0.406051 0.2147368
vt 0.4315287 0.2147368
vt 0.4315287 0.2484211
vt 0.406051 0.2484211
vt 0.4601911 0.2147368
vt 0.4856688 0.2147368
vt 0.4856688 0.2484211
vt 0.4601911 0.2484211
vt 0.2977707 0.2863158
vt 0.3232484 0.2863158
vt 0.3232484 0.32
vt 0.2977707 0.32
vt 0.4872611 0.2147368
vt 0.5127388 0.2147368
vt 0.5127388 0.2484211
vt 0.4872611 0.2484211
vt 0.2707006 0.2147368
vt 0.2961783 0.2147368
vt 0.2961783 0.2484211
vt 0.2707006 0.2484211
vt 0.2436306 0.2147368
vt 0.2691083 0.2147368
vt 0.2691083 0.2484211
vt 0.2436306 0.2484211
vt 0.2707006 0.2863158
vt 0.2961783 0.2863158
vt 0.2961783 0.32
vt 0.2707006 0.32
vt 0.2707006 0.2505263
vt 0.2961783 0.2505263
vt 0.2961783 0.2842105
vt 0.2707006 0.2842105
vt 0.4601911 0.1789474
vt 0.4856688 0.1789474
vt 0.4856688 0.2126316
vt 0.4601911 0.2126316
vt 0.406051 0.1789474
vt 0.4315287 0.1789474
vt 0.4315287 0.2126316
vt 0.406051 0.2126316

# Normal
vn 0 0 -1

# Mesh description
g WorldMap_mesh_0007

# Faces
f 1/1/1 2/2/1 3/3/1 4/4/1
f 5/5/1 6/6/1 7/7/1 8/8/1
f 9/5/1 10/6/1 11/7/1 12/8/1
f 13/9/1 14/10/1 15/11/1 16/12/1
f 17/13/1 18/14/1 19/15/1 20/16/1
f 21/17/1 22/18/1 23/19/1 24/20/1
f 25/17/1 26/18/1 27/19/1 28/20/1
f 29/21/1 30/22/1 31/23/1 32/24/1
f 33/13/1 34/14/1 35/15/1 36/16/1
f 37/25/1 38/26/1 39/27/1 40/28/1
f 41/29/1 42/30/1 43/31/1 44/32/1
f 45/21/1 46/22/1 47/23/1 48/24/1
f 49/13/1 50/14/1 51/15/1 52/16/1
f 53/25/1 54/26/1 55/27/1 56/28/1
f 57/29/1 58/30/1 59/31/1 60/32/1
f 61/21/1 62/22/1 63/23/1 64/24/1
f 65/13/1 66/14/1 67/15/1 68/16/1
f 69/25/1 70/26/1 71/27/1 72/28/1
f 73/29/1 74/30/1 75/31/1 76/32/1
f 77/21/1 78/22/1 79/23/1 80/24/1
f 81/13/1 82/14/1 83/15/1 84/16/1
f 85/25/1 86/26/1 87/27/1 88/28/1
f 89/29/1 90/30/1 91/31/1 92/32/1
f 93/21/1 94/22/1 95/23/1 96/24/1
f 97/13/1 98/14/1 99/15/1 100/16/1
f 101/25/1 102/26/1 103/27/1 104/28/1
f 105/29/1 106/30/1 107/31/1 108/32/1
f 109/21/1 110/22/1 111/23/1 112/24/1
f 113/13/1 114/14/1 115/15/1 116/16/1
f 117/25/1 118/26/1 119/27/1 120/28/1
f 121/29/1 122/30/1 123/31/1 124/32/1
f 125/21/1 126/22/1 127/23/1 128/24/1
f 129/13/1 130/14/1 131/15/1 132/16/1
f 133/25/1 134/26/1 135/27/1 136/28/1
f 137/29/1 138/30/1 139/31/1 140/32/1
f 141/21/1 142/22/1 143/23/1 144/24/1
f 145/13/1 146/14/1 147/15/1 148/16/1
f 149/25/1 150/26/1 151/27/1 152/28/1
f 153/29/1 154/30/1 155/31/1 156/32/1
f 157/21/1 158/22/1 159/23/1 160/24/1
f 161/13/1 162/14/1 163/15/1 164/16/1
f 165/25/1 166/26/1 167/27/1 168/28/1
f 169/29/1 170/30/1 171/31/1 172/32/1
f 173/21/1 174/22/1 175/23/1 176/24/1
f 177/13/1 178/14/1 179/15/1 180/16/1
f 181/25/1 182/26/1 183/27/1 184/28/1
f 185/29/1 186/30/1 187/31/1 188/32/1
f 189/21/1 190/22/1 191/23/1 192/24/1
f 193/13/1 194/14/1 195/15/1 196/16/1
f 197/25/1 198/26/1 199/27/1 200/28/1
f 201/29/1 202/30/1 203/31/1 204/32/1
f 205/21/1 206/22/1 207/23/1 208/24/1
f 209/13/1 210/14/1 211/15/1 212/16/1
f 213/25/1 214/26/1 215/27/1 216/28/1
f 217/29/1 218/30/1 219/31/1 220/32/1
f 221/21/1 222/22/1 223/23/1 224/24/1
f 225/13/1 226/14/1 227/15/1 228/16/1
f 229/25/1 230/26/1 231/27/1 232/28/1
f 233/29/1 234/30/1 235/31/1 236/32/1
f 237/21/1 238/22/1 239/23/1 240/24/1
f 241/13/1 242/14/1 243/15/1 244/16/1
f 245/25/1 246/26/1 247/27/1 248/28/1
f 249/29/1 250/30/1 251/31/1 252/32/1
f 253/21/1 254/22/1 255/23/1 256/24/1
f 257/13/1 258/14/1 259/15/1 260/16/1
f 261/25/1 262/26/1 263/27/1 264/28/1
f 265/29/1 266/30/1 267/31/1 268/32/1
f 269/21/1 270/22/1 271/23/1 272/24/1
f 273/13/1 274/14/1 275/15/1 276/16/1
f 277/25/1 278/26/1 279/27/1 280/28/1
f 281/29/1 282/30/1 283/31/1 284/32/1
f 285/21/1 286/22/1 287/23/1 288/24/1
f 289/13/1 290/14/1 291/15/1 292/16/1
f 293/25/1 294/26/1 295/27/1 296/28/1
f 297/29/1 298/30/1 299/31/1 300/32/1
f 301/21/1 302/22/1 303/23/1 304/24/1
f 305/13/1 306/14/1 307/15/1 308/16/1
f 309/25/1 310/26/1 311/27/1 312/28/1
f 313/29/1 314/30/1 315/31/1 316/32/1
f 317/21/1 318/22/1 319/23/1 320/24/1
f 321/13/1 322/14/1 323/15/1 324/16/1
f 325/25/1 326/26/1 327/27/1 328/28/1
f 329/29/1 330/30/1 331/31/1 332/32/1
f 333/21/1 334/22/1 335/23/1 336/24/1
f 337/13/1 338/14/1 339/15/1 340/16/1
f 341/17/1 342/18/1 343/19/1 344/20/1
f 345/17/1 346/18/1 347/19/1 348/20/1
f 349/21/1 350/22/1 351/23/1 352/24/1
f 353/13/1 354/14/1 355/15/1 356/16/1
f 357/25/1 358/26/1 359/27/1 360/28/1
f 361/29/1 362/30/1 363/31/1 364/32/1
f 365/21/1 366/22/1 367/23/1 368/24/1
f 369/13/1 370/14/1 371/15/1 372/16/1
f 373/25/1 374/26/1 375/27/1 376/28/1
f 377/29/1 378/30/1 379/31/1 380/32/1
f 381/21/1 382/22/1 383/23/1 384/24/1
f 385/13/1 386/14/1 387/15/1 388/16/1
f 389/25/1 390/26/1 391/27/1 392/28/1
f 393/29/1 394/30/1 395/31/1 396/32/1
f 397/21/1 398/22/1 399/23/1 400/24/1
f 401/13/1 402/14/1 403/15/1 404/16/1
f 405/25/1 406/26/1 407/27/1 408/28/1
f 409/29/1 410/30/1 411/31/1 412/32/1
f 413/21/1 414/22/1 415/23/1 416/24/1
f 417/13/1 418/14/1 419/15/1 420/16/1
f 421/17/1 422/18/1 423/19/1 424/20/1
f 425/17/1 426/18/1 427/19/1 428/20/1
f 429/21/1 430/22/1 431/23/1 432/24/1
f 433/13/1 434/14/1 435/15/1 436/16/1
f 437/25/1 438/26/1 439/27/1 440/28/1
f 441/29/1 442/30/1 443/31/1 444/32/1
f 445/21/1 446/22/1 447/23/1 448/24/1
f 449/13/1 450/14/1 451/15/1 452/16/1
f 453/25/1 454/26/1 455/27/1 456/28/1
f 457/29/1 458/30/1 459/31/1 460/32/1
f 461/21/1 462/22/1 463/23/1 464/24/1
f 465/13/1 466/14/1 467/15/1 468/16/1
f 469/25/1 470/26/1 471/27/1 472/28/1
f 473/29/1 474/30/1 475/31/1 476/32/1
f 477/21/1 478/22/1 479/23/1 480/24/1
f 481/13/1 482/14/1 483/15/1 484/16/1
f 485/25/1 486/26/1 487/27/1 488/28/1
f 489/29/1 490/30/1 491/31/1 492/32/1
f 493/21/1 494/22/1 495/23/1 496/24/1
f 497/13/1 498/14/1 499/15/1 500/16/1
f 501/25/1 502/26/1 503/27/1 504/28/1
f 505/29/1 506/30/1 507/31/1 508/32/1
f 509/21/1 510/22/1 511/23/1 512/24/1
f 513/13/1 514/14/1 515/15/1 516/16/1
f 517/25/1 518/26/1 519/27/1 520/28/1
f 521/29/1 522/30/1 523/31/1 524/32/1
f 525/17/1 526/18/1 527/19/1 528/20/1
f 529/5/1 530/6/1 531/7/1 532/8/1
f 533/5/1 534/6/1 535/7/1 536/8/1
f 537/5/1 538/6/1 539/7/1 540/8/1
f 541/5/1 542/6/1 543/7/1 544/8/1
f 545/5/1 546/6/1 547/7/1 548/8/1
f 549/5/1 550/6/1 551/7/1 552/8/1
f 553/5/1 554/6/1 555/7/1 556/8/1
f 557/5/1 558/6/1 559/7/1 560/8/1
f 561/5/1 562/6/1 563/7/1 564/8/1
f 565/5/1 566/6/1 567/7/1 568/8/1
f 569/5/1 570/6/1 571/7/1 572/8/1
f 573/5/1 574/6/1 575/7/1 576/8/1
f 577/5/1 578/6/1 579/7/1 580/8/1
f 581/5/1 582/6/1 583/7/1 584/8/1
f 585/5/1 586/6/1 587/7/1 588/8/1
f 589/5/1 590/6/1 591/7/1 592/8/1
f 593/5/1 594/6/1 595/7/1 596/8/1
f 597/5/1 598/6/1 599/7/1 600/8/1
f 601/5/1 602/6/1 603/7/1 604/8/1
f 605/5/1 606/6/1 607/7/1 608/8/1
f 609/5/1 610/6/1 611/7/1 612/8/1
f 613/9/1 614/10/1 615/11/1 616/12/1
f 617/13/1 618/14/1 619/15/1 620/16/1
f 621/17/1 622/18/1 623/19/1 624/20/1
f 625/17/1 626/18/1 627/19/1 628/20/1
f 629/17/1 630/18/1 631/19/1 632/20/1
f 633/33/1 634/34/1 635/35/1 636/36/1
f 637/33/1 638/34/1 639/35/1 640/36/1
f 641/33/1 642/34/1 643/35/1 644/36/1
f 645/33/1 646/34/1 647/35/1 648/36/1
f 649/33/1 650/34/1 651/35/1 652/36/1
f 653/33/1 654/34/1 655/35/1 656/36/1
f 657/33/1 658/34/1 659/35/1 660/36/1
f 661/33/1 662/34/1 663/35/1 664/36/1
f 665/33/1 666/34/1 667/35/1 668/36/1
f 669/33/1 670/34/1 671/35/1 672/36/1
f 673/33/1 674/34/1 675/35/1 676/36/1
f 677/33/1 678/34/1 679/35/1 680/36/1
f 681/33/1 682/34/1 683/35/1 684/36/1
f 685/33/1 686/34/1 687/35/1 688/36/1
f 689/33/1 690/34/1 691/35/1 692/36/1
f 693/33/1 694/34/1 695/35/1 696/36/1
f 697/33/1 698/34/1 699/35/1 700/36/1
f 701/33/1 702/34/1 703/35/1 704/36/1
f 705/33/1 706/34/1 707/35/1 708/36/1
f 709/33/1 710/34/1 711/35/1 712/36/1
f 713/33/1 714/34/1 715/35/1 716/36/1
f 717/21/1 718/22/1 719/23/1 720/24/1
f 721/13/1 722/14/1 723/15/1 724/16/1
f 725/25/1 726/26/1 727/27/1 728/28/1
f 729/29/1 730/30/1 731/31/1 732/32/1
f 733/17/1 734/18/1 735/19/1 736/20/1
f 737/37/1 738/38/1 739/39/1 740/40/1
f 741/37/1 742/38/1 743/39/1 744/40/1
f 745/37/1 746/38/1 747/39/1 748/40/1
f 749/37/1 750/38/1 751/39/1 752/40/1
f 753/37/1 754/38/1 755/39/1 756/40/1
f 757/37/1 758/38/1 759/39/1 760/40/1
f 761/37/1 762/38/1 763/39/1 764/40/1
f 765/37/1 766/38/1 767/39/1 768/40/1
f 769/37/1 770/38/1 771/39/1 772/40/1
f 773/37/1 774/38/1 775/39/1 776/40/1
f 777/37/1 778/38/1 779/39/1 780/40/1
f 781/37/1 782/38/1 783/39/1 784/40/1
f 785/37/1 786/38/1 787/39/1 788/40/1
f 789/37/1 790/38/1 791/39/1 792/40/1
f 793/37/1 794/38/1 795/39/1 796/40/1
f 797/37/1 798/38/1 799/39/1 800/40/1
f 801/37/1 802/38/1 803/39/1 804/40/1
f 805/37/1 806/38/1 807/39/1 808/40/1
f 809/37/1 810/38/1 811/39/1 812/40/1
f 813/37/1 814/38/1 815/39/1 816/40/1
f 817/37/1 818/38/1 819/39/1 820/40/1
f 821/21/1 822/22/1 823/23/1 824/24/1
f 825/13/1 826/14/1 827/15/1 828/16/1
f 829/25/1 830/26/1 831/27/1 832/28/1
f 833/29/1 834/30/1 835/31/1 836/32/1
f 837/17/1 838/18/1 839/19/1 840/20/1
f 841/41/1 842/42/1 843/43/1 844/44/1
f 845/41/1 846/42/1 847/43/1 848/44/1
f 849/41/1 850/42/1 851/43/1 852/44/1
f 853/41/1 854/42/1 855/43/1 856/44/1
f 857/41/1 858/42/1 859/43/1 860/44/1
f 861/41/1 862/42/1 863/43/1 864/44/1
f 865/41/1 866/42/1 867/43/1 868/44/1
f 869/41/1 870/42/1 871/43/1 872/44/1
f 873/41/1 874/42/1 875/43/1 876/44/1
f 877/41/1 878/42/1 879/43/1 880/44/1
f 881/41/1 882/42/1 883/43/1 884/44/1
f 885/41/1 886/42/1 887/43/1 888/44/1
f 889/41/1 890/42/1 891/43/1 892/44/1
f 893/41/1 894/42/1 895/43/1 896/44/1
f 897/41/1 898/42/1 899/43/1 900/44/1
f 901/41/1 902/42/1 903/43/1 904/44/1
f 905/41/1 906/42/1 907/43/1 908/44/1
f 909/41/1 910/42/1 911/43/1 912/44/1
f 913/41/1 914/42/1 915/43/1 916/44/1
f 917/41/1 918/42/1 919/43/1 920/44/1
f 921/41/1 922/42/1 923/43/1 924/44/1
f 925/45/1 926/46/1 927/47/1 928/48/1
f 929/17/1 930/18/1 931/19/1 932/20/1
f 933/25/1 934/26/1 935/27/1 936/28/1
f 937/29/1 938/30/1 939/31/1 940/32/1
f 941/21/1 942/22/1 943/23/1 944/24/1
f 945/17/1 946/18/1 947/19/1 948/20/1
f 949/25/1 950/26/1 951/27/1 952/28/1
f 953/29/1 954/30/1 955/31/1 956/32/1
f 957/21/1 958/22/1 959/23/1 960/24/1
f 961/17/1 962/18/1 963/19/1 964/20/1
f 965/17/1 966/18/1 967/19/1 968/20/1
f 969/17/1 970/18/1 971/19/1 972/20/1
f 973/21/1 974/22/1 975/23/1 976/24/1
f 977/41/1 978/42/1 979/43/1 980/44/1
f 981/41/1 982/42/1 983/43/1 984/44/1
f 985/41/1 986/42/1 987/43/1 988/44/1
f 989/45/1 990/46/1 991/47/1 992/48/1

