﻿# Tiled2Unity generated file. Do not modify by hand.
# Wavefront file for 'WorldMap_mesh_0013.obj'

# Vertices (Count = 4)
v -87.46667 -71.46667 0
v -91.73334 -71.46667 0
v -91.73334 -67.2 0
v -87.46667 -67.2 0

# Texture cooridinates (Count = 4)
vt 0 0
vt 1 0
vt 1 1
vt 0 1

# Normal
vn 0 0 -1

# Mesh description
g WorldMap_mesh_0013

# Faces
f 1/1/1 2/2/1 3/3/1 4/4/1

