﻿# Tiled2Unity generated file. Do not modify by hand.
# Wavefront file for 'HesHall(Inside)_mesh_0014.obj'

# Vertices (Count = 32)
v -51.2 -48 0
v -52.26667 -48 0
v -52.26667 -46.93333 0
v -51.2 -46.93333 0
v -48 -49.06667 0
v -49.06667 -49.06667 0
v -49.06667 -48 0
v -48 -48 0
v -49.06667 -49.06667 0
v -50.13334 -49.06667 0
v -50.13334 -48 0
v -49.06667 -48 0
v -50.13334 -49.06667 0
v -51.2 -49.06667 0
v -51.2 -48 0
v -50.13334 -48 0
v -51.2 -49.06667 0
v -52.26667 -49.06667 0
v -52.26667 -48 0
v -51.2 -48 0
v -52.26667 -49.06667 0
v -53.33334 -49.06667 0
v -53.33334 -48 0
v -52.26667 -48 0
v -53.33334 -49.06667 0
v -54.4 -49.06667 0
v -54.4 -48 0
v -53.33334 -48 0
v -54.4 -49.06667 0
v -55.46667 -49.06667 0
v -55.46667 -48 0
v -54.4 -48 0

# Texture cooridinates (Count = 16)
vt 0 0.8360656
vt 0.03501094 0.8360656
vt 0.03501094 0.8885246
vt 0 0.8885246
vt 0 0.8918033
vt 0.03501094 0.8918033
vt 0.03501094 0.9442623
vt 0 0.9442623
vt 0.03719912 0.8918033
vt 0.07221007 0.8918033
vt 0.07221007 0.9442623
vt 0.03719912 0.9442623
vt 0.07439825 0.8918033
vt 0.1094092 0.8918033
vt 0.1094092 0.9442623
vt 0.07439825 0.9442623

# Normal
vn 0 0 -1

# Mesh description
g HesHall(Inside)_mesh_0014

# Faces
f 1/1/1 2/2/1 3/3/1 4/4/1
f 5/5/1 6/6/1 7/7/1 8/8/1
f 9/9/1 10/10/1 11/11/1 12/12/1
f 13/9/1 14/10/1 15/11/1 16/12/1
f 17/9/1 18/10/1 19/11/1 20/12/1
f 21/9/1 22/10/1 23/11/1 24/12/1
f 25/9/1 26/10/1 27/11/1 28/12/1
f 29/13/1 30/14/1 31/15/1 32/16/1

