﻿# Tiled2Unity generated file. Do not modify by hand.
# Wavefront file for 'HesHall(Inside)_mesh_0008.obj'

# Vertices (Count = 28)
v -41.6 -40.53334 0
v -42.66667 -40.53334 0
v -42.66667 -39.46667 0
v -41.6 -39.46667 0
v -49.06667 -40.53334 0
v -50.13334 -40.53334 0
v -50.13334 -39.46667 0
v -49.06667 -39.46667 0
v -50.13334 -40.53334 0
v -51.2 -40.53334 0
v -51.2 -39.46667 0
v -50.13334 -39.46667 0
v -51.2 -40.53334 0
v -52.26667 -40.53334 0
v -52.26667 -39.46667 0
v -51.2 -39.46667 0
v -52.26667 -40.53334 0
v -53.33334 -40.53334 0
v -53.33334 -39.46667 0
v -52.26667 -39.46667 0
v -53.33334 -40.53334 0
v -54.4 -40.53334 0
v -54.4 -39.46667 0
v -53.33334 -39.46667 0
v -60.8 -40.53334 0
v -61.86667 -40.53334 0
v -61.86667 -39.46667 0
v -60.8 -39.46667 0

# Texture cooridinates (Count = 16)
vt 0.8183808 0.390164
vt 0.8533917 0.390164
vt 0.8533917 0.442623
vt 0.8183808 0.442623
vt 0.595186 0.1672131
vt 0.6301969 0.1672131
vt 0.6301969 0.2196721
vt 0.595186 0.2196721
vt 0.6323851 0.1672131
vt 0.6673961 0.1672131
vt 0.6673961 0.2196721
vt 0.6323851 0.2196721
vt 0.6695843 0.1672131
vt 0.7045952 0.1672131
vt 0.7045952 0.2196721
vt 0.6695843 0.2196721

# Normal
vn 0 0 -1

# Mesh description
g HesHall(Inside)_mesh_0008

# Faces
f 1/1/1 2/2/1 3/3/1 4/4/1
f 5/5/1 6/6/1 7/7/1 8/8/1
f 9/9/1 10/10/1 11/11/1 12/12/1
f 13/9/1 14/10/1 15/11/1 16/12/1
f 17/9/1 18/10/1 19/11/1 20/12/1
f 21/13/1 22/14/1 23/15/1 24/16/1
f 25/1/1 26/2/1 27/3/1 28/4/1

