﻿# Tiled2Unity generated file. Do not modify by hand.
# Wavefront file for 'HesHall(Inside)_mesh_0004.obj'

# Vertices (Count = 40)
v -49.06667 -39.46667 0
v -50.13334 -39.46667 0
v -50.13334 -38.4 0
v -49.06667 -38.4 0
v -50.13334 -56.53334 0
v -51.2 -56.53334 0
v -51.2 -55.46667 0
v -50.13334 -55.46667 0
v -51.2 -56.53334 0
v -52.26667 -56.53334 0
v -52.26667 -55.46667 0
v -51.2 -55.46667 0
v -52.26667 -56.53334 0
v -53.33334 -56.53334 0
v -53.33334 -55.46667 0
v -52.26667 -55.46667 0
v -50.13334 -57.6 0
v -51.2 -57.6 0
v -51.2 -56.53334 0
v -50.13334 -56.53334 0
v -51.2 -57.6 0
v -52.26667 -57.6 0
v -52.26667 -56.53334 0
v -51.2 -56.53334 0
v -52.26667 -57.6 0
v -53.33334 -57.6 0
v -53.33334 -56.53334 0
v -52.26667 -56.53334 0
v -50.13334 -58.66667 0
v -51.2 -58.66667 0
v -51.2 -57.6 0
v -50.13334 -57.6 0
v -51.2 -58.66667 0
v -52.26667 -58.66667 0
v -52.26667 -57.6 0
v -51.2 -57.6 0
v -52.26667 -58.66667 0
v -53.33334 -58.66667 0
v -53.33334 -57.6 0
v -52.26667 -57.6 0

# Texture cooridinates (Count = 36)
vt 0.7601626 0.1672131
vt 0.7926829 0.1672131
vt 0.7926829 0.2196721
vt 0.7601626 0.2196721
vt 0.7256098 0.2229508
vt 0.7581301 0.2229508
vt 0.7581301 0.2754098
vt 0.7256098 0.2754098
vt 0.7601626 0.2229508
vt 0.7926829 0.2229508
vt 0.7926829 0.2754098
vt 0.7601626 0.2754098
vt 0.7947155 0.2229508
vt 0.8272358 0.2229508
vt 0.8272358 0.2754098
vt 0.7947155 0.2754098
vt 0.7256098 0.1672131
vt 0.7581301 0.1672131
vt 0.7581301 0.2196721
vt 0.7256098 0.2196721
vt 0.7947155 0.1672131
vt 0.8272358 0.1672131
vt 0.8272358 0.2196721
vt 0.7947155 0.2196721
vt 0.7256098 0.1114754
vt 0.7581301 0.1114754
vt 0.7581301 0.1639344
vt 0.7256098 0.1639344
vt 0.7601626 0.1114754
vt 0.7926829 0.1114754
vt 0.7926829 0.1639344
vt 0.7601626 0.1639344
vt 0.7947155 0.1114754
vt 0.8272358 0.1114754
vt 0.8272358 0.1639344
vt 0.7947155 0.1639344

# Normal
vn 0 0 -1

# Mesh description
g HesHall(Inside)_mesh_0004

# Faces
f 1/1/1 2/2/1 3/3/1 4/4/1
f 5/5/1 6/6/1 7/7/1 8/8/1
f 9/9/1 10/10/1 11/11/1 12/12/1
f 13/13/1 14/14/1 15/15/1 16/16/1
f 17/17/1 18/18/1 19/19/1 20/20/1
f 21/1/1 22/2/1 23/3/1 24/4/1
f 25/21/1 26/22/1 27/23/1 28/24/1
f 29/25/1 30/26/1 31/27/1 32/28/1
f 33/29/1 34/30/1 35/31/1 36/32/1
f 37/33/1 38/34/1 39/35/1 40/36/1

