﻿# Tiled2Unity generated file. Do not modify by hand.
# Wavefront file for 'JackLyons_mesh_0010.obj'

# Vertices (Count = 228)
v -41.6 -21.33333 0
v -42.66667 -21.33333 0
v -42.66667 -20.26667 0
v -41.6 -20.26667 0
v -42.66667 -21.33333 0
v -43.73334 -21.33333 0
v -43.73334 -20.26667 0
v -42.66667 -20.26667 0
v -43.73334 -21.33333 0
v -44.8 -21.33333 0
v -44.8 -20.26667 0
v -43.73334 -20.26667 0
v -44.8 -21.33333 0
v -45.86667 -21.33333 0
v -45.86667 -20.26667 0
v -44.8 -20.26667 0
v -45.86667 -21.33333 0
v -46.93333 -21.33333 0
v -46.93333 -20.26667 0
v -45.86667 -20.26667 0
v -46.93333 -21.33333 0
v -48 -21.33333 0
v -48 -20.26667 0
v -46.93333 -20.26667 0
v -48 -21.33333 0
v -49.06667 -21.33333 0
v -49.06667 -20.26667 0
v -48 -20.26667 0
v -49.06667 -21.33333 0
v -50.13334 -21.33333 0
v -50.13334 -20.26667 0
v -49.06667 -20.26667 0
v -50.13334 -21.33333 0
v -51.2 -21.33333 0
v -51.2 -20.26667 0
v -50.13334 -20.26667 0
v -51.2 -21.33333 0
v -52.26667 -21.33333 0
v -52.26667 -20.26667 0
v -51.2 -20.26667 0
v -52.26667 -21.33333 0
v -53.33334 -21.33333 0
v -53.33334 -20.26667 0
v -52.26667 -20.26667 0
v -53.33334 -21.33333 0
v -54.4 -21.33333 0
v -54.4 -20.26667 0
v -53.33334 -20.26667 0
v -54.4 -21.33333 0
v -55.46667 -21.33333 0
v -55.46667 -20.26667 0
v -54.4 -20.26667 0
v -55.46667 -21.33333 0
v -56.53334 -21.33333 0
v -56.53334 -20.26667 0
v -55.46667 -20.26667 0
v -56.53334 -21.33333 0
v -57.6 -21.33333 0
v -57.6 -20.26667 0
v -56.53334 -20.26667 0
v -57.6 -21.33333 0
v -58.66667 -21.33333 0
v -58.66667 -20.26667 0
v -57.6 -20.26667 0
v -58.66667 -21.33333 0
v -59.73334 -21.33333 0
v -59.73334 -20.26667 0
v -58.66667 -20.26667 0
v -59.73334 -21.33333 0
v -60.8 -21.33333 0
v -60.8 -20.26667 0
v -59.73334 -20.26667 0
v -60.8 -21.33333 0
v -61.86667 -21.33333 0
v -61.86667 -20.26667 0
v -60.8 -20.26667 0
v -41.6 -22.4 0
v -42.66667 -22.4 0
v -42.66667 -21.33333 0
v -41.6 -21.33333 0
v -60.8 -22.4 0
v -61.86667 -22.4 0
v -61.86667 -21.33333 0
v -60.8 -21.33333 0
v -41.6 -23.46667 0
v -42.66667 -23.46667 0
v -42.66667 -22.4 0
v -41.6 -22.4 0
v -60.8 -23.46667 0
v -61.86667 -23.46667 0
v -61.86667 -22.4 0
v -60.8 -22.4 0
v -41.6 -24.53333 0
v -42.66667 -24.53333 0
v -42.66667 -23.46667 0
v -41.6 -23.46667 0
v -60.8 -24.53333 0
v -61.86667 -24.53333 0
v -61.86667 -23.46667 0
v -60.8 -23.46667 0
v -40.53334 -25.6 0
v -41.6 -25.6 0
v -41.6 -24.53333 0
v -40.53334 -24.53333 0
v -41.6 -25.6 0
v -42.66667 -25.6 0
v -42.66667 -24.53333 0
v -41.6 -24.53333 0
v -60.8 -25.6 0
v -61.86667 -25.6 0
v -61.86667 -24.53333 0
v -60.8 -24.53333 0
v -61.86667 -25.6 0
v -62.93334 -25.6 0
v -62.93334 -24.53333 0
v -61.86667 -24.53333 0
v -40.53334 -26.66667 0
v -41.6 -26.66667 0
v -41.6 -25.6 0
v -40.53334 -25.6 0
v -61.86667 -26.66667 0
v -62.93334 -26.66667 0
v -62.93334 -25.6 0
v -61.86667 -25.6 0
v -40.53334 -27.73334 0
v -41.6 -27.73334 0
v -41.6 -26.66667 0
v -40.53334 -26.66667 0
v -61.86667 -27.73334 0
v -62.93334 -27.73334 0
v -62.93334 -26.66667 0
v -61.86667 -26.66667 0
v -39.46667 -28.8 0
v -40.53334 -28.8 0
v -40.53334 -27.73334 0
v -39.46667 -27.73334 0
v -40.53334 -28.8 0
v -41.6 -28.8 0
v -41.6 -27.73334 0
v -40.53334 -27.73334 0
v -61.86667 -28.8 0
v -62.93334 -28.8 0
v -62.93334 -27.73334 0
v -61.86667 -27.73334 0
v -62.93334 -28.8 0
v -64 -28.8 0
v -64 -27.73334 0
v -62.93334 -27.73334 0
v -39.46667 -29.86667 0
v -40.53334 -29.86667 0
v -40.53334 -28.8 0
v -39.46667 -28.8 0
v -62.93334 -29.86667 0
v -64 -29.86667 0
v -64 -28.8 0
v -62.93334 -28.8 0
v -39.46667 -30.93333 0
v -40.53334 -30.93333 0
v -40.53334 -29.86667 0
v -39.46667 -29.86667 0
v -62.93334 -30.93333 0
v -64 -30.93333 0
v -64 -29.86667 0
v -62.93334 -29.86667 0
v -38.4 -32 0
v -39.46667 -32 0
v -39.46667 -30.93333 0
v -38.4 -30.93333 0
v -39.46667 -32 0
v -40.53334 -32 0
v -40.53334 -30.93333 0
v -39.46667 -30.93333 0
v -62.93334 -32 0
v -64 -32 0
v -64 -30.93333 0
v -62.93334 -30.93333 0
v -64 -32 0
v -65.06667 -32 0
v -65.06667 -30.93333 0
v -64 -30.93333 0
v -38.4 -33.06667 0
v -39.46667 -33.06667 0
v -39.46667 -32 0
v -38.4 -32 0
v -64 -33.06667 0
v -65.06667 -33.06667 0
v -65.06667 -32 0
v -64 -32 0
v -38.4 -34.13334 0
v -39.46667 -34.13334 0
v -39.46667 -33.06667 0
v -38.4 -33.06667 0
v -64 -34.13334 0
v -65.06667 -34.13334 0
v -65.06667 -33.06667 0
v -64 -33.06667 0
v -37.33334 -35.2 0
v -38.4 -35.2 0
v -38.4 -34.13334 0
v -37.33334 -34.13334 0
v -38.4 -35.2 0
v -39.46667 -35.2 0
v -39.46667 -34.13334 0
v -38.4 -34.13334 0
v -64 -35.2 0
v -65.06667 -35.2 0
v -65.06667 -34.13334 0
v -64 -34.13334 0
v -65.06667 -35.2 0
v -66.13334 -35.2 0
v -66.13334 -34.13334 0
v -65.06667 -34.13334 0
v -37.33334 -36.26667 0
v -38.4 -36.26667 0
v -38.4 -35.2 0
v -37.33334 -35.2 0
v -65.06667 -36.26667 0
v -66.13334 -36.26667 0
v -66.13334 -35.2 0
v -65.06667 -35.2 0
v -37.33334 -37.33334 0
v -38.4 -37.33334 0
v -38.4 -36.26667 0
v -37.33334 -36.26667 0
v -65.06667 -37.33334 0
v -66.13334 -37.33334 0
v -66.13334 -36.26667 0
v -65.06667 -36.26667 0

# Texture cooridinates (Count = 24)
vt 0.4039256 0.5817491
vt 0.4204545 0.5817491
vt 0.4204545 0.6121673
vt 0.4039256 0.6121673
vt 0.3688017 0.5817491
vt 0.3853306 0.5817491
vt 0.3853306 0.6121673
vt 0.3688017 0.6121673
vt 0.4214876 0.5817491
vt 0.4380165 0.5817491
vt 0.4380165 0.6121673
vt 0.4214876 0.6121673
vt 0.3863636 0.5494297
vt 0.4028926 0.5494297
vt 0.4028926 0.5798479
vt 0.3863636 0.5798479
vt 0.4214876 0.5494297
vt 0.4380165 0.5494297
vt 0.4380165 0.5798479
vt 0.4214876 0.5798479
vt 0.4039256 0.5494297
vt 0.4204545 0.5494297
vt 0.4204545 0.5798479
vt 0.4039256 0.5798479

# Normal
vn 0 0 -1

# Mesh description
g JackLyons_mesh_0010

# Faces
f 1/1/1 2/2/1 3/3/1 4/4/1
f 5/5/1 6/6/1 7/7/1 8/8/1
f 9/5/1 10/6/1 11/7/1 12/8/1
f 13/5/1 14/6/1 15/7/1 16/8/1
f 17/5/1 18/6/1 19/7/1 20/8/1
f 21/5/1 22/6/1 23/7/1 24/8/1
f 25/5/1 26/6/1 27/7/1 28/8/1
f 29/5/1 30/6/1 31/7/1 32/8/1
f 33/5/1 34/6/1 35/7/1 36/8/1
f 37/5/1 38/6/1 39/7/1 40/8/1
f 41/5/1 42/6/1 43/7/1 44/8/1
f 45/5/1 46/6/1 47/7/1 48/8/1
f 49/5/1 50/6/1 51/7/1 52/8/1
f 53/5/1 54/6/1 55/7/1 56/8/1
f 57/5/1 58/6/1 59/7/1 60/8/1
f 61/5/1 62/6/1 63/7/1 64/8/1
f 65/5/1 66/6/1 67/7/1 68/8/1
f 69/5/1 70/6/1 71/7/1 72/8/1
f 73/9/1 74/10/1 75/11/1 76/12/1
f 77/13/1 78/14/1 79/15/1 80/16/1
f 81/13/1 82/14/1 83/15/1 84/16/1
f 85/13/1 86/14/1 87/15/1 88/16/1
f 89/13/1 90/14/1 91/15/1 92/16/1
f 93/13/1 94/14/1 95/15/1 96/16/1
f 97/13/1 98/14/1 99/15/1 100/16/1
f 101/1/1 102/2/1 103/3/1 104/4/1
f 105/17/1 106/18/1 107/19/1 108/20/1
f 109/21/1 110/22/1 111/23/1 112/24/1
f 113/9/1 114/10/1 115/11/1 116/12/1
f 117/13/1 118/14/1 119/15/1 120/16/1
f 121/13/1 122/14/1 123/15/1 124/16/1
f 125/13/1 126/14/1 127/15/1 128/16/1
f 129/13/1 130/14/1 131/15/1 132/16/1
f 133/1/1 134/2/1 135/3/1 136/4/1
f 137/17/1 138/18/1 139/19/1 140/20/1
f 141/21/1 142/22/1 143/23/1 144/24/1
f 145/9/1 146/10/1 147/11/1 148/12/1
f 149/13/1 150/14/1 151/15/1 152/16/1
f 153/13/1 154/14/1 155/15/1 156/16/1
f 157/13/1 158/14/1 159/15/1 160/16/1
f 161/13/1 162/14/1 163/15/1 164/16/1
f 165/1/1 166/2/1 167/3/1 168/4/1
f 169/17/1 170/18/1 171/19/1 172/20/1
f 173/21/1 174/22/1 175/23/1 176/24/1
f 177/9/1 178/10/1 179/11/1 180/12/1
f 181/13/1 182/14/1 183/15/1 184/16/1
f 185/13/1 186/14/1 187/15/1 188/16/1
f 189/13/1 190/14/1 191/15/1 192/16/1
f 193/13/1 194/14/1 195/15/1 196/16/1
f 197/1/1 198/2/1 199/3/1 200/4/1
f 201/17/1 202/18/1 203/19/1 204/20/1
f 205/21/1 206/22/1 207/23/1 208/24/1
f 209/9/1 210/10/1 211/11/1 212/12/1
f 213/13/1 214/14/1 215/15/1 216/16/1
f 217/13/1 218/14/1 219/15/1 220/16/1
f 221/17/1 222/18/1 223/19/1 224/20/1
f 225/21/1 226/22/1 227/23/1 228/24/1

