﻿# Tiled2Unity generated file. Do not modify by hand.
# Wavefront file for 'JackLyons_mesh_0017.obj'

# Vertices (Count = 12)
v -44.8 -22.4 0
v -45.86667 -22.4 0
v -45.86667 -21.33333 0
v -44.8 -21.33333 0
v -51.2 -22.4 0
v -52.26667 -22.4 0
v -52.26667 -21.33333 0
v -51.2 -21.33333 0
v -57.6 -22.4 0
v -58.66667 -22.4 0
v -58.66667 -21.33333 0
v -57.6 -21.33333 0

# Texture cooridinates (Count = 4)
vt 0.2985537 0.7110266
vt 0.3150826 0.7110266
vt 0.3150826 0.7414448
vt 0.2985537 0.7414448

# Normal
vn 0 0 -1

# Mesh description
g JackLyons_mesh_0017

# Faces
f 1/1/1 2/2/1 3/3/1 4/4/1
f 5/1/1 6/2/1 7/3/1 8/4/1
f 9/1/1 10/2/1 11/3/1 12/4/1

