﻿# Tiled2Unity generated file. Do not modify by hand.
# Wavefront file for 'JackLyons_mesh_0008.obj'

# Vertices (Count = 76)
v -44.8 -24.53333 0
v -45.86667 -24.53333 0
v -45.86667 -23.46667 0
v -44.8 -23.46667 0
v -49.06667 -24.53333 0
v -50.13334 -24.53333 0
v -50.13334 -23.46667 0
v -49.06667 -23.46667 0
v -51.2 -24.53333 0
v -52.26667 -24.53333 0
v -52.26667 -23.46667 0
v -51.2 -23.46667 0
v -55.46667 -24.53333 0
v -56.53334 -24.53333 0
v -56.53334 -23.46667 0
v -55.46667 -23.46667 0
v -57.6 -24.53333 0
v -58.66667 -24.53333 0
v -58.66667 -23.46667 0
v -57.6 -23.46667 0
v -44.8 -25.6 0
v -45.86667 -25.6 0
v -45.86667 -24.53333 0
v -44.8 -24.53333 0
v -46.93333 -25.6 0
v -48 -25.6 0
v -48 -24.53333 0
v -46.93333 -24.53333 0
v -49.06667 -25.6 0
v -50.13334 -25.6 0
v -50.13334 -24.53333 0
v -49.06667 -24.53333 0
v -51.2 -25.6 0
v -52.26667 -25.6 0
v -52.26667 -24.53333 0
v -51.2 -24.53333 0
v -53.33334 -25.6 0
v -54.4 -25.6 0
v -54.4 -24.53333 0
v -53.33334 -24.53333 0
v -55.46667 -25.6 0
v -56.53334 -25.6 0
v -56.53334 -24.53333 0
v -55.46667 -24.53333 0
v -57.6 -25.6 0
v -58.66667 -25.6 0
v -58.66667 -24.53333 0
v -57.6 -24.53333 0
v -44.8 -26.66667 0
v -45.86667 -26.66667 0
v -45.86667 -25.6 0
v -44.8 -25.6 0
v -46.93333 -26.66667 0
v -48 -26.66667 0
v -48 -25.6 0
v -46.93333 -25.6 0
v -49.06667 -26.66667 0
v -50.13334 -26.66667 0
v -50.13334 -25.6 0
v -49.06667 -25.6 0
v -51.2 -26.66667 0
v -52.26667 -26.66667 0
v -52.26667 -25.6 0
v -51.2 -25.6 0
v -53.33334 -26.66667 0
v -54.4 -26.66667 0
v -54.4 -25.6 0
v -53.33334 -25.6 0
v -55.46667 -26.66667 0
v -56.53334 -26.66667 0
v -56.53334 -25.6 0
v -55.46667 -25.6 0
v -57.6 -26.66667 0
v -58.66667 -26.66667 0
v -58.66667 -25.6 0
v -57.6 -25.6 0

# Texture cooridinates (Count = 24)
vt 0.1382114 0.6131147
vt 0.1707317 0.6131147
vt 0.1707317 0.6655738
vt 0.1382114 0.6655738
vt 0.06910569 0.6688524
vt 0.101626 0.6688524
vt 0.101626 0.7213115
vt 0.06910569 0.7213115
vt 0.1036585 0.6131147
vt 0.1361789 0.6131147
vt 0.1361789 0.6655738
vt 0.1036585 0.6655738
vt 0.1036585 0.6688524
vt 0.1361789 0.6688524
vt 0.1361789 0.7213115
vt 0.1036585 0.7213115
vt 0 0.6131147
vt 0.03252032 0.6131147
vt 0.03252032 0.6655738
vt 0 0.6655738
vt 0.06910569 0.6131147
vt 0.101626 0.6131147
vt 0.101626 0.6655738
vt 0.06910569 0.6655738

# Normal
vn 0 0 -1

# Mesh description
g JackLyons_mesh_0008

# Faces
f 1/1/1 2/2/1 3/3/1 4/4/1
f 5/1/1 6/2/1 7/3/1 8/4/1
f 9/5/1 10/6/1 11/7/1 12/8/1
f 13/5/1 14/6/1 15/7/1 16/8/1
f 17/1/1 18/2/1 19/3/1 20/4/1
f 21/9/1 22/10/1 23/11/1 24/12/1
f 25/1/1 26/2/1 27/3/1 28/4/1
f 29/9/1 30/10/1 31/11/1 32/12/1
f 33/13/1 34/14/1 35/15/1 36/16/1
f 37/1/1 38/2/1 39/3/1 40/4/1
f 41/9/1 42/10/1 43/11/1 44/12/1
f 45/13/1 46/14/1 47/15/1 48/16/1
f 49/17/1 50/18/1 51/19/1 52/20/1
f 53/21/1 54/22/1 55/23/1 56/24/1
f 57/21/1 58/22/1 59/23/1 60/24/1
f 61/21/1 62/22/1 63/23/1 64/24/1
f 65/21/1 66/22/1 67/23/1 68/24/1
f 69/21/1 70/22/1 71/23/1 72/24/1
f 73/17/1 74/18/1 75/19/1 76/20/1

