﻿# Tiled2Unity generated file. Do not modify by hand.
# Wavefront file for 'JackLyons_mesh_0006.obj'

# Vertices (Count = 240)
v -44.8 -36.26667 0
v -45.86667 -36.26667 0
v -45.86667 -35.2 0
v -44.8 -35.2 0
v -45.86667 -36.26667 0
v -46.93333 -36.26667 0
v -46.93333 -35.2 0
v -45.86667 -35.2 0
v -46.93333 -36.26667 0
v -48 -36.26667 0
v -48 -35.2 0
v -46.93333 -35.2 0
v -55.46667 -36.26667 0
v -56.53334 -36.26667 0
v -56.53334 -35.2 0
v -55.46667 -35.2 0
v -56.53334 -36.26667 0
v -57.6 -36.26667 0
v -57.6 -35.2 0
v -56.53334 -35.2 0
v -57.6 -36.26667 0
v -58.66667 -36.26667 0
v -58.66667 -35.2 0
v -57.6 -35.2 0
v -44.8 -37.33334 0
v -45.86667 -37.33334 0
v -45.86667 -36.26667 0
v -44.8 -36.26667 0
v -45.86667 -37.33334 0
v -46.93333 -37.33334 0
v -46.93333 -36.26667 0
v -45.86667 -36.26667 0
v -46.93333 -37.33334 0
v -48 -37.33334 0
v -48 -36.26667 0
v -46.93333 -36.26667 0
v -55.46667 -37.33334 0
v -56.53334 -37.33334 0
v -56.53334 -36.26667 0
v -55.46667 -36.26667 0
v -56.53334 -37.33334 0
v -57.6 -37.33334 0
v -57.6 -36.26667 0
v -56.53334 -36.26667 0
v -57.6 -37.33334 0
v -58.66667 -37.33334 0
v -58.66667 -36.26667 0
v -57.6 -36.26667 0
v -44.8 -38.4 0
v -45.86667 -38.4 0
v -45.86667 -37.33334 0
v -44.8 -37.33334 0
v -45.86667 -38.4 0
v -46.93333 -38.4 0
v -46.93333 -37.33334 0
v -45.86667 -37.33334 0
v -46.93333 -38.4 0
v -48 -38.4 0
v -48 -37.33334 0
v -46.93333 -37.33334 0
v -55.46667 -38.4 0
v -56.53334 -38.4 0
v -56.53334 -37.33334 0
v -55.46667 -37.33334 0
v -56.53334 -38.4 0
v -57.6 -38.4 0
v -57.6 -37.33334 0
v -56.53334 -37.33334 0
v -57.6 -38.4 0
v -58.66667 -38.4 0
v -58.66667 -37.33334 0
v -57.6 -37.33334 0
v -44.8 -39.46667 0
v -45.86667 -39.46667 0
v -45.86667 -38.4 0
v -44.8 -38.4 0
v -45.86667 -39.46667 0
v -46.93333 -39.46667 0
v -46.93333 -38.4 0
v -45.86667 -38.4 0
v -56.53334 -39.46667 0
v -57.6 -39.46667 0
v -57.6 -38.4 0
v -56.53334 -38.4 0
v -57.6 -39.46667 0
v -58.66667 -39.46667 0
v -58.66667 -38.4 0
v -57.6 -38.4 0
v -43.73334 -40.53334 0
v -44.8 -40.53334 0
v -44.8 -39.46667 0
v -43.73334 -39.46667 0
v -44.8 -40.53334 0
v -45.86667 -40.53334 0
v -45.86667 -39.46667 0
v -44.8 -39.46667 0
v -45.86667 -40.53334 0
v -46.93333 -40.53334 0
v -46.93333 -39.46667 0
v -45.86667 -39.46667 0
v -56.53334 -40.53334 0
v -57.6 -40.53334 0
v -57.6 -39.46667 0
v -56.53334 -39.46667 0
v -57.6 -40.53334 0
v -58.66667 -40.53334 0
v -58.66667 -39.46667 0
v -57.6 -39.46667 0
v -58.66667 -40.53334 0
v -59.73334 -40.53334 0
v -59.73334 -39.46667 0
v -58.66667 -39.46667 0
v -43.73334 -41.6 0
v -44.8 -41.6 0
v -44.8 -40.53334 0
v -43.73334 -40.53334 0
v -44.8 -41.6 0
v -45.86667 -41.6 0
v -45.86667 -40.53334 0
v -44.8 -40.53334 0
v -45.86667 -41.6 0
v -46.93333 -41.6 0
v -46.93333 -40.53334 0
v -45.86667 -40.53334 0
v -56.53334 -41.6 0
v -57.6 -41.6 0
v -57.6 -40.53334 0
v -56.53334 -40.53334 0
v -57.6 -41.6 0
v -58.66667 -41.6 0
v -58.66667 -40.53334 0
v -57.6 -40.53334 0
v -58.66667 -41.6 0
v -59.73334 -41.6 0
v -59.73334 -40.53334 0
v -58.66667 -40.53334 0
v -43.73334 -42.66667 0
v -44.8 -42.66667 0
v -44.8 -41.6 0
v -43.73334 -41.6 0
v -44.8 -42.66667 0
v -45.86667 -42.66667 0
v -45.86667 -41.6 0
v -44.8 -41.6 0
v -57.6 -42.66667 0
v -58.66667 -42.66667 0
v -58.66667 -41.6 0
v -57.6 -41.6 0
v -58.66667 -42.66667 0
v -59.73334 -42.66667 0
v -59.73334 -41.6 0
v -58.66667 -41.6 0
v -43.73334 -43.73334 0
v -44.8 -43.73334 0
v -44.8 -42.66667 0
v -43.73334 -42.66667 0
v -44.8 -43.73334 0
v -45.86667 -43.73334 0
v -45.86667 -42.66667 0
v -44.8 -42.66667 0
v -57.6 -43.73334 0
v -58.66667 -43.73334 0
v -58.66667 -42.66667 0
v -57.6 -42.66667 0
v -58.66667 -43.73334 0
v -59.73334 -43.73334 0
v -59.73334 -42.66667 0
v -58.66667 -42.66667 0
v -42.66667 -44.8 0
v -43.73334 -44.8 0
v -43.73334 -43.73334 0
v -42.66667 -43.73334 0
v -43.73334 -44.8 0
v -44.8 -44.8 0
v -44.8 -43.73334 0
v -43.73334 -43.73334 0
v -44.8 -44.8 0
v -45.86667 -44.8 0
v -45.86667 -43.73334 0
v -44.8 -43.73334 0
v -57.6 -44.8 0
v -58.66667 -44.8 0
v -58.66667 -43.73334 0
v -57.6 -43.73334 0
v -58.66667 -44.8 0
v -59.73334 -44.8 0
v -59.73334 -43.73334 0
v -58.66667 -43.73334 0
v -59.73334 -44.8 0
v -60.8 -44.8 0
v -60.8 -43.73334 0
v -59.73334 -43.73334 0
v -42.66667 -45.86667 0
v -43.73334 -45.86667 0
v -43.73334 -44.8 0
v -42.66667 -44.8 0
v -43.73334 -45.86667 0
v -44.8 -45.86667 0
v -44.8 -44.8 0
v -43.73334 -44.8 0
v -58.66667 -45.86667 0
v -59.73334 -45.86667 0
v -59.73334 -44.8 0
v -58.66667 -44.8 0
v -59.73334 -45.86667 0
v -60.8 -45.86667 0
v -60.8 -44.8 0
v -59.73334 -44.8 0
v -42.66667 -46.93333 0
v -43.73334 -46.93333 0
v -43.73334 -45.86667 0
v -42.66667 -45.86667 0
v -43.73334 -46.93333 0
v -44.8 -46.93333 0
v -44.8 -45.86667 0
v -43.73334 -45.86667 0
v -58.66667 -46.93333 0
v -59.73334 -46.93333 0
v -59.73334 -45.86667 0
v -58.66667 -45.86667 0
v -59.73334 -46.93333 0
v -60.8 -46.93333 0
v -60.8 -45.86667 0
v -59.73334 -45.86667 0
v -42.66667 -48 0
v -43.73334 -48 0
v -43.73334 -46.93333 0
v -42.66667 -46.93333 0
v -43.73334 -48 0
v -44.8 -48 0
v -44.8 -46.93333 0
v -43.73334 -46.93333 0
v -58.66667 -48 0
v -59.73334 -48 0
v -59.73334 -46.93333 0
v -58.66667 -46.93333 0
v -59.73334 -48 0
v -60.8 -48 0
v -60.8 -46.93333 0
v -59.73334 -46.93333 0

# Texture cooridinates (Count = 12)
vt 0.6487603 0.4505703
vt 0.6322314 0.4505703
vt 0.6322314 0.4201521
vt 0.6487603 0.4201521
vt 0.6311983 0.4505703
vt 0.6146694 0.4505703
vt 0.6146694 0.4201521
vt 0.6311983 0.4201521
vt 0.6136364 0.4505703
vt 0.5971074 0.4505703
vt 0.5971074 0.4201521
vt 0.6136364 0.4201521

# Normal
vn 0 0 -1

# Mesh description
g JackLyons_mesh_0006

# Faces
f 1/1/1 2/2/1 3/3/1 4/4/1
f 5/5/1 6/6/1 7/7/1 8/8/1
f 9/9/1 10/10/1 11/11/1 12/12/1
f 13/1/1 14/2/1 15/3/1 16/4/1
f 17/5/1 18/6/1 19/7/1 20/8/1
f 21/9/1 22/10/1 23/11/1 24/12/1
f 25/1/1 26/2/1 27/3/1 28/4/1
f 29/5/1 30/6/1 31/7/1 32/8/1
f 33/9/1 34/10/1 35/11/1 36/12/1
f 37/1/1 38/2/1 39/3/1 40/4/1
f 41/5/1 42/6/1 43/7/1 44/8/1
f 45/9/1 46/10/1 47/11/1 48/12/1
f 49/1/1 50/2/1 51/3/1 52/4/1
f 53/5/1 54/6/1 55/7/1 56/8/1
f 57/9/1 58/10/1 59/11/1 60/12/1
f 61/1/1 62/2/1 63/3/1 64/4/1
f 65/5/1 66/6/1 67/7/1 68/8/1
f 69/9/1 70/10/1 71/11/1 72/12/1
f 73/1/1 74/2/1 75/3/1 76/4/1
f 77/9/1 78/10/1 79/11/1 80/12/1
f 81/1/1 82/2/1 83/3/1 84/4/1
f 85/9/1 86/10/1 87/11/1 88/12/1
f 89/1/1 90/2/1 91/3/1 92/4/1
f 93/5/1 94/6/1 95/7/1 96/8/1
f 97/9/1 98/10/1 99/11/1 100/12/1
f 101/1/1 102/2/1 103/3/1 104/4/1
f 105/5/1 106/6/1 107/7/1 108/8/1
f 109/9/1 110/10/1 111/11/1 112/12/1
f 113/1/1 114/2/1 115/3/1 116/4/1
f 117/5/1 118/6/1 119/7/1 120/8/1
f 121/9/1 122/10/1 123/11/1 124/12/1
f 125/1/1 126/2/1 127/3/1 128/4/1
f 129/5/1 130/6/1 131/7/1 132/8/1
f 133/9/1 134/10/1 135/11/1 136/12/1
f 137/1/1 138/2/1 139/3/1 140/4/1
f 141/9/1 142/10/1 143/11/1 144/12/1
f 145/1/1 146/2/1 147/3/1 148/4/1
f 149/9/1 150/10/1 151/11/1 152/12/1
f 153/1/1 154/2/1 155/3/1 156/4/1
f 157/9/1 158/10/1 159/11/1 160/12/1
f 161/1/1 162/2/1 163/3/1 164/4/1
f 165/9/1 166/10/1 167/11/1 168/12/1
f 169/1/1 170/2/1 171/3/1 172/4/1
f 173/5/1 174/6/1 175/7/1 176/8/1
f 177/9/1 178/10/1 179/11/1 180/12/1
f 181/1/1 182/2/1 183/3/1 184/4/1
f 185/5/1 186/6/1 187/7/1 188/8/1
f 189/9/1 190/10/1 191/11/1 192/12/1
f 193/1/1 194/2/1 195/3/1 196/4/1
f 197/9/1 198/10/1 199/11/1 200/12/1
f 201/1/1 202/2/1 203/3/1 204/4/1
f 205/9/1 206/10/1 207/11/1 208/12/1
f 209/1/1 210/2/1 211/3/1 212/4/1
f 213/9/1 214/10/1 215/11/1 216/12/1
f 217/1/1 218/2/1 219/3/1 220/4/1
f 221/9/1 222/10/1 223/11/1 224/12/1
f 225/1/1 226/2/1 227/3/1 228/4/1
f 229/9/1 230/10/1 231/11/1 232/12/1
f 233/1/1 234/2/1 235/3/1 236/4/1
f 237/9/1 238/10/1 239/11/1 240/12/1

