﻿# Tiled2Unity generated file. Do not modify by hand.
# Wavefront file for 'JackLyons_mesh_0021.obj'

# Vertices (Count = 48)
v -43.73334 -50.13334 0
v -44.8 -50.13334 0
v -44.8 -49.06667 0
v -43.73334 -49.06667 0
v -45.86667 -50.13334 0
v -46.93333 -50.13334 0
v -46.93333 -49.06667 0
v -45.86667 -49.06667 0
v -55.46667 -50.13334 0
v -56.53334 -50.13334 0
v -56.53334 -49.06667 0
v -55.46667 -49.06667 0
v -58.66667 -50.13334 0
v -59.73334 -50.13334 0
v -59.73334 -49.06667 0
v -58.66667 -49.06667 0
v -41.6 -52.26667 0
v -42.66667 -52.26667 0
v -42.66667 -51.2 0
v -41.6 -51.2 0
v -43.73334 -52.26667 0
v -44.8 -52.26667 0
v -44.8 -51.2 0
v -43.73334 -51.2 0
v -45.86667 -52.26667 0
v -46.93333 -52.26667 0
v -46.93333 -51.2 0
v -45.86667 -51.2 0
v -48 -52.26667 0
v -49.06667 -52.26667 0
v -49.06667 -51.2 0
v -48 -51.2 0
v -54.4 -52.26667 0
v -55.46667 -52.26667 0
v -55.46667 -51.2 0
v -54.4 -51.2 0
v -56.53334 -52.26667 0
v -57.6 -52.26667 0
v -57.6 -51.2 0
v -56.53334 -51.2 0
v -58.66667 -52.26667 0
v -59.73334 -52.26667 0
v -59.73334 -51.2 0
v -58.66667 -51.2 0
v -60.8 -52.26667 0
v -61.86667 -52.26667 0
v -61.86667 -51.2 0
v -60.8 -51.2 0

# Texture cooridinates (Count = 24)
vt 0.595186 0.2229508
vt 0.6301969 0.2229508
vt 0.6301969 0.2754098
vt 0.595186 0.2754098
vt 0.6323851 0.2786885
vt 0.6673961 0.2786885
vt 0.6673961 0.3311476
vt 0.6323851 0.3311476
vt 0.595186 0.2786885
vt 0.6301969 0.2786885
vt 0.6301969 0.3311476
vt 0.595186 0.3311476
vt 0.7067834 0.2786885
vt 0.7417943 0.2786885
vt 0.7417943 0.3311476
vt 0.7067834 0.3311476
vt 0.595186 0.947541
vt 0.6301969 0.947541
vt 0.6301969 1
vt 0.595186 1
vt 0.6323851 0.947541
vt 0.6673961 0.947541
vt 0.6673961 1
vt 0.6323851 1

# Normal
vn 0 0 -1

# Mesh description
g JackLyons_mesh_0021

# Faces
f 1/1/1 2/2/1 3/3/1 4/4/1
f 5/5/1 6/6/1 7/7/1 8/8/1
f 9/9/1 10/10/1 11/11/1 12/12/1
f 13/13/1 14/14/1 15/15/1 16/16/1
f 17/17/1 18/18/1 19/19/1 20/20/1
f 21/21/1 22/22/1 23/23/1 24/24/1
f 25/21/1 26/22/1 27/23/1 28/24/1
f 29/17/1 30/18/1 31/19/1 32/20/1
f 33/21/1 34/22/1 35/23/1 36/24/1
f 37/21/1 38/22/1 39/23/1 40/24/1
f 41/17/1 42/18/1 43/19/1 44/20/1
f 45/21/1 46/22/1 47/23/1 48/24/1

