%YAML 1.1
%TAG !u! tag:unity3d.com,2011:
--- !u!29 &1
OcclusionCullingSettings:
  m_ObjectHideFlags: 0
  serializedVersion: 2
  m_OcclusionBakeSettings:
    smallestOccluder: 5
    smallestHole: 0.25
    backfaceThreshold: 100
  m_SceneGUID: 00000000000000000000000000000000
  m_OcclusionCullingData: {fileID: 0}
--- !u!104 &2
RenderSettings:
  m_ObjectHideFlags: 0
  serializedVersion: 8
  m_Fog: 0
  m_FogColor: {r: 0.5, g: 0.5, b: 0.5, a: 1}
  m_FogMode: 3
  m_FogDensity: 0.01
  m_LinearFogStart: 0
  m_LinearFogEnd: 300
  m_AmbientSkyColor: {r: 0.212, g: 0.227, b: 0.259, a: 1}
  m_AmbientEquatorColor: {r: 0.114, g: 0.125, b: 0.133, a: 1}
  m_AmbientGroundColor: {r: 0.047, g: 0.043, b: 0.035, a: 1}
  m_AmbientIntensity: 1
  m_AmbientMode: 3
  m_SubtractiveShadowColor: {r: 0.42, g: 0.478, b: 0.627, a: 1}
  m_SkyboxMaterial: {fileID: 0}
  m_HaloStrength: 0.5
  m_FlareStrength: 1
  m_FlareFadeSpeed: 3
  m_HaloTexture: {fileID: 0}
  m_SpotCookie: {fileID: 10001, guid: 0000000000000000e000000000000000, type: 0}
  m_DefaultReflectionMode: 0
  m_DefaultReflectionResolution: 128
  m_ReflectionBounces: 1
  m_ReflectionIntensity: 1
  m_CustomReflection: {fileID: 0}
  m_Sun: {fileID: 0}
  m_IndirectSpecularColor: {r: 0, g: 0, b: 0, a: 1}
--- !u!157 &3
LightmapSettings:
  m_ObjectHideFlags: 0
  serializedVersion: 11
  m_GIWorkflowMode: 1
  m_GISettings:
    serializedVersion: 2
    m_BounceScale: 1
    m_IndirectOutputScale: 1
    m_AlbedoBoost: 1
    m_TemporalCoherenceThreshold: 1
    m_EnvironmentLightingMode: 0
    m_EnableBakedLightmaps: 0
    m_EnableRealtimeLightmaps: 0
  m_LightmapEditorSettings:
    serializedVersion: 9
    m_Resolution: 2
    m_BakeResolution: 40
    m_TextureWidth: 1024
    m_TextureHeight: 1024
    m_AO: 0
    m_AOMaxDistance: 1
    m_CompAOExponent: 1
    m_CompAOExponentDirect: 0
    m_Padding: 2
    m_LightmapParameters: {fileID: 0}
    m_LightmapsBakeMode: 1
    m_TextureCompression: 1
    m_FinalGather: 0
    m_FinalGatherFiltering: 1
    m_FinalGatherRayCount: 256
    m_ReflectionCompression: 2
    m_MixedBakeMode: 2
    m_BakeBackend: 0
    m_PVRSampling: 1
    m_PVRDirectSampleCount: 32
    m_PVRSampleCount: 500
    m_PVRBounces: 2
    m_PVRFilterTypeDirect: 0
    m_PVRFilterTypeIndirect: 0
    m_PVRFilterTypeAO: 0
    m_PVRFilteringMode: 1
    m_PVRCulling: 1
    m_PVRFilteringGaussRadiusDirect: 1
    m_PVRFilteringGaussRadiusIndirect: 5
    m_PVRFilteringGaussRadiusAO: 2
    m_PVRFilteringAtrousPositionSigmaDirect: 0.5
    m_PVRFilteringAtrousPositionSigmaIndirect: 2
    m_PVRFilteringAtrousPositionSigmaAO: 1
    m_ShowResolutionOverlay: 1
  m_LightingDataAsset: {fileID: 0}
  m_UseShadowmask: 1
--- !u!196 &4
NavMeshSettings:
  serializedVersion: 2
  m_ObjectHideFlags: 0
  m_BuildSettings:
    serializedVersion: 2
    agentTypeID: 0
    agentRadius: 0.5
    agentHeight: 2
    agentSlope: 45
    agentClimb: 0.4
    ledgeDropHeight: 0
    maxJumpAcrossDistance: 0
    minRegionArea: 2
    manualCellSize: 0
    cellSize: 0.16666667
    manualTileSize: 0
    tileSize: 256
    accuratePlacement: 0
    debug:
      m_Flags: 0
  m_NavMeshData: {fileID: 0}
--- !u!1001 &307270227
Prefab:
  m_ObjectHideFlags: 0
  serializedVersion: 2
  m_Modification:
    m_TransformParent: {fileID: 0}
    m_Modifications:
    - target: {fileID: 114485212689137276, guid: 029c17544fabbde43bb73a9f1d1359b7,
        type: 2}
      propertyPath: dialogue.Array.size
      value: 1
      objectReference: {fileID: 0}
    - target: {fileID: 4704459060425080, guid: 029c17544fabbde43bb73a9f1d1359b7, type: 2}
      propertyPath: m_LocalPosition.x
      value: 101.06024
      objectReference: {fileID: 0}
    - target: {fileID: 4704459060425080, guid: 029c17544fabbde43bb73a9f1d1359b7, type: 2}
      propertyPath: m_LocalPosition.y
      value: -112.302414
      objectReference: {fileID: 0}
    - target: {fileID: 4704459060425080, guid: 029c17544fabbde43bb73a9f1d1359b7, type: 2}
      propertyPath: m_LocalPosition.z
      value: 0
      objectReference: {fileID: 0}
    - target: {fileID: 4704459060425080, guid: 029c17544fabbde43bb73a9f1d1359b7, type: 2}
      propertyPath: m_LocalRotation.x
      value: 0
      objectReference: {fileID: 0}
    - target: {fileID: 4704459060425080, guid: 029c17544fabbde43bb73a9f1d1359b7, type: 2}
      propertyPath: m_LocalRotation.y
      value: 0
      objectReference: {fileID: 0}
    - target: {fileID: 4704459060425080, guid: 029c17544fabbde43bb73a9f1d1359b7, type: 2}
      propertyPath: m_LocalRotation.z
      value: 0
      objectReference: {fileID: 0}
    - target: {fileID: 4704459060425080, guid: 029c17544fabbde43bb73a9f1d1359b7, type: 2}
      propertyPath: m_LocalRotation.w
      value: 1
      objectReference: {fileID: 0}
    - target: {fileID: 4704459060425080, guid: 029c17544fabbde43bb73a9f1d1359b7, type: 2}
      propertyPath: m_RootOrder
      value: 5
      objectReference: {fileID: 0}
    - target: {fileID: 114485212689137276, guid: 029c17544fabbde43bb73a9f1d1359b7,
        type: 2}
      propertyPath: treasure
      value: 1
      objectReference: {fileID: 0}
    - target: {fileID: 114485212689137276, guid: 029c17544fabbde43bb73a9f1d1359b7,
        type: 2}
      propertyPath: dialogue.Array.data[1]
      value: Truley, I am
      objectReference: {fileID: 0}
    - target: {fileID: 114485212689137276, guid: 029c17544fabbde43bb73a9f1d1359b7,
        type: 2}
      propertyPath: dialogue.Array.data[0]
      value: You found a hammer!
      objectReference: {fileID: 0}
    - target: {fileID: 212996946334501392, guid: 029c17544fabbde43bb73a9f1d1359b7,
        type: 2}
      propertyPath: m_Sprite
      value: 
      objectReference: {fileID: 21300000, guid: acc45ea96de9ba9438b0a432a52cca5c,
        type: 3}
    - target: {fileID: 4704459060425080, guid: 029c17544fabbde43bb73a9f1d1359b7, type: 2}
      propertyPath: m_LocalScale.x
      value: 4
      objectReference: {fileID: 0}
    - target: {fileID: 4704459060425080, guid: 029c17544fabbde43bb73a9f1d1359b7, type: 2}
      propertyPath: m_LocalScale.y
      value: 4
      objectReference: {fileID: 0}
    - target: {fileID: 58004800574002856, guid: 029c17544fabbde43bb73a9f1d1359b7,
        type: 2}
      propertyPath: m_Radius
      value: 0.3
      objectReference: {fileID: 0}
    m_RemovedComponents:
    - {fileID: 61449539767269810, guid: 029c17544fabbde43bb73a9f1d1359b7, type: 2}
  m_ParentPrefab: {fileID: 100100000, guid: 029c17544fabbde43bb73a9f1d1359b7, type: 2}
  m_IsPrefabParent: 0
--- !u!1 &307270228 stripped
GameObject:
  m_PrefabParentObject: {fileID: 1344385287322598, guid: 029c17544fabbde43bb73a9f1d1359b7,
    type: 2}
  m_PrefabInternal: {fileID: 307270227}
--- !u!61 &307270229
BoxCollider2D:
  m_ObjectHideFlags: 0
  m_PrefabParentObject: {fileID: 0}
  m_PrefabInternal: {fileID: 0}
  m_GameObject: {fileID: 307270228}
  m_Enabled: 1
  m_Density: 1
  m_Material: {fileID: 0}
  m_IsTrigger: 0
  m_UsedByEffector: 0
  m_UsedByComposite: 0
  m_Offset: {x: 0, y: 0}
  m_SpriteTilingProperty:
    border: {x: 0, y: 0, z: 0, w: 0}
    pivot: {x: 0.5, y: 0.5}
    oldSize: {x: 0.32, y: 0.16}
    newSize: {x: 1, y: 1}
    adaptiveTilingThreshold: 0.5
    drawMode: 0
    adaptiveTiling: 0
  m_AutoTiling: 0
  serializedVersion: 2
  m_Size: {x: 0.32, y: 0.16}
  m_EdgeRadius: 0
--- !u!1 &489962978
GameObject:
  m_ObjectHideFlags: 0
  m_PrefabParentObject: {fileID: 0}
  m_PrefabInternal: {fileID: 0}
  serializedVersion: 5
  m_Component:
  - component: {fileID: 489962981}
  - component: {fileID: 489962980}
  - component: {fileID: 489962979}
  m_Layer: 0
  m_Name: StairsToTFTV-Floor3
  m_TagString: Untagged
  m_Icon: {fileID: 0}
  m_NavMeshLayer: 0
  m_StaticEditorFlags: 0
  m_IsActive: 1
--- !u!114 &489962979
MonoBehaviour:
  m_ObjectHideFlags: 0
  m_PrefabParentObject: {fileID: 0}
  m_PrefabInternal: {fileID: 0}
  m_GameObject: {fileID: 489962978}
  m_Enabled: 1
  m_EditorHideFlags: 0
  m_Script: {fileID: 11500000, guid: 0f17759d8c0e6704cbc0d9ff507a876c, type: 3}
  m_Name: 
  m_EditorClassIdentifier: 
  newScene: TFTV-Floor3
  newPosition: {x: 105.3, y: -110.4}
--- !u!61 &489962980
BoxCollider2D:
  m_ObjectHideFlags: 0
  m_PrefabParentObject: {fileID: 0}
  m_PrefabInternal: {fileID: 0}
  m_GameObject: {fileID: 489962978}
  m_Enabled: 1
  m_Density: 1
  m_Material: {fileID: 0}
  m_IsTrigger: 1
  m_UsedByEffector: 0
  m_UsedByComposite: 0
  m_Offset: {x: 0, y: 0}
  m_SpriteTilingProperty:
    border: {x: 0, y: 0, z: 0, w: 0}
    pivot: {x: 0, y: 0}
    oldSize: {x: 0, y: 0}
    newSize: {x: 0, y: 0}
    adaptiveTilingThreshold: 0
    drawMode: 0
    adaptiveTiling: 0
  m_AutoTiling: 0
  serializedVersion: 2
  m_Size: {x: 1, y: 1}
  m_EdgeRadius: 0
--- !u!4 &489962981
Transform:
  m_ObjectHideFlags: 0
  m_PrefabParentObject: {fileID: 0}
  m_PrefabInternal: {fileID: 0}
  m_GameObject: {fileID: 489962978}
  m_LocalRotation: {x: 0, y: 0, z: 0, w: 1}
  m_LocalPosition: {x: 102.95, y: -94.396, z: -0.0078125}
  m_LocalScale: {x: 1, y: 1, z: 1}
  m_Children: []
  m_Father: {fileID: 0}
  m_RootOrder: 10
  m_LocalEulerAnglesHint: {x: 0, y: 0, z: 0}
--- !u!1001 &652855262
Prefab:
  m_ObjectHideFlags: 0
  serializedVersion: 2
  m_Modification:
    m_TransformParent: {fileID: 0}
    m_Modifications:
    - target: {fileID: 4704459060425080, guid: 029c17544fabbde43bb73a9f1d1359b7, type: 2}
      propertyPath: m_LocalPosition.x
      value: 102.76
      objectReference: {fileID: 0}
    - target: {fileID: 4704459060425080, guid: 029c17544fabbde43bb73a9f1d1359b7, type: 2}
      propertyPath: m_LocalPosition.y
      value: -99.03
      objectReference: {fileID: 0}
    - target: {fileID: 4704459060425080, guid: 029c17544fabbde43bb73a9f1d1359b7, type: 2}
      propertyPath: m_LocalPosition.z
      value: 0
      objectReference: {fileID: 0}
    - target: {fileID: 4704459060425080, guid: 029c17544fabbde43bb73a9f1d1359b7, type: 2}
      propertyPath: m_LocalRotation.x
      value: 0
      objectReference: {fileID: 0}
    - target: {fileID: 4704459060425080, guid: 029c17544fabbde43bb73a9f1d1359b7, type: 2}
      propertyPath: m_LocalRotation.y
      value: 0
      objectReference: {fileID: 0}
    - target: {fileID: 4704459060425080, guid: 029c17544fabbde43bb73a9f1d1359b7, type: 2}
      propertyPath: m_LocalRotation.z
      value: 0
      objectReference: {fileID: 0}
    - target: {fileID: 4704459060425080, guid: 029c17544fabbde43bb73a9f1d1359b7, type: 2}
      propertyPath: m_LocalRotation.w
      value: 1
      objectReference: {fileID: 0}
    - target: {fileID: 4704459060425080, guid: 029c17544fabbde43bb73a9f1d1359b7, type: 2}
      propertyPath: m_RootOrder
      value: 1
      objectReference: {fileID: 0}
    - target: {fileID: 1344385287322598, guid: 029c17544fabbde43bb73a9f1d1359b7, type: 2}
      propertyPath: m_Name
      value: Character (2)
      objectReference: {fileID: 0}
    - target: {fileID: 212996946334501392, guid: 029c17544fabbde43bb73a9f1d1359b7,
        type: 2}
      propertyPath: m_Sprite
      value: 
      objectReference: {fileID: 21300000, guid: af5d4c7525954904695e40d5406d4065,
        type: 3}
    - target: {fileID: 114485212689137276, guid: 029c17544fabbde43bb73a9f1d1359b7,
        type: 2}
      propertyPath: dialogue.Array.data[0]
      value: 'Mwahah Recieve My Curse! '
      objectReference: {fileID: 0}
    - target: {fileID: 114485212689137276, guid: 029c17544fabbde43bb73a9f1d1359b7,
        type: 2}
      propertyPath: IamQuest
      value: 1
      objectReference: {fileID: 0}
    m_RemovedComponents: []
  m_ParentPrefab: {fileID: 100100000, guid: 029c17544fabbde43bb73a9f1d1359b7, type: 2}
  m_IsPrefabParent: 0
--- !u!1 &652855263 stripped
GameObject:
  m_PrefabParentObject: {fileID: 1060671026712308, guid: 029c17544fabbde43bb73a9f1d1359b7,
    type: 2}
  m_PrefabInternal: {fileID: 652855262}
--- !u!114 &652855264
MonoBehaviour:
  m_ObjectHideFlags: 0
  m_PrefabParentObject: {fileID: 0}
  m_PrefabInternal: {fileID: 0}
  m_GameObject: {fileID: 652855263}
  m_Enabled: 1
  m_EditorHideFlags: 0
  m_Script: {fileID: 11500000, guid: b48f79068d7213a4db514bdda9c24eeb, type: 3}
  m_Name: 
  m_EditorClassIdentifier: 
  questType: 0
  questNumber: 0
  Quest: 0
--- !u!1 &715619302
GameObject:
  m_ObjectHideFlags: 0
  m_PrefabParentObject: {fileID: 0}
  m_PrefabInternal: {fileID: 0}
  serializedVersion: 5
  m_Component:
  - component: {fileID: 715619304}
  - component: {fileID: 715619303}
  m_Layer: 0
  m_Name: Reference
  m_TagString: Untagged
  m_Icon: {fileID: 0}
  m_NavMeshLayer: 0
  m_StaticEditorFlags: 0
  m_IsActive: 1
--- !u!61 &715619303
BoxCollider2D:
  m_ObjectHideFlags: 0
  m_PrefabParentObject: {fileID: 0}
  m_PrefabInternal: {fileID: 0}
  m_GameObject: {fileID: 715619302}
  m_Enabled: 1
  m_Density: 1
  m_Material: {fileID: 0}
  m_IsTrigger: 1
  m_UsedByEffector: 0
  m_UsedByComposite: 0
  m_Offset: {x: 0, y: 0}
  m_SpriteTilingProperty:
    border: {x: 0, y: 0, z: 0, w: 0}
    pivot: {x: 0, y: 0}
    oldSize: {x: 0, y: 0}
    newSize: {x: 0, y: 0}
    adaptiveTilingThreshold: 0
    drawMode: 0
    adaptiveTiling: 0
  m_AutoTiling: 0
  serializedVersion: 2
  m_Size: {x: 1, y: 1}
  m_EdgeRadius: 0
--- !u!4 &715619304
Transform:
  m_ObjectHideFlags: 0
  m_PrefabParentObject: {fileID: 0}
  m_PrefabInternal: {fileID: 0}
  m_GameObject: {fileID: 715619302}
  m_LocalRotation: {x: 0, y: 0, z: 0, w: 1}
  m_LocalPosition: {x: 123.16, y: -96.57, z: -0.0078125}
  m_LocalScale: {x: 1, y: 1, z: 1}
  m_Children: []
  m_Father: {fileID: 0}
  m_RootOrder: 7
  m_LocalEulerAnglesHint: {x: 0, y: 0, z: 0}
--- !u!1001 &1221820667
Prefab:
  m_ObjectHideFlags: 0
  serializedVersion: 2
  m_Modification:
    m_TransformParent: {fileID: 0}
    m_Modifications:
    - target: {fileID: 4348523475837576, guid: e22a54a2f6c471e41b003c2999926774, type: 2}
      propertyPath: m_LocalPosition.x
      value: 0
      objectReference: {fileID: 0}
    - target: {fileID: 4348523475837576, guid: e22a54a2f6c471e41b003c2999926774, type: 2}
      propertyPath: m_LocalPosition.y
      value: 0
      objectReference: {fileID: 0}
    - target: {fileID: 4348523475837576, guid: e22a54a2f6c471e41b003c2999926774, type: 2}
      propertyPath: m_LocalPosition.z
      value: 0
      objectReference: {fileID: 0}
    - target: {fileID: 4348523475837576, guid: e22a54a2f6c471e41b003c2999926774, type: 2}
      propertyPath: m_LocalRotation.x
      value: 0
      objectReference: {fileID: 0}
    - target: {fileID: 4348523475837576, guid: e22a54a2f6c471e41b003c2999926774, type: 2}
      propertyPath: m_LocalRotation.y
      value: 0
      objectReference: {fileID: 0}
    - target: {fileID: 4348523475837576, guid: e22a54a2f6c471e41b003c2999926774, type: 2}
      propertyPath: m_LocalRotation.z
      value: 0
      objectReference: {fileID: 0}
    - target: {fileID: 4348523475837576, guid: e22a54a2f6c471e41b003c2999926774, type: 2}
      propertyPath: m_LocalRotation.w
      value: 1
      objectReference: {fileID: 0}
    - target: {fileID: 4348523475837576, guid: e22a54a2f6c471e41b003c2999926774, type: 2}
      propertyPath: m_RootOrder
      value: 4
      objectReference: {fileID: 0}
    m_RemovedComponents: []
  m_ParentPrefab: {fileID: 100100000, guid: e22a54a2f6c471e41b003c2999926774, type: 2}
  m_IsPrefabParent: 0
--- !u!1 &1279637389
GameObject:
  m_ObjectHideFlags: 0
  m_PrefabParentObject: {fileID: 0}
  m_PrefabInternal: {fileID: 0}
  serializedVersion: 5
  m_Component:
  - component: {fileID: 1279637392}
  - component: {fileID: 1279637391}
  - component: {fileID: 1279637390}
  m_Layer: 0
  m_Name: EventSystem
  m_TagString: Untagged
  m_Icon: {fileID: 0}
  m_NavMeshLayer: 0
  m_StaticEditorFlags: 0
  m_IsActive: 1
--- !u!114 &1279637390
MonoBehaviour:
  m_ObjectHideFlags: 0
  m_PrefabParentObject: {fileID: 0}
  m_PrefabInternal: {fileID: 0}
  m_GameObject: {fileID: 1279637389}
  m_Enabled: 1
  m_EditorHideFlags: 0
  m_Script: {fileID: 1077351063, guid: f70555f144d8491a825f0804e09c671c, type: 3}
  m_Name: 
  m_EditorClassIdentifier: 
  m_HorizontalAxis: Horizontal
  m_VerticalAxis: Vertical
  m_SubmitButton: Submit
  m_CancelButton: Cancel
  m_InputActionsPerSecond: 10
  m_RepeatDelay: 0.5
  m_ForceModuleActive: 0
--- !u!114 &1279637391
MonoBehaviour:
  m_ObjectHideFlags: 0
  m_PrefabParentObject: {fileID: 0}
  m_PrefabInternal: {fileID: 0}
  m_GameObject: {fileID: 1279637389}
  m_Enabled: 1
  m_EditorHideFlags: 0
  m_Script: {fileID: -619905303, guid: f70555f144d8491a825f0804e09c671c, type: 3}
  m_Name: 
  m_EditorClassIdentifier: 
  m_FirstSelected: {fileID: 0}
  m_sendNavigationEvents: 1
  m_DragThreshold: 5
--- !u!4 &1279637392
Transform:
  m_ObjectHideFlags: 0
  m_PrefabParentObject: {fileID: 0}
  m_PrefabInternal: {fileID: 0}
  m_GameObject: {fileID: 1279637389}
  m_LocalRotation: {x: 0, y: 0, z: 0, w: 1}
  m_LocalPosition: {x: 0, y: 0, z: 0}
  m_LocalScale: {x: 1, y: 1, z: 1}
  m_Children: []
  m_Father: {fileID: 0}
  m_RootOrder: 6
  m_LocalEulerAnglesHint: {x: 0, y: 0, z: 0}
--- !u!1001 &1298337600
Prefab:
  m_ObjectHideFlags: 0
  serializedVersion: 2
  m_Modification:
    m_TransformParent: {fileID: 0}
    m_Modifications:
    - target: {fileID: 114485212689137276, guid: 029c17544fabbde43bb73a9f1d1359b7,
        type: 2}
      propertyPath: dialogue.Array.size
      value: 2
      objectReference: {fileID: 0}
    - target: {fileID: 4704459060425080, guid: 029c17544fabbde43bb73a9f1d1359b7, type: 2}
      propertyPath: m_LocalPosition.x
      value: 112.92423
      objectReference: {fileID: 0}
    - target: {fileID: 4704459060425080, guid: 029c17544fabbde43bb73a9f1d1359b7, type: 2}
      propertyPath: m_LocalPosition.y
      value: -92.26188
      objectReference: {fileID: 0}
    - target: {fileID: 4704459060425080, guid: 029c17544fabbde43bb73a9f1d1359b7, type: 2}
      propertyPath: m_LocalPosition.z
      value: 0
      objectReference: {fileID: 0}
    - target: {fileID: 4704459060425080, guid: 029c17544fabbde43bb73a9f1d1359b7, type: 2}
      propertyPath: m_LocalRotation.x
      value: 0
      objectReference: {fileID: 0}
    - target: {fileID: 4704459060425080, guid: 029c17544fabbde43bb73a9f1d1359b7, type: 2}
      propertyPath: m_LocalRotation.y
      value: 0
      objectReference: {fileID: 0}
    - target: {fileID: 4704459060425080, guid: 029c17544fabbde43bb73a9f1d1359b7, type: 2}
      propertyPath: m_LocalRotation.z
      value: 0
      objectReference: {fileID: 0}
    - target: {fileID: 4704459060425080, guid: 029c17544fabbde43bb73a9f1d1359b7, type: 2}
      propertyPath: m_LocalRotation.w
      value: 1
      objectReference: {fileID: 0}
    - target: {fileID: 4704459060425080, guid: 029c17544fabbde43bb73a9f1d1359b7, type: 2}
      propertyPath: m_RootOrder
      value: 3
      objectReference: {fileID: 0}
    - target: {fileID: 1344385287322598, guid: 029c17544fabbde43bb73a9f1d1359b7, type: 2}
      propertyPath: m_Name
      value: Minion
      objectReference: {fileID: 0}
    - target: {fileID: 114485212689137276, guid: 029c17544fabbde43bb73a9f1d1359b7,
        type: 2}
      propertyPath: dialogue.Array.data[0]
      value: The boss is on the next floor up.
      objectReference: {fileID: 0}
    - target: {fileID: 114485212689137276, guid: 029c17544fabbde43bb73a9f1d1359b7,
        type: 2}
      propertyPath: dialogue.Array.data[1]
      value: But I'm going to make a director's cut and finish you here!
      objectReference: {fileID: 0}
    - target: {fileID: 114485212689137276, guid: 029c17544fabbde43bb73a9f1d1359b7,
        type: 2}
      propertyPath: createBattle
      value: 1
      objectReference: {fileID: 0}
    m_RemovedComponents: []
  m_ParentPrefab: {fileID: 100100000, guid: 029c17544fabbde43bb73a9f1d1359b7, type: 2}
  m_IsPrefabParent: 0
--- !u!1 &1298337601 stripped
GameObject:
  m_PrefabParentObject: {fileID: 1060671026712308, guid: 029c17544fabbde43bb73a9f1d1359b7,
    type: 2}
  m_PrefabInternal: {fileID: 1298337600}
--- !u!114 &1298337602
MonoBehaviour:
  m_ObjectHideFlags: 0
  m_PrefabParentObject: {fileID: 0}
  m_PrefabInternal: {fileID: 0}
  m_GameObject: {fileID: 1298337601}
  m_Enabled: 1
  m_EditorHideFlags: 0
  m_Script: {fileID: 11500000, guid: 9f2ada571bbfb0448a34a040c72af284, type: 3}
  m_Name: 
  m_EditorClassIdentifier: 
  battleMoney: 20
  battleItem: 0
  canRunAway: 1
  name: Evil Lecturer
  sprite: {fileID: 2800000, guid: 0f68722fa6b3ebb4093e4c8d9a5969f7, type: 3}
  level: 5
  health: 100
  attack: 9
  defence: 3
  maximumMagic: 5
  luck: 3
  speed: 2
  special1: 0
  special1Text: lectured
  special1Magic: 2
  special1Value: 15
  special2: 2
  special2Text: slowed down
  special2Magic: 1
  special2Value: 0.1
--- !u!1 &1679266580
GameObject:
  m_ObjectHideFlags: 0
  m_PrefabParentObject: {fileID: 0}
  m_PrefabInternal: {fileID: 0}
  serializedVersion: 5
  m_Component:
  - component: {fileID: 1679266583}
  - component: {fileID: 1679266582}
  - component: {fileID: 1679266581}
  m_Layer: 0
  m_Name: StairsToTFTV-Floor1
  m_TagString: Untagged
  m_Icon: {fileID: 0}
  m_NavMeshLayer: 0
  m_StaticEditorFlags: 0
  m_IsActive: 1
--- !u!114 &1679266581
MonoBehaviour:
  m_ObjectHideFlags: 0
  m_PrefabParentObject: {fileID: 0}
  m_PrefabInternal: {fileID: 0}
  m_GameObject: {fileID: 1679266580}
  m_Enabled: 1
  m_EditorHideFlags: 0
  m_Script: {fileID: 11500000, guid: 0f17759d8c0e6704cbc0d9ff507a876c, type: 3}
  m_Name: 
  m_EditorClassIdentifier: 
  newScene: TFTV-Floor1
  newPosition: {x: 123.16, y: -96.57}
--- !u!61 &1679266582
BoxCollider2D:
  m_ObjectHideFlags: 0
  m_PrefabParentObject: {fileID: 0}
  m_PrefabInternal: {fileID: 0}
  m_GameObject: {fileID: 1679266580}
  m_Enabled: 1
  m_Density: 1
  m_Material: {fileID: 0}
  m_IsTrigger: 1
  m_UsedByEffector: 0
  m_UsedByComposite: 0
  m_Offset: {x: 0, y: 0}
  m_SpriteTilingProperty:
    border: {x: 0, y: 0, z: 0, w: 0}
    pivot: {x: 0, y: 0}
    oldSize: {x: 0, y: 0}
    newSize: {x: 0, y: 0}
    adaptiveTilingThreshold: 0
    drawMode: 0
    adaptiveTiling: 0
  m_AutoTiling: 0
  serializedVersion: 2
  m_Size: {x: 1, y: 1}
  m_EdgeRadius: 0
--- !u!4 &1679266583
Transform:
  m_ObjectHideFlags: 0
  m_PrefabParentObject: {fileID: 0}
  m_PrefabInternal: {fileID: 0}
  m_GameObject: {fileID: 1679266580}
  m_LocalRotation: {x: 0, y: 0, z: 0, w: 1}
  m_LocalPosition: {x: 123.17, y: -94.396, z: -0.0078125}
  m_LocalScale: {x: 1, y: 1, z: 1}
  m_Children: []
  m_Father: {fileID: 0}
  m_RootOrder: 8
  m_LocalEulerAnglesHint: {x: 0, y: 0, z: 0}
--- !u!1001 &1850185710
Prefab:
  m_ObjectHideFlags: 0
  serializedVersion: 2
  m_Modification:
    m_TransformParent: {fileID: 0}
    m_Modifications:
    - target: {fileID: 4977817364209186, guid: 4e53c9bf3ee6cdb4c9186451d197c985, type: 2}
      propertyPath: m_LocalPosition.x
      value: 304.21
      objectReference: {fileID: 0}
    - target: {fileID: 4977817364209186, guid: 4e53c9bf3ee6cdb4c9186451d197c985, type: 2}
      propertyPath: m_LocalPosition.y
      value: 44.375
      objectReference: {fileID: 0}
    - target: {fileID: 4977817364209186, guid: 4e53c9bf3ee6cdb4c9186451d197c985, type: 2}
      propertyPath: m_LocalPosition.z
      value: 0
      objectReference: {fileID: 0}
    - target: {fileID: 4977817364209186, guid: 4e53c9bf3ee6cdb4c9186451d197c985, type: 2}
      propertyPath: m_LocalRotation.x
      value: -0
      objectReference: {fileID: 0}
    - target: {fileID: 4977817364209186, guid: 4e53c9bf3ee6cdb4c9186451d197c985, type: 2}
      propertyPath: m_LocalRotation.y
      value: -0
      objectReference: {fileID: 0}
    - target: {fileID: 4977817364209186, guid: 4e53c9bf3ee6cdb4c9186451d197c985, type: 2}
      propertyPath: m_LocalRotation.z
      value: -0
      objectReference: {fileID: 0}
    - target: {fileID: 4977817364209186, guid: 4e53c9bf3ee6cdb4c9186451d197c985, type: 2}
      propertyPath: m_LocalRotation.w
      value: 1
      objectReference: {fileID: 0}
    - target: {fileID: 4977817364209186, guid: 4e53c9bf3ee6cdb4c9186451d197c985, type: 2}
      propertyPath: m_RootOrder
      value: 11
      objectReference: {fileID: 0}
    - target: {fileID: 114038952352095808, guid: 4e53c9bf3ee6cdb4c9186451d197c985,
        type: 2}
      propertyPath: attack
      value: 3
      objectReference: {fileID: 0}
    - target: {fileID: 114038952352095808, guid: 4e53c9bf3ee6cdb4c9186451d197c985,
        type: 2}
      propertyPath: defence
      value: 3
      objectReference: {fileID: 0}
    - target: {fileID: 114038952352095808, guid: 4e53c9bf3ee6cdb4c9186451d197c985,
        type: 2}
      propertyPath: maximumMagic
      value: 3
      objectReference: {fileID: 0}
    - target: {fileID: 114038952352095808, guid: 4e53c9bf3ee6cdb4c9186451d197c985,
        type: 2}
      propertyPath: luck
      value: 3
      objectReference: {fileID: 0}
    - target: {fileID: 114038952352095808, guid: 4e53c9bf3ee6cdb4c9186451d197c985,
        type: 2}
      propertyPath: speed
      value: 3
      objectReference: {fileID: 0}
    - target: {fileID: 114038952352095808, guid: 4e53c9bf3ee6cdb4c9186451d197c985,
        type: 2}
      propertyPath: level
      value: 3
      objectReference: {fileID: 0}
    - target: {fileID: 114038952352095808, guid: 4e53c9bf3ee6cdb4c9186451d197c985,
        type: 2}
      propertyPath: canRunAway
      value: 1
      objectReference: {fileID: 0}
    m_RemovedComponents: []
  m_ParentPrefab: {fileID: 100100000, guid: 4e53c9bf3ee6cdb4c9186451d197c985, type: 2}
  m_IsPrefabParent: 0
--- !u!1001 &1880678481
Prefab:
  m_ObjectHideFlags: 0
  serializedVersion: 2
  m_Modification:
    m_TransformParent: {fileID: 0}
    m_Modifications:
    - target: {fileID: 4877416950172522, guid: 39c6f442aa2174047910f10f0c6b8e8f, type: 2}
      propertyPath: m_LocalPosition.x
      value: 0
      objectReference: {fileID: 0}
    - target: {fileID: 4877416950172522, guid: 39c6f442aa2174047910f10f0c6b8e8f, type: 2}
      propertyPath: m_LocalPosition.y
      value: 0
      objectReference: {fileID: 0}
    - target: {fileID: 4877416950172522, guid: 39c6f442aa2174047910f10f0c6b8e8f, type: 2}
      propertyPath: m_LocalPosition.z
      value: -6.0247703
      objectReference: {fileID: 0}
    - target: {fileID: 4877416950172522, guid: 39c6f442aa2174047910f10f0c6b8e8f, type: 2}
      propertyPath: m_LocalRotation.x
      value: -0
      objectReference: {fileID: 0}
    - target: {fileID: 4877416950172522, guid: 39c6f442aa2174047910f10f0c6b8e8f, type: 2}
      propertyPath: m_LocalRotation.y
      value: -0
      objectReference: {fileID: 0}
    - target: {fileID: 4877416950172522, guid: 39c6f442aa2174047910f10f0c6b8e8f, type: 2}
      propertyPath: m_LocalRotation.z
      value: -0
      objectReference: {fileID: 0}
    - target: {fileID: 4877416950172522, guid: 39c6f442aa2174047910f10f0c6b8e8f, type: 2}
      propertyPath: m_LocalRotation.w
      value: 1
      objectReference: {fileID: 0}
    - target: {fileID: 4877416950172522, guid: 39c6f442aa2174047910f10f0c6b8e8f, type: 2}
      propertyPath: m_RootOrder
      value: 0
      objectReference: {fileID: 0}
    - target: {fileID: 20784022718258468, guid: 39c6f442aa2174047910f10f0c6b8e8f,
        type: 2}
      propertyPath: m_BackGroundColor.r
      value: 0.7058824
      objectReference: {fileID: 0}
    - target: {fileID: 20784022718258468, guid: 39c6f442aa2174047910f10f0c6b8e8f,
        type: 2}
      propertyPath: m_BackGroundColor.g
      value: 0.5137255
      objectReference: {fileID: 0}
    - target: {fileID: 20784022718258468, guid: 39c6f442aa2174047910f10f0c6b8e8f,
        type: 2}
      propertyPath: m_BackGroundColor.b
      value: 0.33333334
      objectReference: {fileID: 0}
    m_RemovedComponents: []
  m_ParentPrefab: {fileID: 100100000, guid: 39c6f442aa2174047910f10f0c6b8e8f, type: 2}
  m_IsPrefabParent: 0
--- !u!1 &1937004899
GameObject:
  m_ObjectHideFlags: 0
  m_PrefabParentObject: {fileID: 0}
  m_PrefabInternal: {fileID: 0}
  serializedVersion: 5
  m_Component:
  - component: {fileID: 1937004901}
  - component: {fileID: 1937004900}
  m_Layer: 0
  m_Name: Reference (1)
  m_TagString: Untagged
  m_Icon: {fileID: 0}
  m_NavMeshLayer: 0
  m_StaticEditorFlags: 0
  m_IsActive: 1
--- !u!61 &1937004900
BoxCollider2D:
  m_ObjectHideFlags: 0
  m_PrefabParentObject: {fileID: 0}
  m_PrefabInternal: {fileID: 0}
  m_GameObject: {fileID: 1937004899}
  m_Enabled: 1
  m_Density: 1
  m_Material: {fileID: 0}
  m_IsTrigger: 1
  m_UsedByEffector: 0
  m_UsedByComposite: 0
  m_Offset: {x: 0, y: 0}
  m_SpriteTilingProperty:
    border: {x: 0, y: 0, z: 0, w: 0}
    pivot: {x: 0, y: 0}
    oldSize: {x: 0, y: 0}
    newSize: {x: 0, y: 0}
    adaptiveTilingThreshold: 0
    drawMode: 0
    adaptiveTiling: 0
  m_AutoTiling: 0
  serializedVersion: 2
  m_Size: {x: 1, y: 1}
  m_EdgeRadius: 0
--- !u!4 &1937004901
Transform:
  m_ObjectHideFlags: 0
  m_PrefabParentObject: {fileID: 0}
  m_PrefabInternal: {fileID: 0}
  m_GameObject: {fileID: 1937004899}
  m_LocalRotation: {x: 0, y: 0, z: 0, w: 1}
  m_LocalPosition: {x: 102.93, y: -96.57, z: -0.0078125}
  m_LocalScale: {x: 1, y: 1, z: 1}
  m_Children: []
  m_Father: {fileID: 0}
  m_RootOrder: 9
  m_LocalEulerAnglesHint: {x: 0, y: 0, z: 0}
--- !u!1001 &1970119134
Prefab:
  m_ObjectHideFlags: 0
  serializedVersion: 2
  m_Modification:
    m_TransformParent: {fileID: 0}
    m_Modifications:
    - target: {fileID: 114485212689137276, guid: 029c17544fabbde43bb73a9f1d1359b7,
        type: 2}
      propertyPath: dialogue.Array.size
      value: 2
      objectReference: {fileID: 0}
    - target: {fileID: 4704459060425080, guid: 029c17544fabbde43bb73a9f1d1359b7, type: 2}
      propertyPath: m_LocalPosition.x
      value: 108.15
      objectReference: {fileID: 0}
    - target: {fileID: 4704459060425080, guid: 029c17544fabbde43bb73a9f1d1359b7, type: 2}
      propertyPath: m_LocalPosition.y
      value: -101.05
      objectReference: {fileID: 0}
    - target: {fileID: 4704459060425080, guid: 029c17544fabbde43bb73a9f1d1359b7, type: 2}
      propertyPath: m_LocalPosition.z
      value: 0
      objectReference: {fileID: 0}
    - target: {fileID: 4704459060425080, guid: 029c17544fabbde43bb73a9f1d1359b7, type: 2}
      propertyPath: m_LocalRotation.x
      value: 0
      objectReference: {fileID: 0}
    - target: {fileID: 4704459060425080, guid: 029c17544fabbde43bb73a9f1d1359b7, type: 2}
      propertyPath: m_LocalRotation.y
      value: 0
      objectReference: {fileID: 0}
    - target: {fileID: 4704459060425080, guid: 029c17544fabbde43bb73a9f1d1359b7, type: 2}
      propertyPath: m_LocalRotation.z
      value: 0
      objectReference: {fileID: 0}
    - target: {fileID: 4704459060425080, guid: 029c17544fabbde43bb73a9f1d1359b7, type: 2}
      propertyPath: m_LocalRotation.w
      value: 1
      objectReference: {fileID: 0}
    - target: {fileID: 4704459060425080, guid: 029c17544fabbde43bb73a9f1d1359b7, type: 2}
      propertyPath: m_RootOrder
      value: 2
      objectReference: {fileID: 0}
    - target: {fileID: 1344385287322598, guid: 029c17544fabbde43bb73a9f1d1359b7, type: 2}
      propertyPath: m_Name
      value: Character (1)
      objectReference: {fileID: 0}
    - target: {fileID: 114485212689137276, guid: 029c17544fabbde43bb73a9f1d1359b7,
        type: 2}
      propertyPath: dialogue.Array.data[0]
      value: Why is he just standing there? Can't I go yet??
      objectReference: {fileID: 0}
    - target: {fileID: 114485212689137276, guid: 029c17544fabbde43bb73a9f1d1359b7,
        type: 2}
      propertyPath: dialogue.Array.data[1]
      value: That wich talks about curses a lot hmm...
      objectReference: {fileID: 0}
    - target: {fileID: 212996946334501392, guid: 029c17544fabbde43bb73a9f1d1359b7,
        type: 2}
      propertyPath: m_Sprite
      value: 
      objectReference: {fileID: 21300000, guid: e6627fd4f0ec3454dbf2b3c5b3981df0,
        type: 3}
    - target: {fileID: 114485212689137276, guid: 029c17544fabbde43bb73a9f1d1359b7,
        type: 2}
      propertyPath: dialogue.Array.data[2]
      value: Why is he just standing there? Can't I go yet??
      objectReference: {fileID: 0}
    - target: {fileID: 114485212689137276, guid: 029c17544fabbde43bb73a9f1d1359b7,
        type: 2}
      propertyPath: dialogue.Array.data[3]
      value: Why is he just standing there? Can't I go yet??
      objectReference: {fileID: 0}
    - target: {fileID: 114485212689137276, guid: 029c17544fabbde43bb73a9f1d1359b7,
        type: 2}
      propertyPath: dialogue.Array.data[4]
      value: Why is he just standing there? Can't I go yet??
      objectReference: {fileID: 0}
    - target: {fileID: 114485212689137276, guid: 029c17544fabbde43bb73a9f1d1359b7,
        type: 2}
      propertyPath: dialogue.Array.data[5]
      value: Why is he just standing there? Can't I go yet??
      objectReference: {fileID: 0}
    - target: {fileID: 114485212689137276, guid: 029c17544fabbde43bb73a9f1d1359b7,
        type: 2}
      propertyPath: dialogue.Array.data[6]
      value: Why is he just standing there? Can't I go yet??
      objectReference: {fileID: 0}
    - target: {fileID: 114485212689137276, guid: 029c17544fabbde43bb73a9f1d1359b7,
        type: 2}
      propertyPath: dialogue.Array.data[7]
      value: Why is he just standing there? Can't I go yet??
      objectReference: {fileID: 0}
    - target: {fileID: 114485212689137276, guid: 029c17544fabbde43bb73a9f1d1359b7,
        type: 2}
      propertyPath: dialogue.Array.data[8]
      value: Why is he just standing there? Can't I go yet??
      objectReference: {fileID: 0}
    - target: {fileID: 114485212689137276, guid: 029c17544fabbde43bb73a9f1d1359b7,
        type: 2}
      propertyPath: dialogue.Array.data[9]
      value: Why is he just standing there? Can't I go yet??
      objectReference: {fileID: 0}
    - target: {fileID: 114485212689137276, guid: 029c17544fabbde43bb73a9f1d1359b7,
        type: 2}
      propertyPath: dialogue.Array.data[10]
      value: Why is he just standing there? Can't I go yet??
      objectReference: {fileID: 0}
    - target: {fileID: 114485212689137276, guid: 029c17544fabbde43bb73a9f1d1359b7,
        type: 2}
      propertyPath: dialogue.Array.data[11]
      value: Why is he just standing there? Can't I go yet??
      objectReference: {fileID: 0}
    - target: {fileID: 114485212689137276, guid: 029c17544fabbde43bb73a9f1d1359b7,
        type: 2}
      propertyPath: dialogue.Array.data[12]
      value: Why is he just standing there? Can't I go yet??
      objectReference: {fileID: 0}
    - target: {fileID: 114485212689137276, guid: 029c17544fabbde43bb73a9f1d1359b7,
        type: 2}
      propertyPath: dialogue.Array.data[13]
      value: Why is he just standing there? Can't I go yet??
      objectReference: {fileID: 0}
    - target: {fileID: 114485212689137276, guid: 029c17544fabbde43bb73a9f1d1359b7,
        type: 2}
      propertyPath: dialogue.Array.data[14]
      value: Why is he just standing there? Can't I go yet??
      objectReference: {fileID: 0}
    - target: {fileID: 114485212689137276, guid: 029c17544fabbde43bb73a9f1d1359b7,
        type: 2}
      propertyPath: dialogue.Array.data[15]
      value: Why is he just standing there? Can't I go yet??
      objectReference: {fileID: 0}
    - target: {fileID: 114485212689137276, guid: 029c17544fabbde43bb73a9f1d1359b7,
        type: 2}
      propertyPath: dialogue.Array.data[16]
      value: Why is he just standing there? Can't I go yet??
      objectReference: {fileID: 0}
    - target: {fileID: 114485212689137276, guid: 029c17544fabbde43bb73a9f1d1359b7,
        type: 2}
      propertyPath: dialogue.Array.data[17]
      value: Why is he just standing there? Can't I go yet??
      objectReference: {fileID: 0}
    - target: {fileID: 114485212689137276, guid: 029c17544fabbde43bb73a9f1d1359b7,
        type: 2}
      propertyPath: dialogue.Array.data[18]
      value: Why is he just standing there? Can't I go yet??
      objectReference: {fileID: 0}
    - target: {fileID: 114485212689137276, guid: 029c17544fabbde43bb73a9f1d1359b7,
        type: 2}
      propertyPath: dialogue.Array.data[19]
      value: Why is he just standing there? Can't I go yet??
      objectReference: {fileID: 0}
    - target: {fileID: 114485212689137276, guid: 029c17544fabbde43bb73a9f1d1359b7,
        type: 2}
      propertyPath: dialogue.Array.data[20]
      value: Why is he just standing there? Can't I go yet??
      objectReference: {fileID: 0}
    m_RemovedComponents: []
  m_ParentPrefab: {fileID: 100100000, guid: 029c17544fabbde43bb73a9f1d1359b7, type: 2}
  m_IsPrefabParent: 0
